// 3345
//== Delayed Gratification
== Розділ 19. Відкладена винагорода

***

// 3346
//Blood for the blood god! Skulls for J. K. Rowling!
Кров для бога крови! Черепи для Джоан Ролінґ!

***

// 3347
//Draco had a stern expression on his face, and his green-trimmed robes somehow
//looked far more formal, serious, and well-turned-out than the same exact robes
//as worn by the two boys behind him.
Суворий вираз застиг на обличчі Драко, а його мантія із зеленою облямівкою чомусь
здавалася більш офіційною, солідною і взагалі кращою, ніж такі самі на
двох хлопцях позаду нього.

// 3348
//“Talk,” said Draco.
-- Розказуй, -- звелів Драко.

// 3349
//“Yeah! Talk!”
-- Так! Розказуй!

// 3350
//“You heard da boss! Talk!”
-- Ти чув боса! Давай розказуй!

// 3351
//“You two, on the other hand, __shut up.__”
-- А ви двоє, навпаки, __стуліть пельки__.

// 3352
//The last session of classes on Friday was about to start, in that vast
//auditorium where all four Houses learned Defense, er, Battle Magic.
Останні два заняття пʼятниці мали ось-ось розпочатися в просторій авдиторії, де
всі чотири гуртожитки вивчали захист... тобто бойову магію.

// 3353
//The last session of classes on Friday.
Останні два заняття пʼятниці.

// 3354
//Harry was hoping that this class would be non-stressful, and that the brilliant
//Professor Quirrell would realize this was perhaps not the best time to single
//out Harry for anything. Harry had recovered a little, but…
Гаррі сподівався, що цей урок мине спокійно, що геніальний професор Квірел, мабуть,
зрозуміє: зараз не найкращий час, щоб виділяти Гаррі серед решти. Він дещо оклигав
після попередніх подій, проте...
// 3355
//…but just in case, it was probably best to get in a bit of stress relief first.
Добре було б трохи заспокоїтися й відпочити про всяк випадок.

// 3356
//Harry leaned back in his chair and bestowed a look of great solemnity upon
//Draco and his minions.
Гаррі відкинувся на спинку стільця й урочисто поглянув на Драко та його посіпак.

// 3357
//“You ask, what is our aim?” Harry declaimed. “I can answer in one word. It is
//victory. Victory at all costs - Victory in spite of all terrors - Victory,
//however long and hard the road may be, for without victory there is no -”
// @ це цитата з промови Вінстона Черчілля "Піт, кров та сльози", 1940, самоперекладено
-- Ви питаєте, яка наша мета? -- проголосив він. -- Я відповім вам одним
словом: перемога. Перемога за будь-яку ціну. Перемога попри всі
жахіття. Перемога, хай яким довгим і тяжким буде шлях, бо без перемоги не...

// 3358
//“__Talk about Snape,__” Draco hissed. ”__What did you do?__”
-- __Про Снейпа__, -- зашипів Драко. -- __Що ти зробив?__

// 3359
//Harry wiped away the fake solemnity and gave Draco a more serious look.
Гаррі скинув удавану маску врочистости й серйозніше поглянув на Драко:

// 3360
//“You saw it,” Harry said. “Everyone saw it. I snapped my fingers.”
-- Ти сам бачив. Усі це бачили. Я клацнув пальцями.

// 3361
//“__Harry! Stop teasing me!__”
-- __Гаррі! Годі дражнитися!__

// 3362
//So he’d been promoted to __Harry__ now. Interesting. And in fact Harry was
//fairly sure that he was meant to notice that, and feel bad if he didn’t respond
//somehow…
Отже, його підвищили до "`Гаррі`". Цікаво. Гаррі був доволі певен:
задумувалося, що він зверне на це увагу й почуватиметься погано, якщо
не дасть хоч якоїсь відповіді...

// 3363
//Harry tapped his ears and gave a significant glance at the minions.
Гаррі прикрив вуха долонями й кинув значущий погляд на двох посіпак.

// 3364
//“They won’t talk,” said Draco.
-- Вони мовчатимуть, -- запевнив Драко.

// 3365
//“Draco,” Harry said, “I’m going to be one hundred percent honest here and say
//that yesterday I was not particularly impressed with Mr. Goyle’s cunning.”
-- Драко, -- мовив Гаррі, -- я буду відвертим на сто відсотків: містер Ґойл геть не
вразив мене своєю кмітливістю вчора.

// 3366
//Mr. Goyle winced.
Містер Ґойл здригнувся.

// 3367
//“Me neither,” said Draco. “I explained to him that I ended up owing you a favor
//because of it.” (Mr. Goyle winced again.) “But there __is__ a big
//difference between that sort of mistake and being indiscreet. That really is
//something they’ve been trained from childhood to understand.”
-- Мене також, -- відповів Драко. -- Я пояснив йому, що через це завинив тобі послугу, --
містер Ґойл знову здригнувся. -- А втім, існує __велика__ різниця між такою
помилкою та балакучістю -- це те, що їм утовкмачували були ще змалечку.

// 3368
//“All right then,” Harry said. He lowered his voice, even though the background
//noises had gone to blurs in Draco’s presence. “I deduced one of Severus’s
//secrets and did a bit of blackmail.”
-- Ну гаразд, -- погодився Гаррі. Звуки довкола злилися в нечіткий гамір у присутності
Драко, проте він однаково стишив голос. -- Я розгадав один із секретів
Северуса й вдався до невеличкого шантажу.

// 3369
//Draco’s expression hardened. “Good, now tell me something you didn’t tell in
//strict confidence to the idiots in Gryffindor, meaning that was the story you
//__wanted__ to get all over the school.”
-- Добре, -- Дракове обличчя посуворішало, -- а зараз дай мені щось, що ти цілковито таємно не
розтриндів був тим телепням-ґрифіндорцям для того, щоб саме цей поголос ширився школою.

// 3370
//Harry grinned involuntarily and he knew that Draco had caught it.
Гарріні губи мимохіть розтягнулися в усмішці. Він знав, що Драко це зауважив.

// 3371
//“What is Severus saying?” Harry said.
-- А що каже Северус? -- спитав Гаррі.

// 3372
//“That he hadn’t realized how sensitive the feelings of young children were,”
//Draco said. “Even in Slytherin! Even to __me!__”
-- Що він гадки не мав, наскільки чутливими є юні учні. Навіть
слизеринцям! Навіть __мені__!

// 3373
//“Are you sure,” Harry said, “that you want to know something your Head of House
//would rather you not know?”
-- А ти впевнений, -- поцікавився Гаррі, -- що хочеш знати речі, що їх вихователь твого гуртожитку
волів би приховати від тебе?

// 3374
//“Yes,” Draco said without hesitation.
-- Так, -- Драко не завагався.

// 3375
//__Interesting.__ “Then you really are going to send your minions away
//first, because I’m not sure I can believe everything you believe about them.”
"`Цікаво`".

-- Тоді тобі таки доведеться відіслати геть своїх посіпак: я не певен, що можу
вірити їм так, як ти.

// 3376
//Draco nodded. “Okay.”
-- Згода, -- кивнув Драко.

// 3377
//Mr. Crabbe and Mr. Goyle looked __very__ unhappy. “Boss -” said Mr.
//Crabbe.
Містер Креб і містер Ґойл видавалися дуже нещасними.

-- Босе... -- озвався містер Креб.

// 3378
//“You’ve given Mr. Potter no reason to trust you,” Draco said. “Go!”
-- Містер Поттер не має підстав довіряти вам. Геть!

// 3379
//They left.
Вони пішли.

// 3380
//“In particular,” Harry said, lowering his voice even further, “I’m not
//__entirely__ sure that they wouldn’t just report what I said to Lucius.”
-- Зокрема, -- Гаррі ще більше стишив голос, -- я не певен, що вони
не переказали б моїх слів Луціусові.

// 3381
//“Father wouldn’t __do__ that!” Draco said, looking genuinely aghast.
//“They’re __mine!__”
-- Батько б так не вчинив! -- жахнувся Драко. -- Вони __мої__!

// 3382
//“I’m sorry, Draco,” Harry said. “I’m just not sure I can believe everything you
//believe about your father. Imagine it was your secret and me telling you my
//father wouldn’t do that.”
-- Вибач, Драко, але навряд чи я можу бути впевненим у ньому так, як
ти. Уяви, що це твій власний секрет, а я намагаюся переконати
тебе, ніби мій батько так не вчинить.

// 3383
//Draco nodded slowly. “You’re right. __I’m__ sorry, Harry. It was wrong of
//me to ask it of you.”
-- Маєш рацію, -- повільно кивнув Драко. -- Вибач, Гаррі. Вимагати цього від тебе було помилкою.

// 3384
//__How did I get __this__ promoted? Shouldn’t he hate me now? __Harry
//had the feeling he was looking at something exploitable… he just wished his
//brain wasn’t so exhausted. Ordinarily he would have loved to try his hand at
//some complicated plotting.
"`Коли це я встиг __так__ вирости в його очах? Хіба він не мав би зараз мене ненавидіти?`".

Гаррі відчував: перед ним щось, чим можна скористатися у своїх інтересах... От
якби ще його мозок не був таким втомленим. Зазвичай він би залюбки випробував
свої сили в плетінні складної інтриги.

// 3385
//“Anyway,” Harry said. “Trade. I tell you a fact that isn’t on the grapevine,
//and does not __go__ on the grapevine, and in __particular__ does not
//go to your father, and in return you tell me what you and Slytherin think about
//the whole business.”
-- Хай там як, -- сказав Гаррі. -- Обмін. Я поділюся фактом, що не є відомим
сарафанному радіо, не має стати відомим сарафанному радіо, а __особливо__ не
має стати відомим твоєму батькові. Навзамін я очікую почути, що ти й Слизерин
думаєте про все це.

// 3386
//“Deal!”
-- Згода!

// 3387
//Now to make this as vague as possible… something that wouldn’t hurt much even
//if it did get out… “What I said was true. I did discover one of Severus’s
//secrets, and I did do some blackmail. But Severus wasn’t the only person
//involved.”
Тепер говорити якомога більшими манівцями... Так, щоб не нашкодити, навіть якщо
випливе назовні...

-- Я не брехав. Я довідався про один із Северусових секретів
і справді його шантажував. Але до цього причетний не тільки він.

// 3388
//“__I knew it!__” Draco said exultantly.
-- __Я так і знав!__ -- тріумфально вигукнув Драко.

// 3389
//Harry’s stomach sank. He had apparently said something very significant and he
//did not know why. This was not a good sign.
У Гаррі тенькнуло в грудях. Вочевидь, він вибовкав щось дуже важливе, але не
розумів, що саме. Поганий знак.

// 3390
//“All right,” Draco said. He was grinning widely now. “So here’s what the
//reaction was like in Slytherin. First, all the idiots were like, ‘We hate Harry
//Potter! Let’s go beat him up!’”
-- Добре, -- Драко широко усміхався. -- Щодо реакції в Слизерині...
Спершу всі невігласи взялися волати щось на кшталт: "`Ми ненавидимо Гаррі Поттера! Побиймо його!`".

// 3391
//Harry choked. “What is __wrong__ with the Sorting Hat? That’s not
//Slytherin, it’s __Gryffindor__ -”
Гаррі шумно зітхнув:

-- Та що ж не так із Сортувальним Капелюхом? Це ж не слизеринські методи,
це ґрифіндорські.

// 3392
//“Not all children are prodigies,” Draco said, though he was smiling in a sort
//of nasty-conspiratorial way, as though to suggest that he privately agreed with
//Harry’s opinion. “And it took around fifteen seconds for someone to explain to
//them why this might not be such a favor to Snape, so you’re fine. Anyway, after
//that was the second wave of idiots, the ones who were saying, ‘Looks like Harry
//Potter was just another do-gooder after all.’”
//@do-gooder
-- Не всім же бути вундеркіндами, -- заперечив Драко, але шкірився він так по-змовницьки,
наче десь у душі погоджувався з ним. --
Їм миттю пояснили, що Снейпові це може тільки нашкодити, тож не переймайся. Хай там як,
друга хвиля неуків припустила, мовляв, Гаррі Поттер зрештою виявився ще одним
поборником справедливости.

// 3393
//“And then?” Harry said, smiling even though he had no idea why __that__
//was stupid.
-- А потім? -- з усмішкою спитав Гаррі, гадки не маючи, чому __ця__
ідея здавалася Драко дурною.

// 3394
//“And then the actual smart people started talking. It’s obvious that you found
//a way to put a __lot__ of pressure on Snape. And while that could be more
//than one thing… the obvious __next__ thought is that it has something to
//do with Snape’s unknown hold over Dumbledore. Am I right?”
-- А потім слово взяли справді розумні люди. Вочевидь, ти знайшов __важіль впливу__
на Снейпа. Ним могло виявитися що завгодно... Та все ж із цього випливала очевидна наступна думка:
це якось повʼязано з його таємничим впливом на Дамблдора. Я маю рацію?

// 3395
//“No comment,” Harry said. At least his brain was processing this part
//correctly. House Slytherin __had__ wondered why Severus wasn’t getting
//fired. And they’d concluded that Severus was blackmailing Dumbledore. Could
//that actually be true…? But Dumbledore hadn’t seemed to act like it…
-- Без коментарів, -- кинув Гаррі.

Принаймні цю частину його мозок проаналізував
правильно. Слизеринці __цікавилися__, чому Северуса досі не звільнили, і
дійшли висновку, що той шантажує Дамблдора. Чи може це бути правдою?.. Проте
нічого в поведінці Дамблдора не свідчило про це...

// 3396
//Draco went on talking. “And the __next__ thing the smart people pointed
//out was that if you could put enough pressure on Snape to make him leave half
//of Hogwarts alone, that meant you probably had enough power to get rid of him
//entirely, if you wanted. What you did to him was a humiliation, just the same
//way he tried to humiliate you - but you left us our Head of House.”
-- Відтак, -- провадив далі Драко, -- розумні люди зазначили, що коли ти вже зміг
натиснути на Снейпа досить сильно, щоб змусити його дати спокій половині
Гоґвортсу, то, мабуть, тобі вистачало впливу, щоб узагалі від нього позбутися.
Натомість ти принизив його так само, як він намагався принизити тебе, та все ж
залишив нам нашого вихователя.

// 3397
//Harry made his smile wider.
Гаррі широко всміхався.

// 3398
//“And then the __really__ smart people,” Draco said, his face now serious,
//“went off and had a little discussion by themselves, and someone pointed out
//that it would be a very stupid thing to leave an enemy around like that. If you
//could break his hold over Dumbledore, the obvious thing would be to just do it.
//Dumbledore would kick Snape out of Hogwarts and maybe even have him killed,
//he’d be __very__ grateful to you, and you wouldn’t have to worry about
//Snape sneaking into your dorm room at night with interesting potions.”
-- А тоді __по-справжньому__ розумні люди, -- Драко прибрав серйозного вигляду,
-- обговорили це між собою, і дехто зауважив, що було б дурістю отак лишати біля
себе ворога. Якби ти міг зламати Снейпів важіль впливу на Дамблдора, то, вочевидь,
так і вчинив би. Тоді Дамблдор викинув би Снейпа з Гоґвортсу й, можливо, навіть
організував би його вбивство. Ти здобув би його __надзвичайну__ вдячність і міг би не
перейматися, що Снейп одної глупої ночі прокрадеться у твою спальню з якимись цікавенькими
зіллями.

// 3399
//Harry’s face was now neutral. He had not thought of that and he really, really
//should have. “And from this you concluded…?”
Гарріне лице нічого не виражало. Він про таке не подумав, хоча справді,
справді слід було.

-- І тоді ви вирішили?..

// 3400
//“Snape’s hold was some secret of Dumbledore’s and __you’ve got the
//secret!__” Draco was looking exultant. “It can’t be powerful enough to destroy
//Dumbledore entirely, or Snape would have used it by now. Snape refuses to use
//his hold for anything except staying king of Slytherin House in Hogwarts, and
//he doesn’t always get what he wants even then, so it must have limits. But it’s
//__got__ to be really good! Father’s been trying to get Snape to tell him
//for __years!__”
-- Снейп заволодів якимось секретом Дамблдора, і __ти дізнався, що це за секрет__!
-- Дракові очі сяяли тріумфом. -- Він недостатньо вагомий, щоб повністю знищити
Дамблдора, інакше Снейп давно б уже це зробив. Снейп використовує свій вплив тільки
для того, щоб залишатися королем Слизерину в Гоґвортсі, та навіть це не завжди
вдається. А тому секрет має бути хоч і важливим, проте не надважливим!
Батько роками намагався вмовити Снейпа розповісти!

// 3401
//“And,” Harry said, “now Lucius thinks maybe __I__ can tell him. Did you
//already get an owl -”
-- Отже, тепер Луціус вважає, що, можливо, йому вдасться дізнатися від __мене__.
Ти вже отримав сову?

// 3402
//“I will tonight,” Draco said, and laughed. “It will say,” his voice took on a
//different, more formal cadence, “__My beloved son: I’ve already told you
//of Harry Potter’s potential importance. As you have already realized, his
//importance has now become greater and more urgent. If you see any possible
//avenue of friendship or point of pressure with him, you must pursue it, and the
//full resources of Malfoy are at your disposal if needed.__”
-- Сьогодні вночі отримаю, -- розсміявся Драко. -- Там буде написано:
"`Мій любий сину! Я вже пояснював тобі потенційну
важливість Гаррі Поттера. Як ти вже збагнув, нині його важливість стала як ніколи суттєвою
й нагальною. Якщо ти угледиш спосіб потоваришувати з ним чи впливати на нього --
дій. Усі ресурси Мелфоїв у твоєму розпорядженні, якщо треба`".

// 3403
//Gosh. “Well,” Harry said, “not commenting on whether or not your whole
//complicated edifice of theory is true, let me just say that we are not quite
//such good friends as yet.”
Хай йому грець.

-- Ну, -- мовив Гаррі, -- я не коментуватиму істинности чи хибности твоєї заплутаної
системи припущень. Скажу лише, що ми ще не настільки близькі друзі.

// 3404
//“I know,” Draco said. Then his face turned __very__ serious, and his voice
//grew quiet even within the blur. “Harry, has it occurred to you that if you
//know something Dumbledore doesn’t want known, Dumbledore might simply have you
//killed? And it would turn the Boy-Who-Lived from a potential competing leader
//into a valuable martyr, too.”
-- Я знаю, -- Драко зробив дуже серйозне обличчя, ще й
стишив голос, незважаючи на звукову завісу. -- Гаррі, чи спадало тобі на думку,
що якщо ти дізнався дещо, що Дамблдор воліє приховувати, то він може просто тебе вбити?
Позбутися Хлопчика-Що-Вижив, ще й перетворити потенційного лідера-конкурента
на мученика?

// 3405
//“No comment,” Harry said yet again. He hadn’t thought of that last part,
//either. Didn’t __seem__ to be Dumbledore’s style… but…
-- Без коментарів, -- повторив Гаррі.

Про цю останню частину він тим паче
не подумав. Видавалося, це не в Дамблдоровому стилі, проте…

// 3406
//“Harry,” Draco said, “you’ve obviously got __incredible __talent, but
//you’ve got no training and no mentors and you do stupid things sometimes and
//__you really need an advisor who knows how to do this or you’re going to
//get hurt!__” Draco’s face was fierce.
-- Гаррі, безсумнівно, ти надзвичайно талановитий, однак тобі бракує
підготовки. Ти не мав наставників, час від часу робиш дурниці. __Тобі справді
потрібен радник, який знається на таких речах, інакше ти колись
постраждаєш!__ -- Дракове обличчя стало надзвичайно суворим.

// 3407
//“Ah,” Harry said. “An advisor like Lucius?”
-- О, радник. Як Луціус, наприклад? -- поцікавився Гаррі.

// 3408
//“Like __me!__” said Draco. “I’ll promise to keep your secrets from Father,
//from __everyone,__ I’ll just help you figure out whatever you want to do!”
-- Як __я__! -- вигукнув Драко. -- Я обіцяю берегти твої таємниці від
батька, від __будь-кого__, просто допомагатиму тобі розібратися, хай що ти
там захочеш зробити!

// 3409
//Wow.
Ого.

// 3410
//Harry saw that zombie-Quirrell was staggering in through the doors.
До авдиторії хистким кроком зайшов зомбі-Квірел.

// 3411
//“Class is about to start,” said Harry. “I’ll think about what you said, there’s
//lots of times I __do__ wish I had all your training, it’s just I don’t
//know how I can trust you so quickly -”
-- Урок от-от почнеться, -- зауважив Гаррі. -- Я обміркую твої слова. Мені справді
бракує твоєї підготовки, проте я не певен, що можу так швидко тобі довіритися...

// 3412
//“You shouldn’t,” Draco said, “it’s too soon. See? I’ll give you good advice
//even if it hurts me. But we should maybe __hurry up__ and become closer
//friends.”
-- Ти й не маєш бути певен, це зарано. Бачиш? Я
даю тобі слушну пораду, навіть якщо вона шкодить мені. Але, мабуть, нам варто
поквапитися з тим, щоб здружитися ближче.

// 3413
//“I’m open to that,” said Harry, who was already trying to figure out how to
//exploit it.
-- Я не проти, -- відповів Гаррі, уже обдумуючи, як би то йому скористатися цією
дружбою.

// 3414
//“Another bit of advice,” Draco said hurriedly as Quirrell slouched toward his
//desk, “right now everyone in Slytherin’s wondering about you, so if you’re
//courting us, which I think you are, you should do something that signals
//friendship to Slytherin. __Soon__, like today or tomorrow.”
-- Ще одна невеличка порада, -- хутко промовив Драко, поки Квірел плентався до
свого стола. -- Зараз кожен слизеринець цікавиться тобою, тому якщо ти заграєш
із нами -- а я гадаю, що це так, -- то вчини щось, що сигналізуватиме про дружбу зі
Слизерином. __Якомога швидше__, сьогодні чи завтра.

// 3415
//“Letting Severus go on awarding extra House points to Slytherin wasn’t enough?”
//No reason Harry couldn’t take credit for it.
-- Того, що Северус і надалі нараховуватиме Слизерину додаткові очки, недостатньо?
-- Гаррі не бачив причини, чому б не привласнити цю заслугу.

// 3416
//Draco’s eyes flickered with realization, then he said rapidly, “It’s not the
//same, trust me, it’s got to be something obvious. Push your mudblood rival
//Granger into a wall or something, everyone in Slytherin will know what that
//means -”
Дракові очі блиснули усвідомленням, і він поспішив пояснити:

-- Це не те, повір. Потрібно щось очевидне. Штовхни об стіну ту
бруднокровку Ґрейнджер, твою суперницю, чи щось таке. Тоді всі в Слизерині
зрозуміють, що це означає...

// 3417
//“That is __not__ how it works in Ravenclaw, Draco! If you have to push
//someone into a wall it means your brain is too __weak__ to beat them the
//right way and everyone in Ravenclaw __knows that__ -”
-- Так __не личить__ чинити рейвенкловцеві, Драко! Штовхнути
когось об стіну -- це визнати, що тобі бракує мізків, щоб перемогти чесно,
і всі в Рейвенклові знають це.

// 3418
//The screen on Harry’s desk flickered on, provoking a sudden wash of nostalgia
//for television and computers.
Екран на парті Гаррі заблимав, викликавши несподівану ностальгію за телевізорами й
компʼютерними моніторами.

// 3419
//“Ahem,” said Professor Quirrell’s voice, seeming to speak personally to Harry
//out of the screen. “Please take your seats.”
-- Кгем, -- професор Квірел з екрана звертався наче персонально до Гаррі.
-- Будь ласка, сядьте на свої місця.

***

// 3420
//And the children were all seated and staring at the repeater screens on their
//desks, or looking down directly at the great white marble stage where Professor
//Quirrell stood, leaning on his desk atop the small dais of darker marble.
Діти розсілися по місцях і втупилися хто в екрани, хто безпосередньо
на великий білий мармуровий поміст, на якому стояв професор Квірел. Він спирався на
свій стіл, розміщений на невеликому підвищенні з темнішого мармуру.

// 3421
//“Today,” said Professor Quirrell, “I had planned to teach you your first
//defensive spell, a small shield that was the ancestor of today’s
//__Protego.__ But on second thought I have changed today’s lesson plan in
//the light of recent events.”
-- Сьогодні, -- почав професор Квірел, -- я планував був навчити вас
першого захисного закляття -- маленького щита, попередника сучасного "`Протеґо`".
Та з огляду на останні події я вирішив змінити план цього заняття.

// 3422
//Professor Quirrell’s gaze searched the rows of seats. Harry winced from where
//he was sitting, in the back row. He had a feeling he knew who was about to be
//called on.
Професор Квірел поглядом вишукував когось поміж рядів. Гаррі здригнувся на своєму місці
за останньою партою. Йому здалося, що він знає, кого зараз викличуть.

// 3423
//“Draco, of the Noble and Most Ancient House of Malfoy,” said Professor
//Quirrell.
-- Драко зі шляхетного й найдавнішого роду Мелфоїв, -- звернувся професор Квірел.

// 3424
//Whew.
Фух.

// 3425
//“Yes, Professor?” said Draco. His voice was amplified, seeming to come from the
//repeater screen on Harry’s desk, which showed Draco’s face as he spoke. Then
//the screen shifted back to Professor Quirrell, who said:
-- Так, професоре? -- відгукнувся Драко.

Складалося враження, наче його підсилений голос долинав із екрана на парті Гаррі, що показав
також його обличчя, щойно той заговорив. Згодом на екран повернувся професор
Квірел:

// 3426
//“Is it your ambition to become the next Dark Lord?”
-- Чи прагнете ви стати наступним темним лордом?

// 3427
//“That’s an odd question, Professor,” said Draco. “I mean, who’d be dumb enough
//to admit it?”
-- Дивне питання, професоре. Маю на увазі, який дурень
зізнається в такому?

// 3428
//A few students laughed, but not many.
Декілька учнів засміялося, проте далеко не всі.

// 3429
//“Indeed,” said Professor Quirrell. “So while there’s no point in asking any of
//you, it would not surprise me in the slightest if there were a student or two
//in my classes who harbored ambitions of being the next Dark Lord. After all,
//__I__ wanted to be the next Dark Lord when __I__ was a young
//Slytherin.”
-- Саме так, -- погодився професор Квірел. -- Тож немає сенсу питати про це решту.
Та мене анітрохи не здивує, якщо хоча б один чи двоє моїх учнів затаїли прагнення
стати наступним темним лордом. Врешті-решт, __я__ бажав ним стати, коли був юним
слизеринцем.

// 3430
//This time the laughter was much more widespread.
Цього разу смішки виявилися численнішими.

// 3431
//“Well, it __is__ the House of the ambitious, after all,” Professor
//Quirrell said, smiling. “I didn’t realize until later that what I really
//enjoyed was Battle Magic, and that my true ambition was to become a great
//fighting wizard and someday teach at Hogwarts. In any case, when I was thirteen
//years old, I read through the historical sections of the Hogwarts library,
//scrutinizing the lives and fates of past Dark Lords, and I made a list of all
//the mistakes that __I__ would never make when __I__ was a Dark Lord
//-”
-- Зрештою, це гуртожиток амбітних, -- усміхаючись, додав професор
Квірел. -- Лише пізніше я усвідомив, що бойова магія подобається мені куди більше,
а моє справжє покликання -- стати могутнім бойовим магом і колись навчати в
Гоґвортсі. Хай там як, коли мені було тринадцять, я ґрунтовно дослідив
історичну секцію гоґвортської бібліотеки й ретельно вивчив життя та долі попередніх
темних лордів, відтак склав список усіх тих помилок, що їх __я__ ніколи не припущуся,
коли __я__ стану темним лордом.

// 3432
//Harry giggled before he could stop himself.
Гаррі не втримав хихотіння.

// 3433
//“Yes, Mr. Potter, very amusing. So, Mr. Potter, can you guess what was the very
//first item on that list?”
-- Так, містере Поттер, дуже захопливо. Не спробуєте здогадатися,
яка помилка була першою в списку?

// 3434
//__Great.__ “Um… never use a complicated way of dealing with an enemy when
//you can just Abracadabra them?”
"`Чудово`".

-- Ем-м... Ніколи не вдаватися до заплутаного способу для перемоги над ворогом,
коли можна його просто заабракадабрити?

// 3435
//“The __term,__ Mr. Potter, is __Avada Kedavra,__” Professor
//Quirrell’s voice sounded a bit sharp for some reason, “and no, that was
//__not__ on the list I made at age thirteen. Would you care to guess
//again?”
-- Правильний термін -- "`Авада Кедавра`", містере Поттер, -- чомусь різко виправив професор
Квірел. -- Але ні, цього __не було__ в списку, який
я зробив у тринадцять років. Ще думки?

// 3436
//“Ah… never brag to anyone about your evil master plan?”
//@master plan
-- Е-е... Ніколи не вихвалятися перед іншими своїм злим планом тотального панування?

// 3437
//Professor Quirrell laughed. “Ah, now __that__ was number two. My, Mr.
//Potter, have we been reading the same books?”
-- О, -- засміявся професор Квірел, -- це значилося другим пунктом. Містере Поттер, невже ми читали
одні й ті самі книжки?

// 3438
//There was more laughter, with an undertone of nervousness. Harry clenched his
//jaw tightly shut and said nothing. A denial would accomplish nothing.
Клас наповнився дещо знервованим сміхом. Гаррі зціпив зуби й промовчав.
Запереченнями він нічого не досягне.

// 3439
//“But no. The __first__ item was, ‘I will not go around provoking strong,
//vicious enemies.’ The history of the world would be very different if
//Mornelithe Falconsbane or Hitler had grasped that elementary point. Now
//__if,__ Mr. Potter - just __if__ by some chance you harbor an
//ambition similar to the one I held as a young Slytherin - even so, I hope it is
//not your ambition to become a __stupid__ Dark Lord.”
-- Але ні. Перший пункт проголошував: "`Я ніколи не провокуватиму сильних,
небезпечних противників`". Історія світу склалася б геть інакше, якби Морнеліт
Фальконсбейн чи Гітлер усвідомлювали цю просту істину. Тепер, містере Поттер,
якщо -- наголошую: __якщо__ -- раптом ви затаїли амбіції, подібні до тих, що їх я
плекав у шкільні роки, то, сподіваюся, ви не плануєте стати __дурним__ темним лордом.

// 3440
//“Professor Quirrell,” Harry said, gritting his teeth, “I am a
//__Ravenclaw__ and it is not my ambition to be stupid, period. I know that
//what I did today was dumb. But it wasn’t __Dark!__ I was __not__ the
//one who threw the first punch in that fight!”
-- Професоре Квірел, -- процідив Гаррі крізь зуби, -- я рейвенкловець,
і моя мета -- не бути дурним. Крапка. Я знаю, що вчинив сьогодні нерозумно. Та це
не було проявом __темряви__! __Не я__ завдав першого удару в цій бійці!

// 3441
//“You, Mr. Potter, are an idiot. But then so was I at your age. Thus I
//anticipated your answer and altered today’s lesson plan accordingly. Mr.
//Gregory Goyle, if you would come forward, please?”
-- Ви бовдур, містере Поттер. Втім, у вашому віці я був таким самим. Я
передбачав, що щось таке ви й відповісте, тому змінив план сьогоднішнього заняття. Містере
Ґреґорі Ґойл, чи не буде ваша ласка вийти вперед?

// 3442
//There was a surprised pause in the classroom. Harry hadn’t been expecting that.
Від здивування в класі запала тиша. Такого Гаррі не очікував.
// 3443
//Neither, from the looks of it, had Mr. Goyle, who looked rather uncertain and
//worried as he mounted the marble stage and approached the dais.
Як і містер Ґойл, судячи з виразу його обличчя.
Збентежений і схвильований, він видерся на мармуровий поміст і наблизився до
підвищення.

// 3444
//Professor Quirrell straightened from where he was leaning on the desk. He
//looked suddenly stronger, and his hands formed fists and he drew himself up
//into a clearly recognizable martial arts stance.
Професор Квірел перестав спиратися на стіл і вирівнявся. Він раптово почав видаватися
сильнішим, а його руки стиснулися в кулаки. Вчитель став у стійку, що, безсумнівно,
була з якогось бойового мистецтва.

// 3445
//Harry’s eyes widened at the sight, and he realized why Mr. Goyle had been
//called up.
Очі Гаррі розширилися: він збагнув, чому викликали саме Ґойла.

// 3446
//“Most wizards,” Professor Quirrell said, “do not bother much with what a Muggle
//would term martial arts. Is not a wand stronger than a fist? This attitude is
//stupid. Wands are held in fists. If you want to be a great fighting wizard you
//__must__ learn martial arts to a level which would impress even a Muggle.
//I will now demonstrate a certain vitally important technique, which I learned
//in a __dojo,__ a Muggle school of martial arts, of which I shall speak
//more shortly. For now…” Professor Quirrell took several steps forward, still in
//stance, advancing on where Mr. Goyle stood. “Mr. Goyle, I will ask you to
//attack me.”
// dojo: http://kanku.org.ua/trenuvannja-v-dodjo/
-- Більшість чарівників, -- промовив професор Квірел, -- не переймається тим, що маґли
називають бойовими мистецтвами. Хіба паличка не сильніша за кулак?
Абсурд. Палички тримають у кулаках. Якщо ви хочете стати видатним бойовим магом,
ви __мусите__ опанувати бойові мистецтва на рівні, що вразив би навіть маґла.
Зараз я продемонструю життєво необхідне вміння, якого я навчився в доджьо --
маґлівській школі бойових мистецтв, але про неї трохи згодом. А зараз...

Все ще перебуваючи в стійці, професор Квірел зробив кілька кроків уперед, наступаючи на учня:

-- Містере Ґойл, атакуйте.

// 3447
//“Professor Quirrell,” said Mr. Goyle, his voice now amplified as the
//professor’s was, “can I ask what level -”
-- Професоре Квірел, -- містер Ґойл звучав так само підсилено,
як і професор, -- дозвольте спитати, який рівень...

// 3448
//“Sixth __dan__. You will not be hurt and neither will I. And if you see an
//opening, please take it.”
//@opening
-- Шостий дан. Не постраждаєте ані ви, ані я. Якщо побачите нагоду добратися до мене -- будь ласка,
скористайтеся нею.

// 3449
//Mr. Goyle nodded, looking much relieved.
Містер Ґойл полегшено кивнув.

// 3450
//“Note,” Professor Quirrell said, “that Mr. Goyle was afraid to attack someone
//who did not know martial arts to an acceptable level, for fear that I, or he,
//would be hurt. Mr. Goyle’s attitude is exactly correct and he has earned three
//Quirrell points for it. Now, fight!”
-- Зауважте: містер Ґойл не став атакувати когось, хто не володіє бойовими
мистецтвами на достатньому рівні, побоюючись, що хтось із нас постраждає.
Поведінка містера Ґойла цілковито правильна, і за неї він отримує три бали Квірела.
А тепер -- бій!

// 3451
//The young boy blurred forward, fists flying, and the Professor blocked every
//blow, dancing backward, Quirrell kicked and Goyle blocked and spun and tried to
//trip Quirrell with a sweeping leg and Quirrell hopped over it and it was all
//happening too fast for Harry to make sense of what was going on and then Goyle
//was on his back with his legs pushing and Quirrell was actually __flying
//through the air__ and then he hit the ground shoulder first and rolled.
Хлопець стрімголов накинувся на професора з кулаками, однак той легко їх відбив,
відступаючи, наче в танці. Квірел атакував ногою, Ґойл її заблокував і з розвороту,
широко замахнувшись, спробував збити суперника з ніг власним ударом ноги. Професор
Квірел перестрибнув, і все відбувалося надто швидко, щоб Гаррі міг усвідомити,
що взагалі коїться. Раптом Ґойл опинився на спині, щосили штовхнувши ногами вгору, а
Квірел полетів над підлогою, приземлився об неї плечем і перекотився.

// 3452
//“Stop!” cried Professor Quirrell from the ground, sounding a little panicked.
//“You win!”
-- Стоп! -- закричав професор Квірел із нотками паніки в голосі.
-- Ви перемогли!

// 3453
//Mr. Goyle pulled up so sharply he staggered, almost tripping and falling from
//the aborted momentum of his headlong charge toward Professor Quirrell. His face
//showed utter shock.
Містер Ґойл занадто різко підвівся й захитався. Йому ледве вдавалося встояти на ногах,
так раптово обірвавши свою стрімку атаку. На його лиці читався
цілковитий шок.

// 3454
//Professor Quirrell arched his back and bounced to his feet using a peculiar
//springing motion that made no use of his hands.
Професор Квірел вигнув спину й стрибнув на ноги дивним пружним рухом без
допомоги рук.

// 3455
//There was a silence in the classroom, a silence born of total confusion.
У класі стояла тиша. Породжена загальною, всеохопною розгубленістю тиша.

// 3456
//“Mr. Goyle,” said Professor Quirrell, “what vitally important technique did I
//demonstrate?”
-- Містере Ґойл, яке життєво необхідне вміння
я щойно продемонстрував?

// 3457
//“How to fall correctly when someone throws you,” said Mr. Goyle. “It’s one of
//the very first lessons you learn -”
-- Як правильно падати, коли хтось кидає вас, -- припустив той. -- Це
найперше, що ти опановуєш, коли...

// 3458
//“That too,” said Professor Quirrell.
-- І це також, -- перебив професор Квірел.

// 3459
//There was a pause.
Знову запала коротка тиша.

// 3460
//“The vitally important technique which I demonstrated,” said Professor
//Quirrell, “was how to lose. You may go, Mr. Goyle, thank you.”
-- Життєво необхідне вміння, що його я продемонстрував, -- як програвати.
Ви вільні, містере Ґойл, дякую.

// 3461
//Mr. Goyle walked off the platform, looking rather bewildered. Harry felt the
//same way.
Доволі збентежений містер Ґойл зійшов із помосту. Гаррі міг його
зрозуміти.

// 3462
//Professor Quirrell walked back to his desk and resumed leaning on it.
//“Sometimes we forget the most basic things, since it has been too long since we
//learned them. I realized I had done the same with my own lesson plan. You do
//not teach students to throw until you have taught them to fall. And I must not
//teach you to fight if you do not understand how to lose.”
Професор повернувся до свого стола й знову сперся на нього:

-- Інколи ми забуваємо самісінькі основи, бо минуло надто багато часу, відколи ми
вивчили їх. Я усвідомив, що припустився цієї ж помилки в навчальному плані.
Учнів не навчають кидків, доки вони не навчаться падати. І я не можу вчити вас перемагати,
доки ви не затямите, як програвати.

// 3463
//Professor Quirrell’s face hardened, and Harry thought he saw a hint of pain, a
//touch of sorrow, in those eyes. “I learned how to lose in a __dojo__ in
//Asia, which, as any Muggle knows, is where all the good martial artists live.
//This __dojo__ taught a style which had a reputation among fighting wizards
//as adapting well to magical dueling. The Master of that __dojo__ - an old
//man by Muggle standards - was that style’s greatest living teacher. He had no
//idea that magic existed, of course. I applied to study there, and was one of
//the few students accepted that year, from among many contenders. There might
//have been a tiny bit of special influence involved.”
Лице професора Квірела стало жорсткішим. Гаррі здалося, що він побачив у його очах біль,
смуток.

-- Я навчився програвати в доджьо в Азії, що, як всі маґли знають, є місцем, де
живуть найкращі майстри бойових мистецтв. Це доджьо навчало стилю, що серед
бойових магів мав репутацію добре поєднуваного з магічними дуелями.
Майстер того доджьо -- старий, як на маґла, чоловік -- був найвидатнішим
учителем цього стилю серед своїх сучасників. Звісно, він і гадки не мав, що магія існує.
Я спробував потрапити на навчання туди й з-поміж усіх претендентів став одним із небагатьох
прийнятих учнів того року. Можливо, не минулося без деякої крихти особливого впливу.

// 3464
//There was some laughter in the classroom. Harry didn’t share it. That hadn’t
//been right at all.
У класі залунали поодинокі смішки. Гаррі не поділяв цього сміху. Це було геть неправильно.

// 3465
//“In any case. During one of my first fights, after I had been beaten in a
//particularly humiliating fashion, I lost control and attacked my sparring
//partner -”
-- Хай там як, під час одного з моїх перших поєдинків, коли мене побили в особливо
принизливий спосіб, я втратив над собою контроль і накинувся на свого спаринг-партнера...

// 3466
//__Yikes.__
Ой-ой.

// 3467
//“- thankfully with my fists, rather than my magic. The Master, surprisingly,
//did not expel me on the spot. But he told me that there was a flaw in my
//temperament. He explained it to me, and I knew that he was right. And then he
//said that I would learn how to lose.”
-- ...кулаками, на щастя, а не магією. Майстер, на диво, не вигнав мене тієї ж
миті, а зазначив, що в моєму темпераменті є вада, і пояснив її мені.
Я знав, що це правда, і він сказав, що я навчуся програвати.

// 3468
//Professor Quirrell’s face was expressionless.
На обличчі професора Квірела не було жодної емоції.

// 3469
//“Upon his strict orders, all of the students of the __dojo__ lined up. One
//by one, they approached me. I was __not__ to defend myself. I was only to
//beg for mercy. One by one, they slapped me, or punched me, and pushed me to the
//ground. Some of them spat on me. They called me awful names in their language.
//And to each one, I had to say, ‘I lose!’ and similar such things, such as ‘I
//beg you to stop!’ and ‘I admit you’re better than me!’”
-- За його суворим наказом усі учні доджьо вишикувалися й
підходили до мене один за одним. Мені було велено __не захищатися__, лише просити змилуватися. Один
за одним вони давали мені ляпасів, били мене чи штовхали на землю. Дехто навіть
плював. Вони лаяли мене жахливими словами їхньою мовою. І кожному я
мусив казати: "`Я програв!`", "`Молю вас, припиніть!`",
"`Я визнаю, що ви кращі за мене!`".

// 3470
//Harry was trying to imagine this and simply failing. There was no way something
//like that could have happened to the dignified Professor Quirrell.
Гаррі намагався це уявити, але безуспішно. Просто немислимо, щоб щось
подібне могло трапитися зі статечним професором Квірелом.

// 3471
//“I was a prodigy of Battle Magic even then. With wandless magic alone I could
//have killed everyone in that dojo. I did not do so. I learned to lose. To this
//day I remember it as one of the most unpleasant hours of my life. And when I
//left that dojo eight months later - which was not nearly enough time, but was
//all I could afford to spend - the Master told me that he hoped I understood why
//that had been necessary. And I told him that it was one of the most valuable
//lessons I had ever learned. Which was, and is, true.”
-- Я був генієм бойової магії вже тоді. Я навіть не потребував палички, щоб
повбивати всіх у тому доджьо, однак не зробив цього. Я навчився
програвати. Навіть сьогодні цей спогад є одним із найнеприємніших у моєму житті. Коли
я покинув доджьо вісім місяців потому -- термін
замалий, проте на довше я затриматися не міг, -- Майстер висловив
надію, що я зрозумів, чому це було потрібно. Я відповів, що засвоїв дуже цінну науку, одну з
найцінніших у моєму житті, і це було й залишається правдою.

// 3472
//Professor Quirrell’s face turned bitter. “You are wondering where this
//marvelous __dojo__ is, and whether you can study there. You cannot. For
//not long afterward, another would-be student came to that hidden place, to that
//remote mountain. He-Who-Must-Not-Be-Named.”
Лице професора Квірела спотворила гіркота.

-- Ви, мабуть, гадаєте, де ж це дивовижне доджьо й чи можна там
повчитися. Не можна. Бо невдовзі інший спраглий до знань учень навідався до того
схованого місця, до тієї далекої гори. Той-Кого-Не-Можна-Називати.

// 3473
//There was the sound of many breaths being drawn in simultaneously. Harry felt
//sick to his stomach. He knew what was coming.
Гаррі почув, як багато хто одночасно глибоко вдихнув. Живіт йому
скрутило. Він знав, що буде далі.

// 3474
//“The Dark Lord came to that school openly, without disguise, glowing red eyes
//and all. The students tried to bar his way and he simply Apparated through.
//There was terror there, but discipline, and the Master came forth. And the Dark
//Lord demanded - not asked, but demanded - to be taught.”
-- Темний Лорд прийшов до тієї школи відкрито, без маскування, палаючі червоні очі
й усе таке. Учні заступили йому шлях, та він просто розʼявився крізь
них. Їх охопив жах, та вони були дисциплінованими, і майстер вийшов наперед. Темний
Лорд почав вимагати -- не просити, а вимагати, -- щоб його навчали.

// 3475
//Professor Quirrell’s face was very hard. “Perhaps the Master had read too many
//books telling the lie that a true martial artist could defeat even demons. For
//whatever reason, the Master refused. The Dark Lord asked why he could not be a
//student. The Master told him he had no patience, and that was when the Dark
//Lord ripped his tongue out.”
-- Можливо, -- професор Квірел напружився, -- він начитався книжок, що вводять в оману брехливими словами, мовляв, справжній
майстер бойових мистецтв здатен здолати навіть демона. Хай з якої причини, але
він відмовився. Темний Лорд запитав, чому йому не можна навчатися тут, на що майстер
відповів, що в того недостатньо терпіння, -- і тоді Темний Лорд вирвав йому язика.

// 3476
//There was a collective gasp.
Усі гуртом зойкнули.

// 3477
//“You can guess what happened next. The students tried to rush the Dark Lord and
//fell over, stunned where they stood. And then…”
-- Ви можете здогадатися, що сталося потім. Учні спробували навалитися на Темного
Лорда й попадали, паралізовані на місці. А тоді...

// 3478
//Professor Quirrell’s voice faltered for a moment, then resumed.
Професор Квірел на якусь мить затих.

// 3479
//“There is an Unforgiveable Curse, the Cruciatus Curse, which produces
//unbearable pain. If the Cruciatus is extended for longer than a few minutes it
//produces permanent insanity. One by one, the Dark Lord Crucioed the Master’s
//students into insanity, and then finished them off with the Killing Curse,
//while the Master was forced to watch. When all his students had died in this
//way, the Master followed. I learned this from the single surviving student,
//whom the Dark Lord had left alive to tell the tale, and who had been a friend
//of mine…”
-- Існує непрощенне прокляття, "`Круціатус`", що завдає нестерпного болю. Якщо
застосовувати його більш ніж кілька хвилин, це призводить до незворотної
втрати розуму. Одного за одним Темний Лорд "`Круціатусом`" довів до безумства учнів Майстра,
відтак убив їх смертельним прокляттям. Увесь цей
час Майстер був змушений спостерігати, а коли всі загинули,
його спіткала така сама доля. Я дізнався про це від свого друга -- єдиного учня, що врятувався. Темний
Лорд не став його вбивати, щоб він повідав цю історію...

// 3480
//Professor Quirrell turned away, and when he turned back a moment later, he once
//again seemed calm and composed.
Професор Квірел відвернувся від них, а повернувшись миттю потому,
знову здавався спокійним і зібраним.

// 3481
//“Dark Wizards cannot keep their tempers,” Professor Quirrell said quietly. “It
//is a nearly universal flaw of the species, and anyone who makes a habit of
//fighting them soon learns to rely on it. Understand that the Dark Lord did
//__not__ win that day. His goal was to learn martial arts, and yet he left
//without a single lesson. The Dark Lord was foolish to wish that story retold.
//It did not show his strength, but rather an exploitable weakness.”
// копія 20:3646
-- Темні чарівники не вміють тримати себе в руках, -- тихо мовив
він. -- Це майже універсальний недолік їхнього виду, і всі, хто змушений часто
з ними боротися, швидко вчаться покладатися на нього. Зрозумійте, що Темний Лорд
__не переміг__ того дня. Його метою було навчитися бойових мистецтв, та він
пішов без жодного уроку. Темний Лорд був дурним у своєму бажанні, щоб цю історію
переказували. Вона демонструє не його силу, а радше слабкість, якою можна скористатися.

// 3482
//Professor Quirrell’s gaze focused on a single child in the classroom.
Професор Квірел зосередив погляд на одному учневі:

// 3483
//“Harry Potter,” Professor Quirrell said.
-- Гаррі Поттере.

// 3484
//“Yes,” Harry said, his voice hoarse.
-- Так, -- хрипко озвався Гаррі.

// 3485
//“What __precisely__ did you do wrong today, Mr. Potter?”
-- Скажіть __точно__, що саме ви зробили неправильно сьогодні, містере Поттер?

// 3486
//Harry felt like he was going to throw up. “I lost my temper.”
-- Я втратив над собою контроль, -- Гаррі почувався, наче його зараз знудить.

// 3487
//“That is __not__ precise,” said Professor Quirrell. “I will describe it
//more exactly. There are many animals which have what are called dominance
//contests. They rush at each other with horns - trying to knock each other down,
//not gore each other. They fight with their paws - with claws sheathed. But why
//with their claws sheathed? Surely, if they used their claws, they would stand a
//better chance of winning? But then their enemy might unsheathe their claws as
//well, and instead of resolving the dominance contest with a winner and a loser,
//both of them might be severely hurt.”
// @dominance contest
-- __Недостатньо__ точно. Поясню докладніше.
Серед багатьох тварин поширені так звані ритуальні турніри: вони зіштовхуються
рогами, намагаючись збити противника з ніг, а не випустити йому кишки, бʼються
лапами з втягнутими кігтями. Чому з втягнутими? Адже якщо
застосувати кігті, то шанси на перемогу значно зростуть? Однак у такому разі
суперник також випустить кігті, і тоді замість визначити,
хто тут домінує, а хто мусить підкоритися, обидва можуть серйозно постраждати.

// 3488
//Professor Quirrell gaze seemed to come straight out at Harry from the repeater
//screen. “What you demonstrated today, Mr. Potter, is that - unlike those
//animals who keep their claws sheathed and accept the results - you do not know
//how to lose a dominance contest. When a __Hogwarts professor__ challenged
//you, you did not back down. When it looked like you might lose, you unsheathed
//your claws, heedless of the danger. You __escalated,__ and then you
//escalated __again.__ It started with a slap at you from Professor Snape,
//who was obviously dominant over you. Instead of losing, you slapped back and
//lost ten points from Ravenclaw. Soon you were talking about leaving Hogwarts.
//The fact that you escalated even further in some unknown direction, and somehow
//won at the end, does not change the fact that you are an idiot.”
Складалося враження, наче професор Квірел дивиться з екрана прямо на Гаррі.

-- Насправді, містере Поттер, ви продемонстрували сьогодні одне: на противагу
тваринам, що тримають кігті втягнутими й погоджуються з результатами ритуальних турнірів, ви не
вмієте їх програвати. Коли __професор Гоґвортсу__ кинув вам
виклик, ви не відступили. Коли здавалося, що поразка майже неминуча, ви, незважаючи на
небезпеку, випустили кігті. Ви __загострили__ конфлікт, після чого загострили його
__ще раз__. Все почалося з ляпаса від професора Снейпа, що, очевидно, домінує
над вами. Замість того, щоб програти, ви дали ляпаса у відповідь і втратили десять
очок Рейвенклову. Незабаром ви вже погрожували піти з Гоґвортсу. Те,
що ви загострили конфлікт ще далі в якомусь невідомому напрямі й навіть зрештою
перемогли, не змінює того факту, що ви, містере Поттер, телепень.

// 3489
//“I understand,” Harry said. His throat was dry. That __had__ been precise.
//__Frighteningly__ precise. Now that Professor Quirrell had said it, Harry
//could see in hindsight that it was an __exactly__ accurate description of
//what had happened. When someone’s model of you was that good, you had to wonder
//whether they were right about other things too, like your intent to kill.
-- Я розумію, -- запевнив Гаррі.

У нього пересохло в горлі. Це було точно.
Страх як точно. Тепер, коли професор Квірел це сформулював, Гаррі, озираючись
назад, бачив, що це був __надзвичайно__ точний опис тих подій. Коли хтось вибудовує
про тебе настільки правдиву модель, мимохіть замислюєшся, чи не має цей хтось рації
щодо інших речей, як-от готовности вбити.

// 3490
//“The __next__ time, Mr. Potter, that you choose to escalate a contest
//rather than lose, you may lose __all__ the stakes you place on the table.
//I cannot guess what they were today. I can guess that they were far, far too
//high for the loss of ten House points.”
-- Наступного разу, містере Поттер, вибравши загострення конфлікту
замість поразки, ви можете втратити __всі__ ставки, поставлені на кін.
Я не знаю, чим саме ви ризикували сьогодні, але можу здогадатися, що чимось
набагато, набагато ціннішим за десять очок гуртожитку.

// 3491
//Like the fate of magical Britain. That was what he’d done.
Долею чаклунської Британії, наприклад. Ось чим.

// 3492
//‘‘You will protest that you were trying to help all of Hogwarts, a much more
//important goal worthy of great risks. That is a __lie.__ If you had been
//-”
-- Ви заперечите, що намагалися допомогти всьому Гоґвортсові, -- значно важливіша
мета, гідна великих ризиків. Це __брехня__. Якби ви...

// 3493
//“I would have taken the slap, waited, and picked the best possible time to make
//my move,” Harry said, his voice hoarse. “But that would have meant
//__losing__. Letting him be dominant over me. It was what the Dark Lord
//couldn’t do with the Master he wanted to learn from.”
-- То я витримав би ляпас, почекав і вибрав найвдаліший момент для своїх дій, -- хрипко перебив
Гаррі. -- Але це означало б __програти__. Дозволити йому домінувати
наді мною. Це було тим, чого Темний Лорд не зміг дозволити майстрові, у якого
хотів навчатися.

// 3494
//Professor Quirrell nodded. “I see that you have understood perfectly. And so,
//Mr. Potter, today you are going to learn how to lose.”
-- Бачу, -- кивнув професор Квірел, -- ви досконало все зрозуміли. А отже, містере Поттер, сьогодні ви навчитеся
програвати.

// 3495
//“I -”
-- Я...

// 3496
//“I will not hear any objections, Mr. Potter. It is evident both that you need
//this and that you are strong enough to take it. I assure you that your
//experience will not be so harsh as what I went through, though you may well
//remember it as the worst fifteen minutes of your young life.”
-- Я не почую заперечень. Очевидно, що вам це потрібно
й ви досить сильні, щоб через це пройти. Запевняю: цей досвід не
буде настільки жорстким, як мій, хоча ви, можливо, і запамʼятаєте його
як найжахливіші пʼятнадцять хвилин вашого юного життя.

// 3497
//Harry swallowed. “Professor Quirrell,” he said in a small voice, “can we do
//this some other time?”
-- Професоре Квірел, -- тихо спитав Гаррі, ковтнувши слину, -- можна зробити це іншим разом?

// 3498
//“No,” Professor Quirrell said simply. “You are five days into your Hogwarts
//education and already this has happened. Today is Friday. Our __next__
//defense class is on Wednesday. Saturday, Sunday, Monday, Tuesday, Wednesday…
//No, we do __not__ have time to wait.”
-- Ні, -- відрізав той. -- Ви пробули в Гоґвортсі лише пʼять днів,
і ось що вже встигло трапитися. Сьогодні пʼятниця, наступне заняття із захисту
в середу. Субота, неділя, понеділок, вівторок, середа... Ні,
зволікати не можна.

// 3499
//There were a few laughs at this, but very few.
Кілька учнів захихихотіло на це, але небагато.

// 3500
//“Please consider it an order from your professor, Mr. Potter. What I would like
//to say is that otherwise I will not teach you any offensive spells, because I
//would then hear that you had severely hurt or even killed someone.
//Unfortunately I am told that your fingers are already powerful weapons. Do not
//snap them at any time during this lesson.”
-- Вважайте це наказом вашого професора, містере Поттер. Варто зауважити,
що в іншому разі я не навчатиму вас жодних атакувальних заклять, бо не хочу одного дня
дізнатися, що ви завдали комусь серйозної шкоди чи навіть убили когось. На жаль,
мені переповіли, що ваші пальці вже самі собою є досить могутньою зброєю. Не клацайте ними
на цьому занятті.

// 3501
//More scattered laughter, sounding rather nervous.
Більше хихотіння, цього разу доволі нервового.

// 3502
//Harry felt like he might cry. “Professor Quirrell, if you do anything like what
//you talked about, it’s going to make me angry, and I really would rather not
//get angry again today -”
-- Професоре Квірел, -- Гаррі ледь не плакав, -- якщо ви зробите щось на зразок того, про що ви розказували,
це мене розізлить, а я волів би не злитися сьогодні знову...

// 3503
//“The point is __not__ to avoid getting angry,” Professor Quirrell said,
//his face looking grave. “Anger is natural. You need to learn how to lose even
//when you are angry. Or at least __pretend__ to lose so that you can
//__plan__ your vengeance. As I did with Mr. Goyle today, unless of course
//any of you think he really __is__ better -”
-- Суть не в тому, щоб уникати злости, -- професор Квірел
нахмурив брови. -- Злість природна. Вам потрібно навчитися програвати,
навіть коли ви злі. Чи принаймні __вдавати__ поразку, щоб мати
змогу __запланувати__ помсту. Як оце я сьогодні зробив із містером Ґойлом.
Невже хтось тут вважає, що він справді кращий...

// 3504
//“I’m not!” shouted Mr. Goyle from his desk, sounding a little frantic. “I know
//you didn’t really lose! Please don’t plan any vengeances!”
-- Не кращий! -- несамовито заволав містер Ґойл зі свого місця. -- Я знаю,
що ви програли не по-справжньому! Будь ласка, не плануйте жодної помсти!

// 3505
//Harry felt sick to his stomach. Professor Quirrell didn’t know about his
//mysterious dark side. “Professor, we really need to talk about this after class
//-”
Гаррі почувався, ніби його зараз знудить. Професор Квірел не знав про його загадкову
темну сторону.

-- Професоре, нам справді треба поговорити про це після уроку...

// 3506
//“We will,” Professor Quirrell said in the tones of a promise. “After you learn
//how to lose.” His face was serious. “It should go without saying that I will
//exclude anything which could injure you or even cause you significant pain. The
//pain will come from the difficulty of losing, instead of fighting back and
//escalating the battle until you win.”
-- Поговоримо, -- серйозно пообіцяв професор Квірел, -- але спершу ви навчитеся
програвати. Певна річ, я не допущу,
щоб ви поранилися чи бодай зазнали якогось серйозного болю. Болітиме вам від
того, що ви програватимете, а не даватимете відсічі й загострюватимете конфлікт аж
до перемоги.

// 3507
//Harry’s breath was coming in short, panicky pants. He was more frightened than
//he’d been after leaving the Potions classroom. “Professor Quirrell,” he managed
//to say, “I don’t want you to get fired over this -”
Гаррі уривчасто й панічно дихав, наляканий більше, ніж коли йшов із класу настоянок.

-- Професоре Квірел, -- видобув він із себе, -- я не хочу, щоб вас за це звільнили...

// 3508
//“I will not be,” Professor Quirrell said, “if __you__ tell them afterward
//that it was necessary. And this I trust you to do.” For a moment Professor
//Quirrell’s voice turned very dry. “Believe me, they have tolerated worse in
//their hallways. This case will be exceptional only in that it happens within a
//classroom.”
-- Не звільнять, -- запевнив той, -- якщо __ви__ поясните опісля,
що це було необхідно. Певен, що ви так і вчините, -- на мить його голос
став дуже сухим. -- Повірте, у цих коридорах очі заплющувалися й на гірші речі. Цей
випадок відрізнятиметься лише тим, що він відбудеться в класі.

// 3509
//“Professor Quirrell,” Harry whispered, but he thought his voice was still being
//repeated everywhere, “do you really believe that if I don’t do this, I might
//hurt someone?”
-- Професоре Квірел, -- Гаррі шепотів, хоч і думав, що його голос досі
відтворюється по всьому класі, -- ви справді вірите, що якщо я не зроблю цього,
то можу зашкодити комусь?

// 3510
//“Yes,” Professor Quirrell said simply.
-- Так.

// 3511
//“Then,” Harry felt nauseous, “I’ll do it.”
-- Тоді, -- Гаррі занудило, -- я зроблю це.

// 3512
//Professor Quirrell turned to regard the Slytherins. “So… with the full approval
//of your teacher, and in such a fashion that Snape cannot be blamed for your
//actions… do any of you wish to show your dominance over the Boy-Who-Lived?
//Shove him around, push him to the ground, hear him beg for your mercy?”
-- Отже... -- професор Квірел обернуся до слизеринців. -- Ви маєте цілковите схвалення вчителя, а Снейпа
не звинуватять у ваших вчинках... Чи бажає тут хтось подомінувати
над Хлопчиком-Що-Вижив? Поштовхати його, кинути на підлогу, послухати, як він благає
змилуватися?

// 3513
//Five hands went up.
Пʼять рук злетіло в повітря.

// 3514
//“Everyone with your hand raised, you are an absolute idiot. What part of
//__pretending__ to lose did you not understand? If Harry Potter does become
//the next Dark Lord he will hunt you down and kill you after he graduates.”
-- Всі, хто підняв руки, -- ви безпробудні йолопи. Яку частину __вдавання__
поразки ви не зрозуміли? Якщо Гаррі Поттер справді стане наступним темним
лордом, то після закінчення школи він вистежить вас і повбиває.

// 3515
//The five hands dropped abruptly back to their desks.
Пʼять рук хутко повернулося до столів.

// 3516
//“I won’t,” Harry said, his voice coming out rather weakly. “I swear never to
//take vengeance upon those who help me learn to lose. Professor Quirrell… would
//you __please__… __stop__ that?”
-- Я такого не зроблю... -- доволі тихо озвався Гаррі. -- Присягаюся ніколи не
вдаватися до помсти тим, хто допоможе мені навчитися програвати. Професоре Квірел...
__будь ласка__, чи не могли б ви... __припинити__ це?

// 3517
//Professor Quirrell sighed. “I __am__ sorry, Mr. Potter. I realize that you
//must find this equally annoying whether you intend to become a Dark Lord or
//not. But those children __also__ had an important life lesson to learn.
//Would it be acceptable if I awarded you a Quirrell point in apology?”
-- Мені справді шкода, містере Поттер, -- професор зітхнув. -- Я розумію, що вам це видається
вкрай надокучливим, маєте ви намір стати темним лордом чи ні. Але ці діти
також мали засвоїти важливу життєву науку. Чи буде прийнятним, якщо
я нагороджу вас балом Квірела як вибачення?

// 3518
//“Make it two,” Harry said.
-- Хай буде два, -- попросив Гаррі.

// 3519
//There was a current of surprised laughter, defusing some of the tension.
З несподіванки клас трохи розсміявся, що зняло частину напруги.

// 3520
//“Done,” Professor Quirrell said.
-- Зроблено, -- оголосив професор Квірел.

// 3521
//“And after I graduate I’m going to hunt you down and __tickle__ you.”
-- А коли я закінчу школу, то вистежу вас і залоскочу.

// 3522
//There was more laughter, although Professor Quirrell didn’t smile.
Більше сміху, хоча професор Квірел не усміхався.

// 3523
//Harry felt like he was wrestling an anaconda, trying to force the conversation
//through the narrow course that would make people realize he wasn’t a Dark Lord
//after all… __why__ was Professor Quirrell so suspicious of him?
Гаррі почувався, наче він бореться з анакондою, намагаючись звернути розмову на
той вузький шлях, що переконає людей: він не темний лорд...
Чому професор Квірел настільки підозріло до нього ставиться?

// 3524
//“Professor,” said Draco’s unamplified voice. “It is also not my own ambition to
//become a stupid Dark Lord.”
-- Професоре, -- залунав непідсилений голос Драко. -- Я також не збираюся
стати дурним темним лордом.

// 3525
//There was a shocked silence in the classroom.
Клас приголомшено затих.

// 3526
//__You don’t have to do this!__ Harry almost blurted out loud, but checked
//himself in time; Draco might not wish it known that he was doing this out of
//friendship for Harry… or out of the desire to appear friendly…
"`Ти не маєш цього робити!`" -- ледь не закричав Гаррі, але вчасно стримався.
Можливо, Драко не хоче, щоб хтось дізнався, що він каже це через дружбу з ним...
чи з бажання видаватися дружнім...

// 3527
//Calling __that__ a __desire to appear friendly__ made Harry feel
//small, and mean. If Draco had intended to impress him, it was working
//perfectly.
Остання думка змусила Гаррі почуватися
низьким і підлим. Якщо Драко намагався вразити його, йому це цілковито
вдалося.

// 3528
//Professor Quirrell was regarding Draco gravely. “__You__ worry that you
//cannot pretend to lose, Mr. Malfoy? That this flaw which describes Mr. Potter
//also describes you? __Surely__ your father taught you better.”
Професор Квірел похмуро розглядав Драко:

-- Ви хвилюєтеся, що не зможете вдати поразку, містере Мелфой? Що цей
недолік, властивий містерові Поттеру, властивий і вам? Переконаний,
що ваш батько навчив вас краще.

// 3529
//“When it comes to talking, maybe,” said Draco, now on the repeater screen. “Not
//when it comes to being shoved around and pushed to the ground. I want to be
//fully as strong as you, Professor Quirrell.”
-- Коли це стосується балачок -- мабуть, -- цього разу Драко говорив уже з екрана.
-- Але не тоді, коли мене штовхають і кидають на підлогу. Я хочу
бути настільки ж сильним, як ви, професоре Квірел.

// 3530
//Professor Quirrell’s eyebrows went up and stayed up. “I am afraid, Mr. Malfoy,”
//he said after a time, “that the arrangements I made for Mr. Potter, involving
//some older Slytherins who will be told __afterward__ how stupid they were,
//would not carry over onto you. But it is my professional opinion that you are
//already very strong. Should I hear that you have failed, as Mr. Potter failed
//today, I will make the appropriate arrangements and apologize to you and
//whomever you have hurt. I do not think this will be necessary, however.”
Брови професора Квірела злетіли догори, там і залишившись.

-- Боюся, містере Мелфой, -- відповів він по деякому часі, -- що приготування, які
я здійснив для містера Поттера, не згодяться для вас: тут задіяно деяких старших слизеринців, яким
__наприкінці__ пояснять їхню дурість. Та ось моя
компетентна думка: ви вже дуже сильні. Якщо я довідаюся, що ви не спромоглися правильно
повестися -- як-от містер Поттер сьогодні, -- то вживу всіх необхідних
заходів і вибачуся як перед вами, так і перед тими, кому ви зашкодили.
Але гадаю, що мені не доведеться цього робити.

// 3531
//“I understand, professor,” said Draco.
-- Зрозумів, професоре.

// 3532
//Professor Quirrell looked over the class. “Does anyone else wish to become
//strong?”
Професор Квірел огледів клас:

-- Чи бажає ще хтось стати сильним?

// 3533
//Some students glanced around nervously. Some, Harry thought from his back row,
//looked like they were opening their mouths but not saying anything. In the end,
//no one spoke.
Кілька учнів нервово роззиралося довкола. Із заднього ряду Гаррі здалося, що дехто
начебто розтуляв рота, але так нічого й не сказав. Ніхто не озвався.

// 3534
//“Draco Malfoy will be one of the generals of your year’s armies,” said
//Professor Quirrell, “should he deign to engage in that after-school activity.
//And now, Mr. Potter, please come forward.”
-- Драко Мелфой стане одним із генералів військ вашого року, варто лише йому захотіти
витрачати свій час на ці факультативні заняття. А тепер, містере Поттер, будь ласка,
вийдіть уперед.

***

// 3535
//__Yes,__ Professor Quirrell had said, __it must be in front of
//everyone, in front of your friends, because that is where Snape confronted you
//and that is where you must learn to lose.__
"`Так, -- професор Квірел був непохитним, -- це має відбутися перед усіма, перед вашими друзями,
адже саме так Снейп кинув вам виклик і саме так ви мусите навчитися програвати`".

// 3536
//So now the first year watched. In magically enforced silence, and with requests
//from both Harry and the professor not to intervene. Hermione had her face
//turned away, but she hadn’t spoken out or even given him any sort of
//significant look, maybe because she’d been there in Potions too.
Першокласники спостерігали серед магічно створеної тиші,
Гаррі й професор Квірел попрохали їх не втручатися. Герміона мовчки відвернулася,
навіть не обдарувала його бодай якимось змістовним поглядом. Можливо,
тому, що була на настоянках разом із ним.

// 3537
//Harry stood on a soft blue mat, such as might be found in a Muggle dojo, which
//Professor Quirrell had laid out upon the floor for when Harry was pushed down.
Гаррі стояв на звичайній мʼякій блакитній маті, таку можна знайти в маґлівських
доджьо. Професор Квірел розстелив її на підлозі для митей, коли Гаррі штовхатимуть.

// 3538
//Harry was frightened of what he might do. If Professor Quirrell was right about
//his intent to kill…
Гаррі лякало те, що він міг накоїти. Якщо професор Квірел мав рацію стосовно
його готовности вбити...

// 3539
//Harry’s wand lay on Professor Quirrell’s desk, not because Harry knew any
//spells that could defend him, but because otherwise (Harry thought) he might
//have tried to jam it through someone’s eye socket. His pouch lay there, now
//containing his protected but still potentially fragile Time-Turner.
Гарріна паличка лежала на вчительському столі не тому, що він знав якісь
захисні закляття, а тому, що інакше -- на його думку -- він міг
спробувати встромити її комусь в око. Там же розмістився і його капшучок, у якому
тепер зберігався захищений, однак досі потенційно ламкий часоворот.

// 3540
//Harry had pleaded with Professor Quirrell to Transfigure him some boxing gloves
//and lock them on his hands. Professor Quirrell had given him a look of silent
//understanding, and refused.
Гаррі благав професора Квірела трансфігурувати й закріпити йому на руках боксерські рукавички.
Той мовчки окинув його розуміючим
поглядом і відмовився.

// 3541
//__I will not go for their eyes, I will not go for their eyes, I will not
//go for their eyes, it would be the end of my life in Hogwarts, I’ll be
//arrested,__ Harry chanted to himself, trying to hammer the thought into his
//brain, hoping it would stay there if his intent to kill took over.
"`Я не чіпатиму їхніх очей, я не чіпатиму їхніх очей, я не чіпатиму їхніх очей,
це стане кінцем мого життя в Гоґвортсі, мене заарештують`", -- повторював він
подумки, намагаючись закарбувати ці слова у своєму мозку в надії, що вони все ще
там будуть, якщо його готовність убити візьме гору.

// 3542
//Professor Quirrell returned, escorting thirteen older Slytherins of different
//years. Harry recognized one of them as the one he’d hit with a pie. Two others
//from that confrontation were also present. The one who’d said to stop, that
//they really shouldn’t do this, was missing.
Професор Квірел повернувся в супроводі тринадцяти старших слизеринців різного
віку. Гаррі впізнав одного з них -- це в нього він поцілив пирогом. Двоє інших учасників
тієї сутички теж приєдналися. Хлопця, що кричав зупинитися й що їм не варто цього
робити, не було.

// 3543
//“I repeat,” Professor Quirrell said, sounding very stern, “Potter is
//__not__ to be really hurt. Any and all __accidents__ will be treated
//as deliberate. Do you understand?”
-- Наголошую, -- твердо промовив професор Квірел. -- Поттер __не повинен__
зазнати ніяких серйозних пошкоджень. Будь-які __випадковості__
вважатимуться навмисними. Зрозуміло?

// 3544
//The older Slytherins nodded, grinning.
Старші слизеринці кивнули, вишкірившись.

// 3545
//“Then please feel free to take the Boy-Who-Lived down a few pegs,” Professor
//Quirrell said, with a twisted smile that only the first-years understood.
-- А тепер прошу вас: збийте пиху з Гаррі Поттера, -- на цім слові губи
професора Квірела скривила посмішка, зрозуміла лише першокласникам.

// 3546
//By some form of mutual consent, the pie-target was at the front of the group.
З якоїсь загальної згоди обкиданий пирогом хлопець опинився попереду групи.

// 3547
//“Potter,” said Professor Quirrell, “meet Mr. Peregrine Derrick. He is better
//than you and he is about to show you that.”
-- Поттере, -- звернувся професор Квірел, -- познайомся з містером Перегрином Дериком.
Він кращий за тебе й зараз це продемонструє.

// 3548
//Derrick strode forward and Harry’s brain screamed discordantly, he must not run
//away, he must not fight back -
// @ discordantly: hedrok пропонує незграйно, int_ua пропонує неузгоджено
Дерик покрокував уперед, а Гаррін мозок різноголосо волав: не тікати,
не давати відсічі...

// 3549
//Derrick stopped an arm’s length away from Harry.
Дерик зупинився на відстані витягнутої руки від Гаррі.

// 3550
//Harry wasn’t angry yet, just frightened. And that meant he beheld a teenage boy
//fully half a meter taller than himself, with clearly defined muscles, facial
//hair, and a grin of terrible anticipation.
Гаррі ще не розізлився, лише злякався. А це означало, що йому довелося дивитися
на підлітка, що був на пів метра вищим за нього, мав досить виражені мʼязи й
щетину на обличчі, ще й вищирився в страхітливому очікуванні.

// 3551
//“Ask him not to hurt you,” Professor Quirrell said. “Perhaps if he sees that
//you’re pathetic enough, he’ll decide that you’re boring, and go away.”
-- Попроси не робити тобі боляче, -- порадив професор Квірел. -- Можливо,
якщо він побачить, що ти достатньо нікчемний, то вирішить, що ти нудний, і піде
собі.

// 3552
//There was laughter from the watching older Slytherins.
Старші слизеринці розсміялися.

// 3553
//“Please,” Harry said, his voice faltering, “don’t, hurt, me…”
-- Будь ласка, -- голос Гаррі тремтів. -- Не. Роби. Мені. Боляче...

// 3554
//“That didn’t sound very sincere,” said Professor Quirrell.
-- Якось не дуже щиро, -- зауважив професор Квірел.

// 3555
//Derrick’s smile widened. The clumsy imbecile was looking very superior and…
Посмішка Дерика поширшала. Незграбний бовдур видавався дуже зверхнім і...
// 3556
//…Harry’s blood temperature was dropping…
Гарріна кров холонула...

// 3557
//“Please don’t hurt me,” Harry tried again.
-- Будь ласка, не роби мені боляче, -- він спробував ще раз.

// 3558
//Professor Quirrell shook his head. “How in Merlin’s name did you manage to make
//that sound like an insult, Potter? There is only one response you can possibly
//expect from Mr. Derrick.”
Професор Квірел похитав головою:

-- Як, Мерлінова борода, тобі вдалося сказати це образливо, Поттере?
Містер Дерик може відповісти на таке тільки одним.

// 3559
//Derrick stepped forward deliberately, and bumped into Harry.
Дерик поволі рушив уперед і наткнувся на Гаррі.
// 3560
//Harry staggered back a few feet and, before he could stop himself, straightened
//up icily.
Той, ледь не впавши, зробив кілька кроків назад, однак ще до того, як зміг стриматися,
незграбно випрямився.

// 3561
//“Wrong,” said Professor Quirrell, “wrong, wrong, wrong.”
-- Погано, -- протягнув професор Квірел, -- погано, погано, погано.

// 3562
//“You bumped into me, Potter,” Derrick said. “Apologize.”
-- Ти штовхнув мене, Поттере, -- сказав Дерик. -- Проси вибачення.

// 3563
//“I’m sorry!”
-- Пробач!

// 3564
//“You don’t __sound__ sorry,” said Derrick.
-- __Не схоже__, що тобі прикро, -- не вгавав Дерик.

// 3565
//Harry’s eyes widened in indignation, he __had__ managed to make that sound
//pleading -
Очі Гаррі поширшали від обурення, йому таки __вдалося__ додати благання до голосу.
// 3566
//Derrick pushed him, hard, and Harry fell to the mat on his hands and knees.
Дерик сильно його штовхнув, і Гаррі впав на мату, на руки й коліна.
// 3567
//The blue fabric seemed to waver in Harry’s vision, not far away.
Синя тканина, видавалося, майоріла в нього перед очима, зовсім поруч.
// 3568
//He was beginning to doubt Professor Quirrell’s real motives in teaching this
//so-called __lesson.__
Він починав сумніватися в справжніх мотивах професора Квірела щодо цієї так
званої __науки__.

// 3569
//A foot rested on Harry’s buttocks and a moment later Harry was pushed hard to
//the side, sending him sprawling on his back.
Нога опустилася на сідницю Гаррі, і за мить його сильно штовхнуло в бік, перекинувши
його на спину.

// 3570
//Derrick laughed. “This is __fun,__” he said.
Дерик розсміявся:

-- А це __весело__.

// 3571
//All he had to do was say it was over. And report the whole thing to the
//Headmaster’s office. That would be the end of this __Defense Professor__
//and his ill-fated stay at Hogwarts and… Professor McGonagall would be angry
//about that, but…
Все, що йому потрібно було зробити, це вигукнути, що урок закінчено, і сповістити
директора. Це покладе край цьому професорові захисту та його
нещасливому перебуванню в Гоґвортсі... а професорка Макґонеґел лютуватиме,
але...

// 3572
//(An image of Professor McGonagall’s face flashed before his eyes, she didn’t
//look angry, just sad -)
(Обличчя професорки Макґонеґел промайнуло перед його очима, вона не видавалася злою,
лише сумною...)

// 3573
//“Now tell him that he’s better than you, Potter,” said Professor Quirrell’s
//voice.
-- Скажи йому, що він кращий за тебе, Поттере, -- звелів професор Квірел.

// 3574
//“You’re, better, than, me.”
-- Ти. Кращий. За. Мене.

// 3575
//Harry started to raise himself and Derrick put a foot on his chest and shoved
//him back down to the mat.
Гаррі почав підійматися, але Дерик поставив ногу йому на груди й штовхнув
назад на мату.

// 3576
//The world was becoming transparent as crystal. Lines of action and their
//consequences stretched out before him in utter clarity. The fool wouldn’t be
//expecting him to strike back, a quick hit in the groin would stun him long
//enough for -
Світ почав ставати прозорим, наче кришталь. Лінії дій та їхніх наслідків простягнулися
перед ним як на долоні. Цей дурень не очікуватиме відсічі, швидкий удар
у пах виведе його з ладу задосить для...

// 3577
//“Try again,” said Professor Quirrell and with a sudden sharp motion Harry
//rolled and sprang to his feet and whirled on where stood his real enemy, the
//Defense Professor -
-- Спробуй ще раз, -- промовив професор Квірел.

Раптовим різким рухом Гаррі
перекотився, стрімко звівся на ноги й розвернувся до свого справжнього ворога --
професора захисту.

// 3578
//Professor Quirrell said, “You have no patience.”
-- Ти не маєш терпіння, -- сказав професор Квірел.

// 3579
//Harry faltered. His mind, well-honed in pessimism, drew a picture of a wizened
//old man with blood pouring from his mouth after Harry had ripped his tongue out
//-
Гаррі завагався. Його навчений песимізму мозок зобразив
мудрого старця з цівкою крови, що стікала з його уст після того, як Гаррі вирвав йому язика...

// 3580
//A moment later, Derrick pushed Harry to the mat again and then sat down on him,
//sending Harry’s breath whooshing out.
Миттю потому Дерик знову штовхнув Гаррі на мату, відтак всівся зверху, вибивши
з нього весь дух.

// 3581
//“Stop!” Harry screamed. “Please stop!”
-- Перестань! -- закричав Гаррі. -- Будь ласка, перестань!

// 3582
//“Better,” said Professor Quirrell. “That even sounded sincere.”
-- Краще, -- похвалив професор Квірел. -- Це навіть звучало щиро.

// 3583
//It __had__ been. That was the horrible thing, the sickening thing, it
//__had__ been sincere. Harry was panting rapidly, fear and cold anger both
//flushing through him -
__Так і було.__ Це було жахливо й мерзенно: він благав по-справжньому. Гаррі дуже швидко
дихав, його переповнювали страх і крижана злість...

// 3584
//“Lose,” said Professor Quirrell.
-- Програй, -- сказав професор Квірел.

// 3585
//“I, lose,” Harry forced out.
-- Я. Програв, -- витиснув із себе Гаррі.

// 3586
//“I like it,” Derrick said from on top of him. “Lose some more.”
-- Мені подобається, -- Дерик не вставав із Гаррі. -- Програй ще трохи.

***

// 3587
//Hands shoved Harry, sending him stumbling across the circle of older Slytherins
//to another set of hands that shoved him again. Harry had long since passed the
//point of trying not to cry, and was now just trying not to fall down.
Руки штовхнули Гаррі, і він, ледь не впавши, опинився в інших руках, що
штовхнули його знову. Намагання не плакати лишилися далеко позаду,
зараз Гаррі просто докладав усіх зусиль, аби не впасти.

// 3588
//“What are you, Potter?” said Derrick.
-- Що ти таке, Поттере? -- запитав Дерик.

// 3589
//“A, l-loser, I lose, I give up, you win, you’re b-better, than me, please stop
//-”
-- Я, н-невдаха, я програв, я здаюся, ви перемогли, ви к-кращі за мене, будь ласка,
припиніть...

// 3590
//Harry tripped over a foot and went crashing to the ground, hands not quite able
//to catch himself. He was dazed for a moment, then began struggling to his feet
//again -
Гаррі перечепився об ногу й гепнувся долілиць, уже неспроможний
втриматися на ногах. Думки покинули його на мить, після чого він знову
спробував підвестися...

// 3591
//“__Enough!__” said Professor Quirrell’s voice, sounding sharp enough to
//cut iron. “Step away from Mr. Potter!”
-- __Годі!__ -- голосом професора Квірела можна було
різати залізо. -- Відійдіть від містера Поттера.

// 3592
//Harry saw the surprised looks on their faces. The chill in his blood, which had
//been flowing and ebbing, smiled in cold satisfaction.
Гаррі побачив здивовані обличчя. Холоднеча, що хвилями
накочувалася й згасала в його крові, усміхнулася в крижаному задоволенні.
// 3593
//Then Harry collapsed to the mat.
А тоді він звалився на мату.

// 3594
//Professor Quirrell talked. There were gasps from the older Slytherins.
Професор Квірел говорив. Чулися зойки старших слизеринців.

// 3595
//“And I believe the scion of Malfoy has something he wants to explain to you as
//well,” finished Professor Quirrell.
-- А зараз, гадаю, спадкоємець Мелфоїв також хоче дещо вам пояснити, -- закінчив
він.

// 3596
//Draco’s voice started talking. His voice sounded almost as sharp as professor
//Quirrell’s, it had acquired the same cadence Draco had used to imitate his
//father, and it was saying things like __could have put Slytherin House in
//jeopardy__ and __who knows how many allies in this school alone __and
//__total lack of awareness, never mind cunning__ and__ dull thugs,
//useful for nothing but lackeys__ and something in Harry’s hindbrain, despite
//everything he knew, was designating Draco as an ally.
Залунав Драковий голос. Різкістю він міг дорівнятися до голоса професора
Квірела, а темпу набув такого ж, як тоді, коли Драко імітував свого батька. Він казав щось про
"`могли підставити весь Слизерин`", "`хтозна скільки
союзників у самій лише школі`", "`повна відсутність тямущости, не те що хитрощів`",
"`тупі харцизяки, що згодяться хіба що на лакеїв`". Щось у задній частині Гарріного
мозку попри всі його знання позначило Драко як союзника.

// 3597
//Harry ached all over, was probably bruised, his body felt cold, his mind
//utterly exhausted. He tried to think of Fawkes’s song, but without the phoenix
//present he couldn’t remember the melody and when he tried to imagine it he
//couldn’t seem to think of anything except a bird chirping.
У Гаррі все боліло, мабуть, лишилися синці. Тіло тремтіло від холоду, а розум надміру виснажився.
Він подумав було про пісню Фоукса, але без фенікса поруч не зміг згадати
мелодії, а коли спробував уявити її, то на гадку не спало нічого, окрім
пташиного цвірінькання.

// 3598
//Then Draco stopped talking and Professor Quirrell told the older Slytherins
//they were dismissed, and Harry opened his eyes and struggled to sit up, “Wait,”
//Harry said, forcing the words out, “there’s something, I want, to say, to them
//-”
Драко замовчав, і професор Квірел відпустив слизеринців.
Гаррі вже розплющив очі й силкувався сісти.

-- Заждіть, -- спромігся він, -- я хочу дещо... сказати... їм...

// 3599
//“Wait on Mr. Potter,” Professor Quirrell said coldly to the departing
//Slytherins.
-- Почекайте містера Поттера, -- холодно кинув професор Квірел слизеринцям,
що рухалися до виходу.

// 3600
//Harry swayed to his feet. He was careful not to look in the direction of his
//classmates. He didn’t want to see how they were looking at him now. He didn’t
//want to see their pity.
Гаррі зіпнувся на ноги, хитаючись і старанно ховаючи очі
від однокласників. Він не хотів бачити, як вони зараз на нього дивляться.
Не хотів бачити їхніх жалощів.
// 3601
//So instead Harry looked at the older Slytherins, who still seemed to be in a
//state of shock. They stared back at him. Dread was on their faces.
Тож натомість поглянув на старших слизеринців, що, видавалося, досі
були ошелешеними. Вони очманіло на нього витріщилися.
// 3602
//His dark side, when it was in control, had held to the imagination of this
//moment, and went on pretending to lose.
Лише очікування цієї миті давало його темній стороні змогу
розігрувати поразку, коли та була за кермом.

// 3603
//Harry said, “No one will -”
-- Ніхто не... -- почав Гаррі.

// 3604
//“Stop,” said Professor Quirrell. “If that’s what I think it is, please wait
//until after they’re gone. They’ll hear about it later. We all have our lessons
//to learn, Mr. Potter.”
-- Зупиніться, -- звелів професор Квірел. -- Якщо це те, що я думаю, то, будь ласка,
дочекайтеся, поки вони підуть. Вони дізнаються про це згодом. Кожен має
засвоїти свою науку, містере Поттер.

// 3605
//“All right,” Harry said.
-- Гаразд, -- погодився Гаррі.

// 3606
//“You. Go.”
-- Ви. Ідіть.

// 3607
//The older Slytherins fled and the door closed behind them.
Старшокласники втекли, двері за ними зачинилися.

// 3608
//“No one’s to take any revenge on them,” Harry said hoarsely. “That’s a request
//to anyone who considers themselves my friend. I had my lesson to learn, they
//helped me learn it, they had their lesson to learn too, it’s over. If you tell
//this story, make sure you tell that part too.”
-- Ніхто не повинен мститися їм, -- прохрипів Гаррі. -- Це прохання до всіх,
хто вважає себе моїм другом. Я мав засвоїти свою науку, вони допомогли мені в цьому,
вони також мали засвоїти свою, кінець. Якщо переповідатимете цю історію,
будь ласка, не оминайте й цієї частини.

// 3609
//Harry turned to look at Professor Quirrell.
Він обернувся й глянув на професора Квірела.

// 3610
//“You lost,” said Professor Quirrell, his voice gentle for the first time. It
//sounded strange coming from the professor, like his voice shouldn’t even be
//able to do that.
-- Ви програли, -- той вперше заговорив
лагідно. У його виконанні це здавалося дивним, начебто його голос
взагалі не мав би бути здатним на це.

// 3611
//Harry __had__ lost. There had been moments when the cold anger had faded
//entirely, replaced by fear, and during those moments he’d begged the older
//Slytherins and he’d meant it…
Гаррі __направду__ програв. Були миті, коли холодна злість повністю щезала,
її заступав страх, і тоді він благав -- благав
по-справжньому.

// 3612
//“And are you yet alive?” said Professor Quirrell, still with that strange
//gentleness.
-- Ви ще живі? -- запитав професор Квірел з тією ж дивною лагідністю.

// 3613
//Harry managed to nod.
Гаррі спромігся кивнути.

// 3614
//“Not all losing is like this,” said Professor Quirrell. “There are compromises
//and negotiated surrenders. There are other ways to placate bullies. There is a
//whole art form to manipulating others by letting them be dominant over you. But
//first, losing must be __thinkable__. Will you remember how you lost?”
-- Не всі поразки такі. Існують компроміси й
капітуляційні домовленості. Існують інші способи примирення з негідниками. Існує ціле мистецтво
маніпулювати іншими, дозволяючи їм домінувати над вами. Але спершу поразка має
стати __мислимою__. Ви запамʼятаєте, як ви програли?

// 3615
//“Yes.”
-- Так.

// 3616
//“Will you be able to lose?”
-- Чи зможете ви програвати?

// 3617
//“I… think so…”
-- Гадаю... так...

// 3618
//“I think so too.” Professor Quirrell bowed so low that his thin hair almost
//touched the floor. “Congratulations, Harry Potter, you win.”
-- Я теж так гадаю, -- професор Квірел низько вклонився,
майже торкнувшись волоссям підлоги. -- Мої вітання, Гаррі Поттере. Ви перемогли.

// 3619
//There was no single source, no first mover, the applause started all at once
//like a massive thunderclap.
Невідомо, як це почалося. Не було когось першого, клас просто вибухнув оваціями --
наче громом ударило.

// 3620
//Harry’s couldn’t keep the shock from his face. He risked a glance at his
//classmates, and he saw their faces showing not pity but awe. The applause was
//coming from Ravenclaw and Gryffindor and Hufflepuff and even Slytherin,
//probably because Draco Malfoy was applauding too. Some students were standing
//up from their chairs and half of Gryffindor was standing on their desks.
Гаррі не зміг угамувати шок, що так і застиг на його обличчі. Він наважився звести очі
на своїх однокласників і побачив на їхніх лицях не жаль, а захоплення.
Оплески долинали з Рейвенклову, і Ґрифіндору, і Гафелпафу, і навіть Слизерину -- мабуть,
тому, що Драко Мелфой також аплодував. Деякі учні підвелися зі стільців, а половина
ґрифіндорців видерлася на столи.

// 3621
//So Harry stood there, swaying, letting their respect wash over him, feeling
//stronger, and maybe even a little healed.
Гаррі нетвердо стояв, дозволяючи їхній повазі омивати його, почуваючись
сильнішим і, либонь, навіть трохи зціленим.

// 3622
//Professor Quirrell waited for the applause to die away. It took quite a while.
Професор Квірел дочекався, щоб оплески вщухли. На це знадобилося трохи часу.

// 3623
//“Surprised, Mr. Potter?” Professor Quirrell said. His voice sounded amused.
//“You have just found out that the real world does not __always__ work like
//your worst nightmares. Yes, if you had been some poor anonymous boy being
//abused, then they would probably have respected you less afterward, pitied you
//even as they comforted you from their loftier perches. That __is__ human
//nature, I’m afraid. But __you__ they already know for a figure of power.
//And they saw you confront your fear and keep confronting it, even though you
//could have walked away at any time. Did you think less of __me__ when I
//told you that I had deliberately endured being spat upon?”
// @loftier perches
-- Здивовані, містере Поттер? -- тон професора Квірела був
по-доброму насмішкуватим. -- Щойно ви дізналися, що реальність не завжди збігається
з вашими найстрашнішими нічними жахіттями. Так, якби ви були просто черговим зацькованим бідолахою,
невідомим нікому, то після всього цього вони, мабуть, мали б менше поваги. Навіть жаліли б вас,
втішаючи звисока. Така, на жаль, людська натура. Однак
__вас__ уже знають як сильну особу. І всі бачили, як ви кинули виклик страхові
й не відступили, хоч і могли піти будь-якої миті. Невже ви почали зневажати
__мене__, коли я розповів, що навмисно терпів плювання на себе?

// 3624
//Harry felt a burning sensation in his throat and frantically clamped down. He
//didn’t trust this miraculous respect enough to start crying again in front of
//it.
Гаррі відчув пекуче відчуття в горлі й відчайдушно опанував себе. Він не довіряв
цій дивовижній повазі настільки, щоб знову розплакатися перед нею.

// 3625
//“Your __extraordinary__ achievement in my class deserves an extraordinary
//reward, Harry Potter. Please accept it with my compliments on behalf of my
//House, and remember from this day forward that not all Slytherins are alike.
//There are Slytherins, and then there are Slytherins.” Professor Quirrell was
//smiling quite broadly as he said this. “Fifty-one points to Ravenclaw.”
// hedrok: цитата There are Slytherins, and then there are Slytherins у 030:6261
-- Ваше надзвичайне досягнення на моєму занятті заслуговує надзвичайної
винагороди, містере Поттер. Будь ласка, прийміть її разом із моїми компліментами
від імені мого гуртожитку й запамʼятайте віднині й надалі: не всі слизеринці
однакові. Є слизеринці, але є й слизеринці, -- на цім слові професор Квірел широко усміхнувся.
-- Пʼятдесят одне очко Рейвенкловові.

// 3626
//There was a shocked pause and then pandemonium broke out among the Ravenclaw
//students, howling and whistling and cheering.
На мить запала приголомшена тиша, а тоді рейвенкловці вибухнули криками, свистом
і радісними підбадьорюваннями.

// 3627
//(And in the same moment Harry felt something __wrong__ about that,
//Professor McGonagall had been right, there __should__ have been
//consequences, there should have been a cost and a price to be paid, you
//couldn’t just put everything back the way it was like that -)
(І тієї ж миті Гаррі відчув, що щось __неправильно__ з цим усім, професорка
Макґонеґел мала рацію: __мусять__ існувати наслідки, має бути ціна,
яку треба заплатити, не можна просто повернути все, як було, ось так...)

// 3628
//But Harry saw the elated faces in Ravenclaw and knew he couldn’t possibly say
//no.
Але, побачивши радісні обличчя рейвенкловців, він зрозумів, що просто не зможе
відмовитися.
// 3629
//His brain made a suggestion. It was a good suggestion. Harry could not even
//believe his brain was still keeping him upright, let alone producing good
//suggestions.
І мозок підкинув йому пропозицію. Добру пропозицію. Гаррі не вірилося,
що його мозок все ще здатен тримати його на ногах, не те що генерувати вдалі ідеї.

// 3630
//“Professor Quirrell,” Harry said, as clearly as he could through his burning
//throat. “You are everything a member of your House should be, and I think you
//must be just what Salazar Slytherin had in mind when he helped found Hogwarts.
//I thank you and your House,” Draco was very slightly nodding and subtly turning
//his finger, __keep going__, “and I think this calls for three cheers for
//Slytherin. With me, everyone?” Harry paused. “__Huzzah!__” Only a few
//people managed to join in on the first try. ”__Huzzah!__” This time most
//of Ravenclaw was in on it. ”__Huzzah!__” That was almost all of Ravenclaw,
//a scattering of Hufflepuffs and around a quarter of Gryffindor.
-- Професоре Квірел, -- промовив Гаррі так чітко, наскільки це було можливо з його пекучим
горлом. -- Ви є всім, чим слизеринець має бути, і, гадаю, ви є тим, що Салазар
Слизерин мав на умі, коли допомагав засновувати Гоґвортс. Дякую вам і вашому гуртожиткові,
-- Драко ледь помітно кивав і повільно крутив пальцем, заохочуючи його говорити далі. -- Вважаю,
це заслуговує на трикратне ура для Слизерину. Ану, хто зі мною? -- Гаррі зробив павзу.
-- __Ура!__ -- лише кілька людей спромоглося приєднатися до першої спроби. -- __Ура!__
-- цього разу більшість Рейвенклову. -- __Ура!__ -- це вже був майже весь Рейвенклов,
окремі гафелпафці й приблизно чверть Ґрифіндору.

// 3631
//Draco’s hand moved into a small, quick, thumbs-up gesture.
Драко швидко й ненадовго здійняв великого пальця догори.

// 3632
//Most of the Slytherins had expressions of sheer shock. A few were staring at
//Professor Quirrell in wonder. Blaise Zabini was looking at Harry with a
//calculating, intrigued expression.
Більшість слизеринців приголомшено заціпеніла. Дехто задумливо
витріщався на професора Квірела. Блез Забіні оцінююче й заінтриговано роздивлявся Гаррі.

// 3633
//Professor Quirrell bowed. “Thank __you__, Harry Potter,” he said, still
//with that broad smile. He turned to the class. “Now, believe it or not, we
//still have half an hour left in this session, and that is enough to introduce
//the Simple Shield. Mr. Potter, of course, is going off and taking a well-earned
//rest.”
-- Дякую, Гаррі Поттере, -- професор Квірел вклонився, все ще широко усміхаючись. Він повернувся
до класу: -- Тепер, вірте чи ні, ми ще маємо пів години заняття -- цілком
достатньо, щоб ознайомити вас із закляттям простого щита. Містер Поттер, звісно,
покине нас і відпочине -- він чесно на це заслужив.

// 3634
//“I can -”
-- Я можу...

// 3635
//“Idiot,” Professor Quirrell said fondly. The class was already laughing. “Your
//classmates can teach you afterward, or I’ll tutor you privately if that’s what
//it takes. But __right now__, you’re going through the third door from the
//left in the back of the stage, where you will find a bed, an assortment of
//exceptionally tasty snacks, and some extremely light reading from the Hogwarts
//library. You may not take anything else with you, particularly not your
//textbooks. Now go.”
-- Телепень, -- мʼяко зауважив професор Квірел. Клас уже реготав. -- Ваші товариші
навчать вас після уроку або ж це зроблю я особисто,
якщо знадобиться. Але __зараз__ ви пройдете крізь треті двері ліворуч позаду
помосту, де знайдете ліжко, набір виняткових смаколиків і деяку дуже легку
для читання літературу з гоґвортської бібліотеки. Вам заборонено брати із собою щось іще,
тим паче підручники. Тепер ідіть.

// 3636
//Harry went.
Гаррі вийшов.
