// 7692
//== Frontal Override
//@
== Розділ 41. Долаючи себе

// 7693
//The biting January wind howled around the vast, blank stone walls that
//demarcated the material bounds of the castle Hogwarts, whispering and whistling
//in odd pitches as it blew past closed windows and stone turrets. The most
//recent snow had mostly blown away, but occasional patches of melted and
//refrozen ice still stuck to the stone face and blazed reflected sunlight. From
//a distance, it must have looked like Hogwarts was blinking hundreds of eyes.
Дошкульний січневий вітер завивав навколо широких голих камʼяних стін, що розмежовували
матеріальні кордони замку Гоґвортс. Він видавав дивне різнорівневе свистіння й шепотіння,
коли дув повз зачинені вікна й камʼяні башти. Нещодавній сніг майже повністю здуло,
але подекуди траплялися присталі до каменю клаптики розталого і знову замерзлого снігу,
які виблискували, віддзеркалюючи сонячне світло. Здалека, мабуть, видавалося, що Гоґвортс
миготить сотнями очей.

// 7694
//A sudden gust made Draco flinch, and try, impossibly, to press his body even
//closer to the stone, which felt like ice and smelled like ice. Some utterly
//pointless instinct seemed convinced that he was about to be blown off the outer
//wall of Hogwarts, and that the best way to prevent this was to jerk around in
//helpless reflex and possibly throw up.
Раптовий порив змусив Драко здригнутися й спробувати ще сильніше притиснути своє тіло
до каменю, що було неможливим. На дотик камінь був наче лід, на запах також. Якийсь
відверто безґлуздий інстинкт запевняв, що його от-от здує із зовнішньої стіни Гоґвортсу,
і що найкращим способом запобігти цьому було безпорадно рефлекторно смикатися
і, можливо, виблювати.

// 7695
//Draco was trying very hard __not__ to think about the six stories worth of
//empty air underneath him, and focus, instead, on how he was going to kill Harry
//Potter.
Драко дуже старався __не думати__ про порожнечу висотою у шість поверхів під
собою. Натомість, він намагався зосередитися на думці про те, як
вбиватиме Гаррі Поттера.

// 7696
//“You know, Mr. Malfoy,” said the young girl beside him in a conversational
//voice, “if a seer had told me that someday I’d be hanging onto the side of a
//castle by my fingertips, trying not to look down or think about how loud Mum’d
//scream if she saw me, I wouldn’t’ve had __any__ idea of how it’d happen,
//__except__ that it’d be Harry Potter’s fault.”
-- Ви знаєте, містере Мелфой, -- недбало сказала молода дівчина поряд із ним,
-- якби провидець сказав мені, що колись я висітиму на стіні замку, тримаючись
лише кінчиками пальців і намагаючись не дивитися вниз та не думати, як голосно
волала б мама, якби мене бачила, то я __гадки б не мала__, як таке може статися,
але __знала б__, що це провина Гаррі Поттера.

***

// 7697
//__Earlier:__
__Раніше:__

// 7698
//The two allied Generals stepped together over Longbottom’s body, their boots
//hitting the floor in almost perfect synchrony.
Двоє союзних генералів переступили через тіло Лонґботома. Їхні чоботи стукотіли
підлогою майже в бездоганному унісоні.

// 7699
//Only a single soldier now stood between them and Harry, a Slytherin boy named
//Samuel Clamons, whose hand was clenched white around his wand, held upward to
//sustain his Prismatic Wall. The boy’s breathing was coming rapidly, but his
//face showed the same cold determination that lit the eyes of his general, Harry
//Potter, who was standing behind the Prismatic Wall at the dead end of the
//corridor next to an open window, with his hands held mysteriously behind his
//back.
//@Prismatic Wall - DnD
Тепер між ними й Гаррі був лише один солдат -- хлопець зі Слизерину на імʼя Семюель
Клеймонс. Він стискав свою націлену вгору для підтримання призматичної стіни паличку
так міцно, що на руці побіліли кісточки. Дихання хлопця було пришвидшеним, але
обличчя демонструвало ту саму холодну рішучість, що світилася в очах його генерала,
Гаррі Поттера. Поттер стояв за призматичною стіною, у тупиковому коридорі, таємничо
тримаючи руки за спиною. Позаду нього було відчинене вікно.

// 7700
//The battle had been ridiculously difficult, for the enemy being outnumbered
//two-to-one. It should have been easy, Dragon Army and the Sunshine Regiment had
//melded together easily in practice sessions, they’d fought each other long
//enough to know each other very well indeed. Morale was high, both armies
//knowing that this time they weren’t just fighting to win for themselves, but
//fighting for a world free of traitors. Despite the surprised protests of both
//generals, the soldiers of the combined army had insisted on calling themselves
//Dramione’s Sungon Argiment, and produced patches for their insignia of a
//smiling face wreathed in flames.
Битва була до безґлуздя важкою, враховуючи те, що вони мали чисельну перевагу два
до одного. Вона мала б бути простою, Армія Драконів і Полк "`Сонечко`" з легкістю
зливалися разом під час тренувань. Вони боролися між собою достатньо довго,
щоб справді гарно вивчити одне одного. Мораль була на висоті, бо обидва війська знали,
що цього разу бʼються не лише заради власної перемоги, а за світ, вільний від зрадників.
Незважаючи на здивовані протести обох генералів, солдати обʼєднаного війська наполягли були
на тому, щоб називати себе "`Драміонин Армолк Дранечко`", і створили для себе нашивки із
зображенням усміхненого обличчя, увінчаного полумʼям.

// 7701
//But Harry’s soldiers had all blackened their own insignia - it didn’t look like
//paint, more like they’d __burned__ that part of their uniforms - and
//they’d fought all through the upper levels of Hogwarts with a desperate fury.
//The cold rage that Draco sometimes saw in Harry had seemed to trickle down into
//his soldiers, and they’d fought like it hadn’t been play. And Harry had emptied
//out his entire bag of tricks, there’d been tiny metal balls (Granger had
//identified them as “ball bearings”) on floors and staircases, rendering them
//impassable until cleared, only Harry’s army had already practiced coordinated
//Hover Charms and they could fly their own people __right over__ the
//obstacles they’d made…
Але всі солдати Гаррі зачорнили свої розпізнавальні знаки -- навіть не фарбою,
а наче __випалили__ свої уніформи в тому місці -- і боролися на верхніх
поверхах Гоґвортсу з відчайдушним шаленством. Холодна лють, що її Драко іноді бачив
у Гаррі, наче просочилася у його солдатів, і вони билися так, наче це було не грою.
Гаррі використав усі до останнього трюки зі свого репертуару. По підлозі й сходах були розкидані
крихітні металеві кульки (Ґрейнджер ідентифікувала їх як "`кулькові вальниці`"),
які, доки їх не прибереш, робили пересування неможливим. А військо Гаррі, яке вже
практикувало координоване використання чарів польоту, переносило своїх людей повітрям,
__прямо над__ перешкодами, які вони створили...

// 7702
//You couldn’t bring devices into the game from outside, but you could
//Transfigure anything you wanted __during__ the game, so long as it was
//safe. And that just wasn’t fair when you were fighting a boy raised by
//scientists, who knew about things like ball bearings and skateboards and bungee
//cords.
Приносити в гру пристрої ззовні заборонялося, але можна було трансфігурувати
що тобі заманеться __під час__ гри, головне дотримуватися правил безпеки. І це
було просто несправедливим, коли тобі доводилося битися із хлопцем, якого виховали
вчені, який знав про такі речі, як кулькові вальниці, і скейтборди, і еластичні троси.

// 7703
//And so it had come to this.
І от дійшло до цього.

// 7704
//The survivors of the allied forces had cornered the last remnants of Harry
//Potter’s army in a dead-end corridor.
Ті солдати союзних військ, хто вижив, загнали останні залишки війська Гаррі
Поттера у глухий кут коридору.

// 7705
//Weasley and Vincent had rushed Longbottom at the same time, moving together
//like they’d practiced for weeks instead of hours, and somehow Longbottom had
//managed to hex them __both__ before falling himself.
Візлі і Вінсент одночасно напали на Лонґботома, рухаючись разом так, наче
тренувалися тижнями, а не годинами. І все одно Лонґботому якимось чином
вдалося поцілити в них __обох__, перш ніж упасти самому.

// 7706
//And now it was Draco and Granger and Padma and Samuel and Harry, and by the
//looks of Samuel, his Prismatic Wall couldn’t last much longer.
І тепер залишалися тільки Драко, Ґрейнджер, Падма, Семюель і Гаррі, а судячи з
вигляду Семюеля, його призматична стіна не мала довго протягнути.

// 7707
//Draco had already leveled his wand at Harry, waiting for the Prismatic Wall to
//fall of its own accord; there was no need to waste a Breaking Drill Hex before
//then. Padma leveled her own wand at Samuel, Granger leveled hers at Harry…
Драко вже націлив свою паличку на Гаррі, чекаючи на те, що призматична стіна впаде
сама, -- не було потреби витрачати Прокльон пробивного свердла. Падма націлила свою
паличку на Семюеля, Ґрейнджер -- на Гаррі...

// 7708
//Harry was still hiding his hands behind his back, instead of aiming his wand;
//and looking at them with a face that could have been carved out of ice.
Гаррі все ще ховав руки за спиною і ні у кого не цілився. Він дивився на них,
а обличчя його було наче вирізьблене з льоду.

// 7709
//It might be a bluff. It probably wasn’t.
Це могло бути блефом. Але, скоріше за все, не було.

// 7710
//There was a brief, tense silence.
Запала коротка, напружена тиша.

// 7711
//And then Harry spoke.
І тоді Гаррі заговорив.

// 7712
//“I’m the villain now,” the young boy said coldly, “and if you think villains
//are this easy to finish off, you’d better think again. Beat me when I’m
//fighting seriously, and I’ll stay beaten; but lose, and we’ll be doing this all
//over again next time.”
-- Тепер я лиходій, -- холодно сказав молодий хлопець, -- і якщо ви гадаєте, що
лиходіїв так легко прикінчити, подумайте ще раз. Якщо побʼєте мене, коли я борюся
серйозно, я залишуся побитим. Але якщо програєте -- ми повторимо це знову наступного
разу.

// 7713
//The boy brought his hands forward, and Draco saw that Harry was wearing strange
//gloves, with a peculiar grayish material on the fingertips, and buckles that
//stapped the gloves tightly to his wrists.
Хлопець дістав руки з-за спини, і Драко побачив, що на Гаррі були вдягнені дивні
рукавиці, які туго кріпилися до його запʼясть стяжками. Кінчики пальців були
зроблені зі своєрідного сіруватого матеріалу.

// 7714
//Beside Draco, the Sunshine General gasped in horror; and Draco, without even
//asking why, fired a Breaking Drill Hex.
Генерал Сонечка ахнула від жаху поряд із Драко, і він, навіть не запитуючи,
вистрілив Прокльоном пробивного свердла.

// 7715
//Samuel staggered, he let out a scream as he staggered, but he held the Wall;
//and if Padma or Granger fired now, they would exhaust their own forces so badly
//that they might just lose.
Семюель скрикнув і похитнувся, але стримав стіну. І якщо Падма чи Ґрейнджер зараз
вистрілять, це призведе до знесилення власних військ настільки, що вони можуть просто
програти.

// 7716
//“__Harry!__” shouted Granger. ”__You can’t be serious!__”
-- __Гаррі!__ -- вигукнула Ґрейнджер. -- __Ти ж це не серйозно!__

// 7717
//Harry was already in motion.
Гаррі вже почав рухатися.

// 7718
//And as he swung out the open window, his cold voice said, “Follow if you dare.”
І коли він вистрибнув у відкрите вікно, вони почули його холодний голос.

-- Переслідуйте мене, якщо наважитеся.

***

// 7719
//The icy wind howled around them.
// копія 7740
Льодяний вітер завивав навколо них.

// 7720
//Draco’s arms were already starting to feel tired.
Драко вже починав відчувати втому у руках.

// 7721
//…It had developed that, yesterday, Harry had carefully demonstrated to Granger
//exactly how to Transfigure the gloves he was currently wearing, which used
//something called ‘gecko setae’; and how to glue Transfigured patches of the
//same material to the toes of their shoes; and Harry and Granger had, in
//innocent childish play, tried climbing around the walls and ceiling a little.
...Як виявилося, Гаррі вчора дбайливо продемонстрував Ґрейнджер як
саме трансфігурувати рукавички, що наразі були на ньому вдягнені. У них
використовувалося дещо під назвою "`щетинки гекона`". Він також показав як
приклеїти трансфігуровані клаптики цього матеріалу до їхнього взуття на рівні пальців.
А потім Гаррі й Ґрейнджер, у невинній дитячій грі, спробували трохи полазити
по стінах і стелі.

// 7722
//And that, also yesterday, Harry had supplied Granger with a grand total of
//exactly two doses of Feather-Falling Potion to carry around in her pouch, “just
//in case”.
До того ж, вчора Гаррі спорядив Ґрейнджер загалом точнісінько двома порціями
зілля пірʼячкового падіння, щоб вона носила їх з собою у капшучку -- "`про всяк
випадок`".

// 7723
//Not that Padma would have followed them, anyway. __She__ wasn’t crazy.
Не те щоб Падма пішла б з ними. __Вона__ не була божевільною.

// 7724
//Draco carefully peeled loose his right hand, stretched it over as far as he
//could, and slapped it down on the stone again. Beside him, Granger did the
//same.
Драко обережно віддер свою праву руку, простягнув її так далеко, як міг, і
знову шльопнув нею об камінь. Поряд із ним Ґрейнджер зробила те саме.

// 7725
//They’d already swallowed the Feather-Falling Potion. It was skirting the edges
//of the game rules, but the potion wouldn’t be activated unless one of them
//actually fell, and so long as they __didn’t__ fall they weren’t using the
//item.
Вони вже випили зілля пірʼячкового падіння. Це було на межі порушення правил гри,
але зілля не активується, доки хтось із них не впаде. Тому доки вони __не
падають__, вони не використовують заборонений предмет.

// 7726
//Professor Quirrell was watching them.
Професор Квірел спостерігав за ними.

// 7727
//The two of them were __perfectly, completely, utterly safe.__
Вони були у __повній, цілковитій, абсолютній безпеці__.

// 7728
//Harry Potter, on the other hand, was going to die.
А от Гаррі Поттер помре.

// 7729
//“I wonder why Harry is doing this,” said General Granger in a reflective tone,
//as she slowly peeled the fingertips of one hand off the wall with an extended
//sticky sound. Her hand plopped back down again almost as soon as it was lifted.
//“I’ll have to ask him that after I kill him.”
-- Цікаво, навіщо Гаррі це робить, -- задумливо сказала генерал Ґрейнджер. Вона
повільно віддерла кінчики пальців однієї руки від стіни. Звук, що його видав
липкий матеріал, лунав ще деякий час, а її рука пристала назад до стіни майже одразу
після того, як відірвалася.

-- Я спитаю в нього про це, щойно вбʼю його.

// 7730
//It was amazing how much the two of them were turning out to have in common.
Дивовижно, як багато в них двох, виявляється, було спільного.

// 7731
//Draco didn’t really feel like talking right now, but he managed to say, through
//gritted teeth, “Could be revenge. For the date.”
Драко був не дуже налаштований на розмови у цю мить, але видавив відповідь крізь зціплені
зуби.

-- Можливо, помста. За побачення.

// 7732
//“Really,” said Granger. “After all this time.”
// Elvira: "After all this time" - це відома фраза Дамблдора. Deathly Hallows, 33-Prince's Tale
-- Невже, -- сказала Ґрейнджер. -- Аж через стільки часу.

// 7733
//Stick. Plop.
Чмак. Шльоп.

// 7734
//“How sweet of him,” said Granger.
-- Як це мило з його боку.

// 7735
//Stick. Plop.
Чмак. Шльоп.

// 7736
//“I guess I’ll find some truly romantic way to thank him,” said Granger.
-- Гадаю, я знайду якийсь насправді романтичний спосіб йому віддячити.

// 7737
//Stick. Plop.
Чмак. Шльоп.

// 7738
//“What’s he got against __you?__” said Granger.
-- А за що він мститься __тобі__?

// 7739
//Stick. Plop.
Чмак. Шльоп.

// 7740
//The icy wind howled around them.
// копія 7719
Крижаний вітер завивав навколо них.

***

// 7741
//One might have thought it would feel safer to have ground under your feet
//again.
Можливо, комусь здається, що мати тверду поверхню під ногами безпечніше.

// 7742
//But if that ground was a slanted roof tiled with rough slats, which had rather
//a lot more ice on it than the stone walls, and you were running across it at a
//high rate of speed…
Але якщо ця поверхня -- нахилений вкритий грубими дошками дах, що має на собі
значно більше льоду, ніж камʼяні стіни, а ще й треба бігти ним з великою швидкістю...

// 7743
//Then you would be __sadly mistaken.__
То на нього чекає __страшне розчарування__.

// 7744
//“__Luminos!__” shouted Draco.
-- __Лумінос!__ -- крикнув Драко.

// 7745
//“__Luminos!__” shouted Granger.
-- __Лумінос!__ -- крикнула Ґрейнджер.

// 7746
//“__Luminos!__” shouted Draco.
-- __Лумінос!__ -- крикнув Драко.

// 7747
//“__Luminos!__” shouted Granger.
-- __Лумінос!__ -- крикнула Ґрейнджер.

// 7748
//The distant figure was dodging and scrambling as it ran, and not a single shot
//hit, but they were gaining.
Віддалена постать ухилялася й видиралася, ні на мить не спиняючи бігу, і жоден постріл не влучив.
Але вони наближалися.

// 7749
//Until Granger slipped.
А потім Ґрейнджер послизнулася.

// 7750
//It was inevitable, in retrospect, in real life you couldn’t __actually__
//run across icy slanted rooftops at a high rate of speed.
Оглядаючись назад, ставало зрозуміло, що це було неминуче. У реальному житті
__неможливо__ бігти вкритими льодом нахиленими дахами з великою швидкістю.

// 7751
//And also inevitably, because it happened without the slightest thought, Draco
//spun and grabbed for Granger’s right arm, and he __caught__ her, only she
//was already too far off balance, she was falling and pulling Draco with her, it
//all happened so quickly -
Так само неминуче, бо в голові Драко не встигла промайнути жодна думка, він
крутнувся й схопив Ґрейнджер за правицю. Він __впіймав__ її, але вона вже
повністю втратила рівновагу. Вона падала й тягнула Драко за собою, усе сталося
так швидко...

// 7752
//There was a hard, painful impact, not just Draco’s weight hitting the rooftop
//but some of Granger’s weight too, and if she’d hit just a little bit closer to
//the edge they could have made it, but instead her body tipped again and her
//legs slipped off and her other hand grabbed frantically…
Драко відчув сильний болісний удар, коли вся його вага та частина ваги Ґрейнджер опустилася
на дах. І якби Ґрейнджер впала трохи ближче до краю, вони могли б впоратися, але
натомість її тіло знову відхилилося, її ноги зісковзнули, а її друга рука відчайдушно
вхопилася за дах...

// 7753
//And that was how Draco ended up holding onto Granger’s arm in a white grip,
//while her other hand clenched frantically at the edge of the rooftop and the
//toes of Draco’s shoes dug into the edge of a roof tile.
Так і вийшло, що Драко до побіління міцно вчепився за руку Герміони, доки інша її рука
відчайдушно стискала край покрівлі, а носки його черевиків впивалися у крайку черепиці.

// 7754
//“__Hermione!__” Harry’s voice shrieked distantly.
-- Герміоно! -- здалека пролунав вереск Гаррі.

// 7755
//“Draco,” whispered Granger’s voice, and Draco looked down.
-- Драко, -- прошепотіла Ґрейнджер, і Драко поглянув униз.

// 7756
//That might have been a mistake. There was a lot of air underneath her, nothing
//but air, they were on the edge of a rooftop that had jutted out from the main
//stone wall of Hogwarts.
Це могло бути помилкою. Під нею було чимало повітря. Нічого окрім повітря. Вони
були на краю даху, що випинався з головної камʼяної стіни Гоґвортсу.

// 7757
//“He’s going to come help me,” whispered the girl, “but first he’s going to
//__Luminos__ both of us, there’s no way he wouldn’t. You have to let me
//go.”
-- Він прийде допомогти мені, -- прошепотіла дівчина, -- але спочатку він
__луміносне__ нас обох, немає жодних сумнівів. Ти маєш мене відпустити.

// 7758
//It should have been the easiest thing in the world.
Це мала б бути найпростіша річ у світі.

// 7759
//She was just a mudblood, just a mudblood, __just a mudblood!__
Вона була всього лише бруднокровкою, всього лише бруднокровкою, __всього лише бруднокровкою__!

// 7760
//She wouldn’t even be __hurt!__
Це навіть не завдасть їй __шкоди__!

// 7761
//…Draco’s brain wasn’t listening to anything Draco was telling it right now.
...Мозок Драко не прислухався ні до чого, що Драко йому наразі говорив.

// 7762
//“Do it,” Hermione Granger whispered, her eyes blazing without a single trace of
//fear, “do it, Draco, do it, you can beat him yourself __we have to win
//Draco!__”
-- Зроби це, -- прошепотіла Герміона Ґрейнджер, її очі палали, і в них не було й
натяку на страх, -- зроби це, Драко, ти можеш перемогти його сам, __ми маємо перемогти,
Драко__!

// 7763
//There was a sound of someone running and it was coming closer.
За звуком було зрозуміло, що Гаррі біг до них.

// 7764
//__Oh, be rational…__
__Та годі, будь раціональним...__

// 7765
//The voice in Draco’s head sounded an awful lot like Harry Potter teaching
//lessons.
Голос в голові Драко звучав жахливо схоже на голос Гаррі, коли той його вчив.

// 7766
//…__are you going to let your brain run your life?__
__...ти, нарешті, дозволиш мозку керувати твоїм життям?__

***

// 7767
//__Aftermath, 1:__
__Наслідки, 1:__

// 7768
//It was taking a bit of an effort for Daphne Greengrass to keep herself quiet,
//as Millicent Bulstrode retold the story in the Slytherin girls’ common room (a
//cozy cool place in the dungeons running beneath the Hogwarts Lake, with fish
//swimming past every window, and couches you could lie down in if you wanted).
//Mostly because, in Daphne’s opinion, it was a perfectly good story already
//without all of Millicent’s __improvements__.
// ! у нас за визначенням на дивані можна лежати. І мені не хочеться називати це кушеткою,
// ! бо мені ці дивани бачаться зі спинками.
// ! Гадаю, Елізер використав таку фразу саме щоб відрізнити диван від кушетки, але в нас
// ! немає необхідності
Дафні Ґрінґрас доводилося докладати зусиль, щоб не втручатися, доки Мілісент
Булстроуд переповідала цю історію у дівчачій вітальні Слизерину (затишне прохолодне
місце у підземеллях під Гоґвортським озером -- повз вікна плавали риби, а дивани були
великими і зручними). Здебільшого через те, що, на думку Дафни, ця історія вже була
ідеальною, і не потребувала жодних __покращень__ від Мілісент.

// 7769
//“And then what?” gasped Flora and Hestia Carrow.
-- І що тоді? -- затамували подих Флора і Гестія Керроу.

// 7770
//“General Granger looked up at him,” Millicent said dramatically, “and she said,
//‘Draco! You’ve got to let go of me! Don’t worry about me, Draco, I promise I’ll
//be all right! And what do you suppose Malfoy did then?”
-- Генерал Ґрейнджер подивилася на нього, -- драматично продовжувала Мілісент, --
і сказала: "`Драко! Ти маєш мене відпустити! Не хвилюйся щодо мене, Драко, обіцяю,
зі мною все буде добре!`". І що, ви думаєте, тоді зробив Мелфой?

// 7771
//“He said ‘Never!’,” shouted Charlotte Wiland, “and held on even tighter!”
-- Він сказав "`Ніколи!`" -- скрикнула Шарлотта Віланд, -- і схопив її ще міцніше!

// 7772
//All the listening girls except Pansy Parkinson nodded.
Всі дівчата, окрім Пенсі Паркінсон, кивнули.

// 7773
//“Nope!” said Millicent. “He dropped her. And then he jumped up and shot General
//Potter. The end.”
-- Ні! -- сказала Мілісент. -- Він її кинув. А потім він підскочив і вистрілив
у генерала Поттера. Кінець.

// 7774
//There was a stunned pause.
Запала шокована тиша.

// 7775
//“You can’t __do__ that!” said Charlotte.
-- __Не можна__ так робити! -- сказала Шарлотта.

// 7776
//“She’s a __mudblood,__” said Pansy, sounding confused. “Of __course__
//he let go!”
-- Вона __бруднокровка,__ -- розгублено відповіла Пенсі, -- __звісно__ він
відпустив!

// 7777
//“Well, Malfoy shouldn’t have grabbed her in the first place, then!” said
//Charlotte. “But once he grabbed her, he __had__ to hang on!
//__Especially__ in the face of approaching certain doom!” Tracey Davis,
//sitting next to Daphne, was nodding along in firm agreement.
-- Що ж, тоді Мелфою взагалі не варто було її хапати! -- парирувала Шарлотта.
-- А як він вже її схопив, то __повинен__ був тримати! __Тим більше__ перед
обличчям неминучої загибелі.

Трейсі Девіс, що сиділа поруч із Дафною, схвально кивала.

// 7778
//“I don’t see why,” said Pansy.
-- Не бачу жодних причин чому, -- сказала Пенсі.

// 7779
//“That’s because you don’t have the tiniest smidgin of romance in you,” said
//Tracey. “Besides, you can’t just go dropping girls. A boy who’d drop a girl
//like that… he’d drop __anyone.__ He’d drop __you,__ Pansy.”
-- Це тому, що в тобі немає ані краплі романтики, -- відповіла Трейсі.
-- До того ж, не можна просто так кидати дівчат. Хлопець, що отак кинув
дівчину... може кинути __будь-кого__. Він може кинути __тебе__, Пенсі.

// 7780
//“What d’you mean, __drop me?__” Pansy said.
-- Що ти маєш на увазі, __кинути мене__? -- сказала Пенсі.

// 7781
//Daphne couldn’t resist any more. “You know,” Daphne said darkly, “you’re eating
//breakfast one day at our table, and the next thing you know, Malfoy
//__lets go of you,__ and you’re falling off the top of Hogwarts! That’s
//what!”
Дафна більше не могла себе стримувати.

-- Ну, знаєш, -- загадково почала Дафна, -- одного дня ти сидиш собі за нашим столом,
їси сніданок, а наступної миті Мелфой вже __відпускає тебе__, і ти падаєш з верхівки
Гоґвортсу! Ось що!

// 7782
//“Yeah!” said Charlotte. “He’s a witch dropper!”
-- Точно! -- підхопила Шарлотта, -- він кидальник відьом!

// 7783
//“You know why Atlantis fell?” said Tracey. “‘Cause someone like Malfoy
//__dropped__ it, that’s why!”
-- Знаєте, чому впала цивілізація атлантів? -- сказала Трейсі.
-- Бо хтось на кшталт Мелфоя __кинув__ її, ось чому!

// 7784
//Daphne lowered her voice. “In fact… what if Malfoy’s the one who made Hermione,
//I mean General Granger, slip in the first place? What if he’s out to make
//__all__ the Muggleborns trip and fall?”
Дафна притишила голос.

-- А що як... що як це Мелфой насправді винен у тому, що Герміона, тобто генерал
Ґрейнджер, послизнулася? Що як він збирається зробити так, щоб __всі__ учні
маґлівського роду спіткнулися і впали?

// 7785
//“You mean - ?” gasped Tracey.
-- Ти маєш на увазі?.. -- ахнула Трейсі.

// 7786
//“That’s right!” Daphne said dramatically. “What if Malfoy is - __the heir
//of Slipperin?__”
-- Точно! -- Дафна додала голосу драматизму. -- Що як Мелфой... __Нащадок Слизькорину?__

// 7787
//“The next Drop Lord!” said Tracey.
-- Наступний темний кидалорд! -- сказала Трейсі.

// 7788
//Which was far too good a line for anyone to keep to themselves, so by nightfall
//it was all over Hogwarts, and the next morning it was the __Quibbler’s__
//headline.
Ця фраза була надто гарною, щоб її можна було залишити між собою. За вечір вона вже
розлетілася Гоґвортсом, а наступного ранку стала головним заголовком "`Базікала`".

***

// 7789
//__Aftermath, 2:__
__Наслідки, 2__:

// 7790
//Hermione made sure she got to their usual classroom nice and early that
//evening, just so that she would be by herself, in a chair, peacefully reading a
//book, when Harry got there.
Герміона того вечора навмисно прийшла до їхньої звичайної класної кімнати
завчасно, щоб коли туди зайде Гаррі, вона вже сиділа собі у кріслі, спокійно читаючи
книжку.

// 7791
//If there was any way for a door to creak open apologetically, that was how the
//door was creaking open.
Якщо існував якийсь спосіб, у який двері можуть скрипіти вибачально, то так вони
й скрипнули.

// 7792
//“Um,” said Harry Potter’s voice.
-- Ем... -- прозвучав голос Гаррі Поттера.

// 7793
//Hermione kept reading.
Герміона продовжувала читати.

// 7794
//“I’m, um, kinda sorry, I didn’t mean for you to __actually__ fall off the
//roof or anything…”
-- Я, ем, так би мовити, вибачаюся. Я не хотів, щоб ти __справді__ впала з даху
чи щось таке...

// 7795
//It had been quite an entertaining experience, in fact.
Насправді це був доволі цікавий досвід.

// 7796
//“I, ah… I don’t have much experience apologizing, I’ll fall to my knees if you
//want, or buy you something expensive, __Hermione I don’t know how to
//apologize to you for this what can I do just tell me?__”
-- Я, е... у мене мало досвіду у вибаченнях, я впаду на коліна, якщо ти хочеш,
чи куплю тобі щось коштовне,
__Герміоно-я-не-знаю-як-мені-вибачитися-за-це-що-я-можу-зробити-просто-скажи!__

// 7797
//She kept reading the book in silence.
Вона продовжувала мовчки читати книжку.

// 7798
//It wasn’t as if __she__ had any idea how Harry could apologize, either.
Не те щоб __вона__ мала бодай якесь уявлення, як Гаррі може вибачитись.

// 7799
//Right now she was just feeling a sort of odd curiosity as to what would happen
//if she kept reading her book for a while.
Наразі їй просто було цікаво, що станеться, якщо вона деякий час продовжуватиме
просто читати книжку.
