// 13375
//== Interlude with the Confessor: Sunk Costs
== Розділ 76. Інтерлюдія зі сповідником: незворотні витрати

// 13376
//Rianne Felthorne descended the stairs of roughened stone and crude mortar,
//keeping a __Lumos__ lit through the distances between fire-sconces,
//holding aloft her wand through the gaps from light to light.
Ріанне Фелторн спустилася грубими, необробленими камʼяними сходами, використовуючи
__Лумос__ для пересування у проміжках між закріпленими на стінах смолоскипами. Вона
високо тримала паличку, щоб долати відстань від світла до світла.

// 13377
//She came to the empty rock cavern pierced by many dark openings, lit by a torch
//of ancient style that fired as she entered.
Вона дійшла до порожнього камʼяного льоху, пронизаного чисельними темними отворами
й освітленого старовинним факелом, що він запалав, щойно Ріанне увійшла.

// 13378
//There was no one else there, as yet, and after long minutes of nervous
//standing, she began the spell to Transfigure a cushioned sofa large enough for
//two people to sit, or maybe even lie down on. A simple wooden stool would have
//been easier, she could have done that in fifteen seconds, but - well -
Нікого окрім неї у підземеллі не було, і після кількох довгих хвилин хвилювання й
очікування вона почала трансфігурацію з метою створити мʼякий диван, достатньо
великий для того, щоб двоє людей могли вільно всістися, чи навіть лягти. Створити
простий деревʼяний стілець було набагато легше і потребувало б у неї всього
пʼятнадцяти секунд, але... ну...

// 13379
//Even when the sofa was fully conjured, Professor Snape still hadn’t arrived,
//and she sat down on the left side of her sofa with her pulse hammering in her
//throat. Somehow she was only becoming more nervous, not less, as the delay
//stretched.
Диван було повністю закінчено, але професор Снейп досі не зʼявився. Вона сіла
з лівого боку свого дивану, пульс калатав у неї в горлі. Що довшим було очікування,
то більше посилювалося її хвилювання.

// 13380
//She knew this was the last time.
Вона знала, що це востаннє.

// 13381
//The last time before all these memories went away, and Rianne Felthorne found
//herself in a mysterious cavern, wondering what was going on.
Останній раз перед тим, як всі ці спогади зникнуть, і Ріанне Фелторн отямиться
в таємничому льоху, намагаючись зрозуміти, що відбувається.

// 13382
//There was something about it that felt like dying.
Щось у цьому нагадувало їй про смерть.

// 13383
//The books said a properly done Obliviation wasn’t harmful, people forgot things
//all the time. People dreamed, and then woke up without remembering their
//dreams. Obliviation didn’t even involve that much discontinuity, just a brief
//instant of disorientation; it was like being distracted by a loud noise and
//losing track of a thought you couldn’t seem to remember afterward. That was
//what the books said, and why Memory Charms were fully approved by the Ministry
//for all authorized governmental purposes.
У книжках писали, що правильно виконаний Забуттятус не чинив шкоди, люди постійно
щось забувають. Іноді їм щось сниться, а вранці вони прокидаються без жодної
згадки про побачене уві сні. Забуттятус навіть не надто руйнував усвідомлення
послідовності подій, а спричиняв всього лише мить дезорієнтації. Це було так само,
як злякатися гучного звуку і втратити хід думок, які після того не можеш пригадати.
Саме так писали в книжках, і саме тому заклинання памʼяті цілком схвалювалося
Міністерством магії для використання в будь-яких уповноважених державних цілях.

// 13384
//But still, __these thoughts,__ the thoughts she was thinking right now;
//soon nobody would have them anymore. When she looked ahead in the future, there
//was nobody to complete the thoughts she wasn’t finished thinking. Even if she
//managed to tie up all the loose ends in her mind over the next minute, there
//wouldn’t be anything left of it afterward. Wasn’t that exactly what you would
//find yourself reflecting on, if you were going to die in the next minute?
Але все одно, __ці думки__, її думки цієї самої миті, скоро їх ні в кого не буде.
Вона дивилася у майбутнє й не бачила там нікого, хто міг би завершити початі нею
думки. Навіть якщо наступної хвилини їй вдасться зʼєднати всі розірвані ниточки
у своїй голові, нічого з цього в неї вже не залишиться. Хіба не над такими речами
замислюються люди, які знають, що от-от помруть?

// 13385
//There came the sound of muffled steps…
Почулися приглушені кроки.

// 13386
//Severus Snape emerged into the cavern.
Северус Снейп зайшов до льоху.

// 13387
//His eyes moved to her sitting on the sofa, and a strange expression crossed his
//face; strange because it wasn’t sardonic, or angry, or cold.
Його погляд зупинився на дівчині, що сиділа на дивані. Вираз його обличчя був дивним,
бо воно не було злобним, чи розлюченим, чи холодним.

// 13388
//“Thank you, Miss Felthorne,” Snape said quietly, “that was considerate of you.”
//The Potions Master took out his wand and performed the usual privacy Charms,
//and then he moved toward her, and sat down heavily beside her on the
//Transfigured sofa.
-- Дякую, міс Фелторн, -- тихо сказав Снейп, -- це дуже дбайливо з вашого боку.

Професор із настійок виконав звичайні чари, необхідні для приватності, і підійшов до неї.
Важко сів поряд.

// 13389
//Her pulse was now pounding for another reason entirely.
Тепер її пульс калатав із зовсім інших причин.

// 13390
//She slowly turned to look at Professor Snape, and saw that his head was leaning
//back against the sofa, and his eyes were closed. Not sleeping, though. His face
//appeared tense, unrelaxed, bearing pain.
Вона повільно повернулася й подивилася на професора Снейпа. Він закинув голову
на спинку дивану й заплющив очі, але не спав. Обличчя було напруженим, не
розслабленим, охоплене болем.

// 13391
//She knew - she was suddenly certain - that she was only allowed to see this
//sight because she wouldn’t remember it afterward; and that nobody before her
//had ever been allowed to see it.
Вона знала, була впевнена, що їй дозволено це бачити тільки тому, що пізніше
нічого не згадає. І що нікому до неї такого бачити не дозволялося.

// 13392
//The frantic conversation going on inside Rianne Felthorne’s mind sounded
//something like this: __I could just lean over and kiss him, you are
//completely out of your tiny mind, his eyes are closed I bet he wouldn’t stop me
//in time, I bet it would be years before anyone found your body -__
В голові Ріанне Фелторн проминали шалені думки. __Я можу просто нахилитися і
поцілувати його -- ти зовсім здуріла -- його очі заплющені, він не встигне
мене спинити -- ставлю на те, що мине кілька років, доки твоє тіло знайдуть...__

// 13393
//But Professor Snape opened his eyes then (to her inner disappointment and
//relief), and said, in a more normal voice, “Your payment, Miss Felthorne.” From
//his robe he took a ruby, cut to Gringotts standard, and held it out toward her.
//“Fifty facets. I will not mind if you count them.”
Тоді професор Снейп розплющив очі (вона одночасно відчула розчарування й полегшення).

-- Ваша плата, міс Фелторн, -- сказав він уже нормальнішим голосом,
діставши з мантії рубін, огранований за Ґрінґотсівськими стандартами, і подав їй,
-- пʼятдесят граней. Я не проти, якщо ви хочете їх порахувати.

// 13394
//She held out a trembling hand, hoping that Snape would press the ruby into her
//fingers, that she would feel a touch of his skin alive against hers -
Вона простягнула тремтячу руку, сподіваючись, що Снейп вкладе рубін у її пальці,
що вона відчує дотик його шкіри на своїй...

// 13395
//But instead Snape raised his hand slightly and dropped the ruby into her hand,
//then leaned back against the couch. “You will remember finding it lying on the
//ground of this cavern, where you came exploring,” said Snape. “And since nobody
//except you will actually believe that, you will remember thinking that it would
//be less troublesome if you deposited the money into a separate box in
//Gringotts.”
Але натомість Снейп трохи підняв руку і кинув рубін в її долоню, а тоді знову
прихилився до спинки дивана.

-- Ви будете думати, що знайшли його на підлозі у цьому льосі, який ви вирішили
оглянути з цікавості. А через те, що ніхто, окрім вас, у це не повірить, ви також
думатимете, що найменш клопітним буде зберігати гроші в окремому сейфі у
"`Ґрінґотс`".

// 13396
//For a stretch there was only the faint crackling of the torch.
Якийсь час було чутно лише потріскування факела.

// 13397
//“Why -” Rianne Felthorne said. __He knows I won’t remember.__ “Why
//__did__ you do it? I mean - you said to tell you where bullies would be,
//and who they would be, but not whether Granger would be there. And I know, the
//way the Time-Turner works, if you want to __make__ Granger be there, you
//can’t be told whether it’s already happened. So I did work out that __we__
//were the ones telling her where to go. We were, weren’t we?”
-- Чому? -- спитала Ріанне Фелторн. __Він знає, що я все забуду__, -- __чому__ ви
це зробили? Ви попросили розказати вам, де будуть цькувальники, і хто вони, але
не питали, чи буде там Ґрейнджер. І я знаю як працює часоворот. Тож, якщо ви хотіли
зробити так, щоб Ґрейнджер була там, то вам не можна було знати, чи це вже сталося.
Тому я вирішила, що це __ми__ сказали їй, куди йти. Це були ми, чи не так?

// 13398
//Snape nodded without speaking. He had closed his eyes again.
Снейп мовчки кивнув. Він знову заплющив очі.

// 13399
//“But,” said Rianne, “I didn’t understand __why__ you were helping her. And
//now - after what you did to Granger in the Great Hall - I just don’t understand
//at all.” Rianne had never thought of herself as particularly nice. She’d taken
//little notice of the controversy over the Sunshine General. But something about
//__helping__ Granger fight bullies had… well, she’d gotten used to thinking
//of that as the good side, and thinking of __herself__ as being on the good
//side. And she’d found she actually liked it. It was hard, to just let that go.
//“Why’d you do that, Professor Snape?”
-- Але, -- сказала Ріанне, -- я не розумію, __нащо__ ви їй допомагали. І тепер,
після того, що ви зробили їй у Великій залі, я вже нічого не розумію.

Ріанне ніколи не вважала себе дуже хорошою. Вона звертала мало уваги на
суперечки
щодо генерала Сонечка. Але __допомогти__ Ґрейнджер подолати цькувальників сприймалося
нею як щось хороше, і вона вже звикла думати __про себе__ як про когось на стороні добра.
І їй це сподобалося. Їй було важко просто це відпустити.

-- Чому ви це зробили, професоре Снейп?

// 13400
//Snape shook his head, his face tightened.
Снейп потряс головою, його обличчя посуворішало.

// 13401
//“Is -” Rianne said falteringly. “I mean - so long as we’re here - is there
//anything you do want to talk about?” There was something __she__ wanted to
//say, but she couldn’t make the words pass her own lips.
-- Чи... -- несподівано сказала Ріанне, -- коли ми вже тут, чи є щось про
що ви хотіли б поговорити?

__Вона__ точно хотіла про дещо поговорити, але вона не могла змусити слова
зірватися з губ.

// 13402
//“I can think of one matter,” Snape said after a pause. “If you are interested,
//Miss Felthorne.”
-- Тільки одне, -- сказав Снейп після паузи, -- якщо вас це цікавить, міс Фелторн.

// 13403
//Snape’s eyes were still shut, so she couldn’t just nod her head. Her voice
//almost broke, when she forced herself to say “Yes.”
Очі Снейпа досі були заплющені, тож вона не могла просто кивнути. Її голос майже
зірвався, коли вона змусила себе сказати:

-- Так.

// 13404
//“There’s a certain boy in your class who likes you, Miss Felthorne,” Snape said
//from behind his closed eyes. “I won’t say his name. But he watches you every
//time you walk across the room, when he thinks you aren’t looking. He dreams
//about you and desires to possess you, but he’s never asked you for so much as a
//kiss.”
-- У вашому класі є хлопець, якому ви подобаєтеся, міс Фелторн, -- Снейп так і
не розплющив очей. -- Я не скажу вам його імені, але він спостерігає за вами щоразу,
як ви перетинаєте кімнату, коли думає, що ви не дивитеся. Він мріє про вас і бажає
володіти вами, але ніколи не просив навіть про поцілунок.

// 13405
//Her heart started hammering even harder.
Її серце калатало навіть сильніше ніж раніше.

// 13406
//“Please tell me the honest truth, Miss Felthorne. What do you think of that
//boy?”
-- Будь ласка, скажіть мені правду, міс Фелторн. Що ви думаєте про цього хлопця?

// 13407
//“Well -” she said. She was stumbling over her words. “I think - to never even
//ask for one kiss - would be -”
-- Що ж... -- вона ледве добирала слова. -- Гадаю... жодного разу навіть не попросити про
поцілунок... це...

// 13408
//__Sad.__
__Сумно.__

// 13409
//__Just too p____itiful.__
__Надто жалюгідно.__

// 13410
//“Weakness,” she said, her voice trembling.
-- Слабкість, -- її голос тремтів.

// 13411
//“I agree,” said Snape. “Suppose that boy had helped you, though. Would you
//think that you owed him a kiss, if he asked?”
-- Я згоден. Припустімо, цей хлопець вам допоміг. Чи гадатимете ви, що винні йому
поцілунок, якщо він попросить?

// 13412
//She inhaled sharply -
Вона різко видихнула...

// 13413
//“Or would you think,” Snape continued, his eyes still closed, “that he was just
//being bothersome?”
-- Чи ви подумаєте, -- очі Снейпа все ще були заплющені, -- що він просто даремно вас турбує?

// 13414
//The words stabbed into her like a knife and she couldn’t help gasping out loud.
Слова врізалися в неї, наче ніж. Вона не стрималася і голосно зойкнула.

// 13415
//Snape’s eyes flew open, and his gaze met hers across the sofa.
Снейп несподівано розплющив очі, і їхні погляди зустрілися.

// 13416
//Then the Potions Master began to laugh, small sad chuckles.
Тоді професор з настійок почав сміятися, сумним тихим хихиканням.

// 13417
//“No, not __you,__ Miss Felthorne!” Snape said. “Not __you!__ We
//really __are__ talking about a boy. One who attends your Potions class, in
//fact.”
-- Ні, я не маю на увазі вас, міс Фелторн! Це не __ви__. Ми й __справді__
говоримо про хлопця. Він ходить на Зілля й Настійки разом з вами.

// 13418
//“Oh,” she said. She tried to remember what Snape had said before, now feeling
//rather unnerved as she thought of some boy watching her, always silently
//watching. “Well, um, in that case. That’s kind of __creepy__, actually.
//Who is it?”
-- О, -- сказала вона. Вона спробувала пригадати, що сказав Снейп перед тим, бо
тепер її трохи хвилювало, що якийсь хлопець за нею спостерігає, постійно тихо
спостерігає. -- Що ж, гм, у такому разі, це трохи __моторошно__, якщо чесно.
Хто він?

// 13419
//The Potions Master shook his head. “It doesn’t matter,” said Snape. “Out of
//curiosity, what would you think if that boy were still in love with you years
//later?”
-- Це не має значення, -- професор із настійок похитав головою. -- Просто з
цікавості, що б ви подумали, якби цей хлопець був досі закоханий у вас роками
потому?

// 13420
//“Um,” she said, feeling a bit confused, “that would be totally pathetic?”
-- Ем, -- вона почувалася трохи розгубленою, -- це було б абсолютно жалюгідно?

// 13421
//The torch crackled a bit in the cavern.
Смолоскип ще трохи потріскав.

// 13422
//“It’s strange,” Snape said quietly. “I have had two mentors, over the course of
//my days. Both were extraordinarily perceptive, and neither one ever told me the
//things I wasn’t seeing. It’s clear enough why the first said nothing, but the
//second…” Snape’s face tightened. “I suppose I would have to be naive, to ask
//why he stayed silent.”
-- Дивно, -- тихо відповів Снейп. -- За все своє життя я мав двох наставників. Обидва
були екстраординарно проникливими, але жоден з них не сказав мені речей, які сам
я не бачив. Зрозуміло, чому перший нічого не говорив, але другий...

Обличчя Снейпа посуворішало.

-- Гадаю, надто наївним буде питати, чому мовчав він.

// 13423
//The quiet stretched, while Rianne tried frantically to think of something to
//say.
Доки Ріанне шалено намагалася вигадати, що сказати, висіла тиша.

// 13424
//“It is an odd thing,” Snape said, his voice still softer, “to look back after
//only thirty-two years, and wonder when your life was ruined past all rescuing.
//Was it determined when the Sorting Hat cried ‘Slytherin!’ for me? It seems
//unfair, since I was offered no choice; the Sorting Hat spoke the moment it
//touched upon my head. Yet I cannot claim it named me untruly. I never treasured
//knowledge for its own sake. I was not loyal to the one person I called friend.
//I was never one for righteous fury, then or now. Courage? There is no bravery
//in risking a life already ruined. My little fears have always mastered me, and
//I never turned aside from any of the paths I walked down, for those little
//fears. No, the Sorting Hat could never have put me in her House. Perhaps my
//final loss was determined, even then. Is that fair, I ask, even if the Sorting
//Hat speaks truly? Is it fair that some children should possess more courage
//than others, and thus a man’s life be judged?”
-- Дивна річ, дивитися назад через всього лише тридцять два роки й намагатися зрозуміти,
коли твоє життя було повністю зруйновано. Чи сталося це, коли Сортувальний Капелюх
прокричав "`Слизерин!`"? Це видається несправедливим, адже мені не дали жодного вибору.
Капелюх проговорив це тієї ж миті, як торкнувся моєї голови. І все одно, я не можу сказати,
що він розподілив мене помилково. Я ніколи не цінував знання заради знання. Я не був вірним
єдиній людині, яку називав другом. Праведна лють ніколи не була мені властива, ані тоді,
ані зараз. Відвага? Немає нічого відважного у тому, щоб ризикувати вже знищеним життям.
Мої маленькі страхи завжди мали владу наді мною. І саме через них я жодного разу не звернув
з тих шляхів, що вели мене вниз. Ні, Сортувальний Капелюх за жодних умов не міг помістити мене
в її гуртожиток. Видається, моя остаточна втрата була вирішена вже тоді. Рішення Сортувального
Капелюха було правдивим, але чи було воно справедливим? Чи це справедливо, що одні діти
відважніші за інших, і тим судиться усе життя чоловіка?
// hedrok: чоловіка, не людини. У 13454 зрозуміло, чому.

// 13425
//Rianne Felthorne was starting to realize that she’d never had the tiniest
//inkling of who her Potions Master was inside, and unfortunately all these dark
//hidden depths weren’t helping her with her problem.
Ріанне Фелторн почала розуміти, що ніколи не мала й крихти уявлення того, ким
був професор із настійок усередині, і, на жаль, усі ці темні приховані глибини жодним
чином не допомагали вирішити її проблему.

// 13426
//“But no,” Snape said. “I know where it went wrong for the last time. I could
//point to the very day and hour I missed my final chance. Miss Felthorne, did
//the Sorting Hat offer you Ravenclaw?”
-- Але ні, -- продовжував Снейп, -- я знаю, коли все було зруйновано останнього разу.
Я можу назвати день і час, коли я втратив свій останній шанс. Міс Фелторн, чи пропонував
вам Сортувальний Капелюх Рейвенклов?

// 13427
//“Y-yes,” she said without thinking.
-- Т-так, -- не задумуючись сказала вона.

// 13428
//“Have you ever been any good at riddles?”
-- Ви вмієте розгадувати загадки?

// 13429
//“Yes,” she said again, because whatever Professor Snape was about to say, she
//wouldn’t hear it if she said __no.__
-- Так, -- знову сказала вона, бо хай там що хотів розповісти професор Снейп,
вона не почує цього, сказавши "`ні`".

// 13430
//“I am terrible at riddles,” Snape said in a distant voice. “I was once given a
//riddle to solve, and I did not understand even the simplest part until too
//late. I did not even realize the riddle was meant for __me__ until too
//late. I thought I had merely happened to overhear it, when in truth it was I
//who was overheard. So I sold my riddle to another, and that is when the
//wreckage of my life passed beyond retrieval.” Snape’s voice was still distant,
//sounding more abstracted than sorrowful. “And even now, I understand nothing of
//importance. Tell me, Miss Felthorne, suppose a man were carrying a knife, and
//he tripped over a baby and stabbed himself. Would you say that the baby had,”
//Snape’s voice lowered, as though he were imitating some still deeper voice,
//“__THE POWER TO VANQUISH__ him?”
// hedrok: #пророцтво (028:5929)
-- Я зовсім не вмію розгадувати загадки, -- Снейп наче говорив сам до себе. -- Мені
всього лише раз загадали загадку, і я не зрозумів навіть найпростішої її частини,
доки не було надто пізно. Я навіть не зрозумів, що вона призначалася __мені__, доки
не було надто пізно. Я гадав, що випадково підслухав її, хоча насправді підслухали мене.
Тому я продав свою загадку іншому, і саме тоді руйнування мого життя перетнуло
лінію неповернення.

Голос Снейпа звучав скоріше відсторонено, ніж сумно.

-- І навіть зараз я не розумію нічого важливого. Скажіть мені, міс Фелторн, припустімо
чоловік із ножем спіткнувся об дитину і вбив себе. Чи сказали б ви, що ця дитина, --
голос Снейпа став нижчим, наче він імітував чиїсь глибші інтонації, -- "`МОЖЕ ПЕРЕМОГТИ`"
його?

// 13431
//“Um… no?” she said hesitantly.
-- Е... ні?

// 13432
//“Then what __does__ it mean to have the power to vanquish someone?”
-- Тоді що це взагалі __означає__, змога перемогти когось?

// 13433
//Rianne considered the puzzle. (Wishing, not for the first time in her life,
//that she had chosen Ravenclaw and to perdition with her parents’ disapproval;
//but the Sorting Hat had never offered her Gryffindor.) “Well…” Rianne said. She
//was having trouble putting her thoughts into words. “It means you’ve got the
//__power__, but you don’t __have__ to do it. It means you could do it
//if you tried -”
Ріанне замислилася. (Вже не вперше за своє життя вона жалкувала, що не обрала Рейвенклов
і вічні муки батьківського несхвалення, але Сортувальний Капелюх не пропонував їй
Ґрифіндор.)

-- Що ж, -- Ріанне було складно добирати слова, -- Це означає, що ти __можеш__, але
не __зобовʼязаний__. Це означає, ти можеш це зробити, якщо спробуєш...

// 13434
//“Choice,” the Potions Master said in the same faraway voice, as though he
//wasn’t really talking to her at all. “There will be a choice. That is what the
//riddle seems to imply. And that choice is not a foregone conclusion to the
//chooser, for the riddle does not say, __will vanquish,__ but rather
//__the power to vanquish.__ How would a grown man mark a baby as his
//equal?”
-- Вибір, -- професор із настійок і далі говорив відсторонено, наче він говорив
не з нею. -- Буде вибір. Видається, саме про це і йдеться у загадці.
І цей вибір не вирішений наперед, адже в загадці не сказано __переможе__, а
__зможе перемогти__. Як доросла людина може позначити немовля як рівного собі?

// 13435
//“What?” said Rianne. She didn’t understand that at all.
-- Що? -- сказала Ріанне. Вона нічого не зрозуміла.

// 13436
//“__Marking__ a baby is simple. Any strong Dark curse would produce a
//lasting scar. But such may be done to any child. What mark would signify that a
//baby was your __equal?__”
-- __Позначити__ немовля просто. Усіляке сильне темне прокляття може створити
стійкий шрам. Але таке можна зробити з будь-якою дитиною. Але яка позначка буде
свідоцтвом того, що немовля твоя __рівня__?

// 13437
//She answered with the first thought that came to mind. “If you signed a
//betrothal contract, that would mean you’d be equals with them someday, when
//they grew up and you got married.”
Вона відповіла перше ліпше, що спало їй на думку.

-- Якщо ви підписуєте шлюбний контракт, то це означає, що одного дня ви станете
рівними, коли дитина виросте і ви одружитесь.

// 13438
//“That…” said Snape. “That’s probably not it, Miss Felthorne, but thank you for
//trying.” The long delicate fingers, honed by stirring potions to unimaginably
//fine tolerances, reached up and rubbed at the temples of the man’s forehead.
//“It is enough to drive me to madness, so much hinging on such fragile words.
//Power he knows not… it __must__ be more than some unknown spell. Not
//something __he__ could acquire simply by practice and study. Some innate
//talent? No one can learn to be a Metamorphmagus… and yet that hardly seems like
//a power he __knows not__. Nor can I see how __either__ could destroy
//all but a remnant of the other; I can see it in one direction, but not the
//reverse…” The Potions Master sighed. “And none of this means anything to you,
//does it, Miss Felthorne? The words are nothing. The words are shadows. It is
//her __intonation__ which carries the meaning and that is something I’ve
//never been able to…”
-- Це... -- сказав Снейп, -- гадаю, це не зовсім те, міс Фелторн, але дякую
за спробу.

Чоловік потер свої скроні довгими, тонкими пальцями, рухи яких були відточені
помішуванням зіль з невимовною точністю.

-- Цього достатньо, щоб звести мене з розуму. Стільки всього залежить від таких
крихких слів. Силою, невідомою йому... це __має__ бути щось більше, ніж просто
якесь невідоме закляття. Щось, чого __він__ не міг би надбати самим навчанням і
практикою. Якийсь вроджений талант? Ніхто не може навчитися бути метаморфомагом...
 Але це не схоже на силу __невідому йому__. До того ж, не розумію, як __кожний__
може знищити все, крім залишку іншого. Я можу зрозуміти це в одному напрямку, але
не в протилежному... -- професор із настійок позіхнув. -- І нічого з цього не має
жодного сенсу для вас, чи не так, міс Фелторн? Слова -- це ніщо. Слова -- лише тіні.
Зміст у її __інтонаціях__, але я ніколи не був спроможний...

// 13439
//The Potions Master trailed off, while Rianne stared at him.
Професор із настійок поступово змовк, а Ріанне продовжувала дивитися на нього.

// 13440
//“A __prophecy?__” Rianne said in a high squeak. “You heard a
//__prophecy?__” She’d taken Divination for a couple of months before
//dropping it in disgust, and she knew that much about how it worked.
-- __Пророцтво?__ -- вереснула Ріанне. -- Ви почули __пророцтво__?

Вона кілька місяців ходила на віщування, доки з огидою не закинула уроки,
але вона достатньо дізналася про те, як воно працює.

// 13441
//“I will try one last thing,” said Snape. “Something I have not tried before.
//Miss Felthorne, listen to the __sound__ of my voice, the __way__ I
//say it__,__ not the words themselves, and tell me what you think it means.
//Can you do that? Good,” said Snape, as she nodded obediently, though she wasn’t
//sure at all what she was supposed to do.
-- Я спробую ще одну річ, дещо, чого раніше не робив. Міс Фелторн, слухайте __звук__
мого голосу, те, __як__ я говорю, а не самі слова, і скажіть, що, на вашу думку,
вони значать. Зможете? Добре, -- сказав Снейп, коли вона слухняно кивнула, хоча й
не була впевнена, що розуміє, чого від неї потребують.

// 13442
//And Severus Snape drew a breath, and intoned, “__FOR THOSE TWO DIFFERENT
//SPELLETS CANNOT EXIST IN THE SAME VULD.__”
Северус Снейп глибоко вдихнув і промовив:

-- __БО РАЗОМ ЦІ ДВА РІЗНИХ ДМУХИ НЕ МОЖУТЬ ІСНУВАТИ В ОДНОМУ СИТІ.__

// 13443
//It sent shivers down her spine, all the worse for knowing the hollow words had
//been spoken in imitation of a true prophecy. Unnerved, she blurted out the
//first thing which came to mind, which might have been influenced by her present
//company. “Those two different ingredients cannot exist in the same cauldron?”
Мурахи пробігли її спиною, підсилені знанням того, що ці вимовлені загробним
тоном слова імітували
справжнє пророцтво. Схвильована, вона викинула перше, що прийшло їй у голову.
Можливо, на неї вплинуло те, хто саме складав їй компанію.

-- Ці два різні інгредієнти не можуть існувати в одному казанку?

// 13444
//“But why__ not__, Miss Felthorne? What is the __meaning__ of a
//statement like that? What are we really being told?”
-- Але чому __ні__, міс Фелторн? Який __зміст__ такого твердження? Що нам
насправді кажуть?

// 13445
//“Ah…” she hazarded. “If the two ingredients mix, they’ll catch fire and burn
//the cauldron?”
-- Ах... -- вона ризикнула, -- якщо два інгредієнти змішаються, вони загоряться і
спалять казанок?

// 13446
//Snape’s face did not change expression in the slightest.
Обличчя Снейпа не змінило свого виразу.

// 13447
//“Perhaps,” Snape finally said, after they’d sat on the sofa in awful silence
//for what seemed like minutes. “It would explain the word __must__. Thank
//you, Miss Felthorne. Once again you have been most helpful.”
// пророцтво: І КОЖНИЙ МУСИТЬ ЗНИЩИТИ ВСЕ, КРІМ ЗАЛИШКУ ІНШОГО
// пророцтво: AND EITHER MUST DESTROY ALL BUT A REMNANT OF THE OTHER
-- Можливо, -- нарешті сказав Снейп, після того, як вони просиділи на дивані у
повній тиші, здавалося, кілька хвилин. -- Це пояснило б слово
__мусить__. Дякую, міс Фелторн, ви знову мені допомогли.

// 13448
//“I -” she said, “I was glad to -” and the words stuck in her throat. The
//Potions Master had thanked her with a tone of finality, and she knew that the
//time of the Rianne Felthorne who remembered these moments was drawing to an
//end. “I wish I didn’t have to forget this, Professor Snape!”
-- Я... Я була рада... -- слова застрягли їй у горлі. Професор із настійок
подякував їй із завершувальним тоном у голосі, і вона знала, що час Ріанне Фелторн,
яка памʼятає ці моменти, закінчується. -- Якби ж я не мала цього забувати, професоре
Снейп!

// 13449
//“I wish,” Severus Snape said in a whisper so low she could hardly hear it,
//“that everything had been different…”
-- Якби ж, -- Северус Снейп сказав так тихо, що вона ледве його почула, -- все було інакше...

// 13450
//The Potions Master stood up from the sofa, the weight of his presence vanishing
//from beside her. He turned and drew his wand from his robes, pointing it at
//her.
Професор із настійок встав з дивану, і вона перестала відчувати його вагу поряд із собою.
Він повернувся, дістав із мантії паличку і націлив її на неї.

// 13451
//“Wait -” she said. “Before that -”
-- Зачекайте... -- сказала вона. -- Спершу...

// 13452
//Somehow it was unbelievably hard to take the first step from fantasy to
//reality, from imagining to doing. Even if it was only one step and would never
//go any further. The gap stretched like the distance between two mountains.
Чомусь це було невимовно важко, зробити перший крок від фантазії до реальності,
від того, щоб уявляти, до того, щоб робити. Навіть якщо це всього лише один крок,
і він нікуди не поведе далі. Різниця була великою, наче відстань між двома горами.

// 13453
//The Sorting Hat had never offered her Gryffindor…
Сортувальний Капелюх не пропонував був їй Ґрифіндор.

// 13454
//…was it fair that thus a woman’s life be judged?
...чи було це справедливо, що тим судиться життя жінки?

// 13455
//__If you can’t ____say it now, when you won’t even remember it
//afterward - when nothing will continue from this moment, just as if you were to
//die - then when will you ever say it, to anyone?__
__Якщо ти не здатна сказати цього зараз, коли ти про це потім навіть не згадаєш,
коли нічого не продовжиться з цього моменту, наче ти от-от помреш... То коли
ти зможеш це сказати, хоч комусь?__

// 13456
//“Can I have a kiss first?” said Rianne Felthorne.
-- Чи можу я спершу отримати поцілунок?

// 13457
//Snape’s black eyes studied her so intensely that her blush started to reach all
//the way to her chest, and she wondered if he knew perfectly well that she was
//still being weak, and it wasn’t a kiss she’d truly wanted.
Чорні очі Снейпа вивчали її так інтенсивно, що її румʼянець дістався аж грудей.
Вона думала, чи знає він, що вона все одно виявила слабкість, і насправді хотіла не
поцілунку.

// 13458
//“Why not,” the Potions Master said quietly, and he leaned his head down over
//the sofa and kissed her.
-- Чому ні, -- тихо сказав професор із настійок. Він нахилив голову над диваном
і поцілував її.

// 13459
//It was nothing like she’d imagined. In her fantasies Snape’s kisses were
//fierce, seized from her, but this was - it was just __awkward,__ actually.
//Snape’s lips pressed down too hard on hers, forcing them back against her
//teeth, and the angle wasn’t right and their noses were sort of bending and his
//lips were too __tight__ and -
Це зовсім не було схоже на її фантазії. В них його поцілунки були невтримні,
наче відібрані в неї, а це було... це було __незграбно__. Губи Снейпа надто тиснули
й вдавлювали її губи в зуби, і кут був неправильний, і їхні носи наче згиналися, і
його губи були надто __тугими__ і...

// 13460
//Only as the Potions Master straightened back up again, raising his wand once
//more, did she realize.
Тільки коли професор із настійок знову випрямився і націлив на неї паличку, вона
зрозуміла.

// 13461
//“That wasn’t -” she said in a wondering voice, looking up at him. “That wasn’t
//- was it - your __first__ -”
-- Це ж не був... -- здивовано спитала вона, дивлячись на нього знизу, -- це не був...
чи це був... ваш __перший...__

// 13462
//Rianne Felthorne blinked at the stone cavern she’d discovered, still holding
//the extraordinary ruby she’d found embedded in the dirt of one corner. It was
//an incredible windfall, and she didn’t know why looking at the ruby made her
//feel so sad, like she’d forgotten something, something that had been precious
//to her.
Ріанне Фелторн роздивлялася камʼяний льох, стискаючи у руці екстраординарний рубін, що
вона знайшла його вкопаним у бруд у кутку. Це була неабияка удача, і вона не розуміла,
чому від погляду на рубін їй ставало так сумно. Наче вона забула щось, щось, що було
цінним для неї.
