// 15925
//== Time Pressure, Pt 1
== Розділ 88. Тиск часу, ч.1

// 15926
//April 16th, 1992.
16 квітня 1992.

// 15927
//12:07pm.
12:07.

// 15928
//Lunchtime.
Обід.

// 15929
//Harry stomped over to the mostly-deserted Gryffindor table, determining at a
//glance that lunch today was breen and Roopo balls. The ambient conversation,
//Harry could likewise hear, was Quidditch-related; an auditory environment which
//rated somewhat worse than the sound of rusty chainsaws, but better than what
//the Ravenclaw table was still __blithering__ about Hermione. Gryffindor
//House, at least, had started out less sympathetic to Draco Malfoy and had more
//political incentive to wish that everyone would just forget certain unfortunate
//facts; and if that wasn’t the right reason for silence, it was at least
//silence. Dean and Seamus and Lavender were all gone for the holidays, but at
//least that left…
Гаррі причалапав до майже безлюдного ґрифіндорського столу, одним поглядом
визначив, що сьогодні на обід брин та таріль кульок рупу. Фоновий гомін розмови,
як чув Гаррі, був повʼязаний з квідичем; для вух таке середовище було трохи
гіршим за звук пиляння іржавими пилами, та ліпшим, ніж звуки маячні про Герміону,
що досі лунали за рейвенкловським столом. Ґрифіндор, принаймні, початково менше
симпатизував Драко Мелфою та мав більше політичної схильності хотіти, щоб усі
просто забули про певні неприємні факти; і хай це була неправильна причина для
мовчання, але це хоча б було мовчання. Дін, Шеймус та Лаванда поїхали на
канікули, але залишилися...

// 15930
//“What was all that ruckus at the Head Table?” Harry said to the Weasley-twin
//group-mind, as he began to serve himself his own plate. “It looked like it was
//just ending as I walked in.”
-- Що там за гармидер за Високим столом? -- спитав Гаррі в групового розуму
близнюків Візлі та почав накладати їжу собі на тарілку. -- Видається, все саме
скінчилося, коли я зайшов.

// 15931
//“Our beloved, but clumsy Professor Trelawney -”
-- Наша люба, та дещо незграбна професорка Трелоні...

// 15932
//“Seems to have gone and dropped an entire soup tureen on herself -”
-- Видається, взяла й вилила на себе цілу супницю...

// 15933
//“Not to mention Mr. Hagrid.”
-- Про містера Геґріда ми й не згадуватимемо.

// 15934
//A quick glance at the Head Table confirmed that the Divination Professor was
//waving her wand frantically as the half-Giant dabbed at his clothes. Nobody
//else seemed to be paying much attention, even Professor McGonagall. Professor
//Flitwick was standing on his chair as usual, the Headmaster seemed to be absent
//again (he’d been gone most days of the holiday), Professors Sprout and Sinistra
//and Vector were eating in their usual grouping, and -
Гаррі швидким поглядом пересвідчився, що за Високим столом професорка віщування
несамовито махала паличкою, а напіввелетень стукав по своєму одягу. Решта
викладацького складу на це не зважали -- навіть професорка Макґонеґел. Професор
Флитвік, як завжди, стояв на стільці, директора знову не було (на вихідних він
переважно був відсутнім), професорки Спраут, Сіністра та Вектор їли звично разом,
а...

// 15935
//“You know,” Harry said, as he turned his head away to stare at the ceiling
//illusion of a clear blue sky, “that still creeps me out sometimes.”
-- Знаєте, -- сказав Гаррі, закинувши голову назад, втупившись у ілюзію ясного
блакитного неба на стелі, -- подеколи мені й досі від цього моторошно.

// 15936
//“What does?” said Fred or George.
-- Від чого? -- спитав Фред чи Джордж.

// 15937
//The powerful and enigmatic Defense Professor was ‘resting’ or
//whatever-the-heck-was-wrong-with-him, his hands making fumbling, hesitant grabs
//at a chicken-leg that seemed to be eluding him on the plate.
Могутній таємничий професор із захисту "`відпочивав`" чи
хай-там-що-в-дідька-з-ним-було-не-так, його руки шарили столом, непевно хапали
курячу ногу, що ніби тікала від нього в тарілку.

// 15938
//“Eh, nothing,” said Harry. “I’m not quite used to Hogwarts, yet.”
-- Е, пусте, -- сказав Гаррі. -- Просто ще не звикнув до Гоґвортсу.

// 15939
//Harry continued to eat in moderate silence, as various Weasleys discussed some
//bizarre mind-affecting substance called Chudley Cannons.
Далі Гаррі їв переважно мовчки, доки різноманітні Візлі обговорювали якусь
химерну психотропну речовину під назвою "`Гармати з Чадлі`".

// 15940
//“What sort of deep mysterious thoughts are you thinking?” said a young-looking
//witch with short hair, sitting nearby. “I mean, just curious. I’m Brienne, by
//the way.” She was gazing at him with one of those looks which Harry had firmly
//decided to just ignore until he was older.
-- Які глибокі незбагненні думки рояться у твоїй голові? -- спитала юна відьма з
короткою стрижкою, що сиділа поряд. -- Мені просто цікаво. До речі, мене звати
Бріен.

Вона дивилася на нього одним з тих поглядів, які він твердо вирішив просто
ігнорувати, доки не подорослішає.

// 15941
//“So,” Harry said, “you know those really simple Artificial Intelligence
//programs like ELIZA that are programmed to use words in syntactic English
//sentences only they don’t contain any understanding of what the words mean?”
-- Ну, -- сказав Гаррі, -- знаєш про такі зовсім прості програми штучного
інтелекту на кшталт ELIZA, що використовують слова звичайної мови, щоб
генерувати речення, хоча вони й гадки не мають, що ці слова означають?

// 15942
//“Of course,” the witch said. “I have a dozen of them in my trunk.”
-- Ну звісно, -- відповіла відьма. -- У мене з десяток таких у валізі.

// 15943
//“Well, I’m pretty sure my understanding of girls is somewhere around that
//level.”
-- Так ось, я вже майже не сумніваюся, що в мене приблизно такий рівень
розуміння дівчат.

// 15944
//A sudden hush fell.
Раптом в залі запала тиша.

// 15945
//It took a few seconds for Harry to realize that, no, the entire Great Hall
//wasn’t staring at __him,__ and then Harry twisted his head around to look.
Лише за кілька секунд Гаррі збагнув, що ні, уся Велика зала витріщалася __не на
нього__, тоді Гаррі крутнув головою, щоб і самому подивитися, що спричинило
мовчанку.

// 15946
//The figure who’d just staggered into the Great Hall appeared to be Mr. Filch,
//Hogwarts’s token hallway monitor; who, along with his predatory cat Mrs.
//Norris, constituted a low-level random encounter whom Harry often breezed past
//wearing his epic-level Deathly Hallow. (Harry had once consulted the Weasley
//twins about pulling some sort of prank on this deserving target, whereupon Fred
//or George had quietly pointed out that Mr. Filch was never seen to use a wand,
//which was odd, really, considering how many spells would be useful in that
//position, and it made you wonder why Dumbledore had given the man a position at
//Hogwarts, and Harry had shut up.)
У Велику залу щойно, похитуючись, зайшов містер Філч -- символічний наглядач за
порядком Гоґвортсу. Він разом зі своєю хижою кицькою місіс Норіс становив
низькорівневу перешкоду, яку Гаррі часто легко обходив за допомогою смертельної
реліквії епічного рівня. (Якось Гаррі запропонував був близнюками Візлі утнути
якусь витівку на цій безсумнівно гідній цілі, та тоді Фред чи Джордж тихо
зазначив, що ніхто ніколи не бачив, щоб містер Філч користувався паличкою, що
було доволі дивно, враховуючи, скільки заклять були б корисними при його посаді,
і це призводило до думок, а чому Дамблдор призначив його на цю посаду, а тоді
Гаррі замовкнув.)

// 15947
//Right now Mr. Filch’s brown clothing was disarrayed and soaked with sweat, his
//shoulders were visibly heaving as he breathed, and his everpresent cat was
//missing.
Зараз брунатний одяг містера Філча був просякнутий потом, розхристаний, було
видно, як здіймалися його плечі від дихання, а його завжди присутньої поряд
кицьки бракувало.

// 15948
//“Troll -” gasped Mr. Filch. “In the dungeons -”
// hedrok: канон, тільки у нас це містер Філч, і ми перекладаємо "dungeons" як
//         "підземелля", а не "підвал".
-- Троль... -- насилу зводячи дух вимовив містер Філч. -- У підземеллях...

***

// 15949
//Minerva McGonagall stood up from the Head Table so quickly that her chair fell
//to the ground behind her.
За Високим столом Мінерва Макґонеґел так рвучко підвелася, що аж стілець за нею
впав.

// 15950
//“__Argus!__” she cried. “What happened to you?”
-- __Арґусе!__ -- скрикнула вона. -- Що з тобою сталося?

// 15951
//Argus Filch staggered forward from the huge doors, his upper body streaked and
//dotted with small crimson dots as though someone had spattered steak sauce over
//his face. “Troll - grey - twice as tall as me - it - it -” Argus Filch covered
//his face with his hands. “It ate Mrs. Norris - ate her all up, in just one bite
//-”
Арґус Філч непевно зробив крок від величезних дверей, верхню частину його тіла
вкривали дрібні червоні плями, ніби хтось забризкав його обличчя підливою з
біфштексу.

-- Троль... сірий... вдвічі вищий за мене... він... він... -- Арґус Філч закрив
обличчя руками. -- Він зʼїв місіс Норіс -- зʼїв її усю в один ковток...

// 15952
//Minerva felt a stab of dismay in her other self, she hadn’t liked the other cat
//very much but the two of them had still been felines.
Інше "`я`" Мінерви відчуло різке занепокоєння -- хоч вона ніколи й не полюбляла іншу
кицьку, та все ж таки обидві вони були котячі.

// 15953
//An uproar started from the Great Hall. Severus stood up from the Head Table,
//somehow doing so without drawing any visible attention to himself, and strode
//out the huge doors without another word.
У Великій залі здійнявся галас. Северус підвівся з-за Високого стола, якимось
чином йому вдалося, наскільки вона побачила, не привернути до себе уваги, і
вийшов крізь величезні двері без жодного слова.

// 15954
//__Of course,__ Minerva thought, __the third-floor corridor - this
//could be a distraction -__
"`Ну звісно, -- подумала Мінерва, -- коридор на четвертому поверсі. Можливо,
троль лише для відвертання уваги...`"

// 15955
//She mentally consigned all such matters to Severus’s care, drew her wand,
//raised it high, and let out five sharp cracks of purple fire.
Вона подумки доручила всі такі справи Северусові, витягла паличку, високо її
підняла й випустила пʼять різких спалахів пурпурового полумʼя.

// 15956
//There was stunned silence but for Argus’s broken sobs.
Окрім спорадичних схлипувань Арґуса все стихло.

// 15957
//“It seems we have a dangerous creature loose in Hogwarts,” she said to the
//faculty at the Head Table. “I will ask you all to aid in searching the halls.”
//Then she turned to the stunned and watching students, and raised her voice.
//__“Prefects - lead your houses back to the dormitories immediately!”__
// hedrok: Останнє речення - копія канону.
// hedrok: @Eliezer houses треба з великої
-- Видається, в Гоґвортсі випустили небезпечне створіння, -- сказала вона
викладацькому складу. -- Я попрошу вас допомогти з пошуками в коридорах, -- вона
повернулася до приголомшених учнів та підвищила голос. -- __Старости, негайно
відведіть своїх учнів до спалень!__

// 15958
//Percy Weasley leaped up from the Gryffindor table. “Follow me!” he said in a
//high voice. “Stick together, first-years! No, not __you__ -” but by that
//time the other prefects were raising their own voices as a renewed babble
//sprang up.
Персі підстрибнув з-за ґрифіндорського стола.

// hedrok: перші дві репліки з канону.
-- За мною! -- високим голосом вигукнув він. -- Першокласники, тримайтеся купи!
Та ні, не __ви__...

Тоді решта старост підвелися і почали щось вигукувати, коли відновився шум
голосів.

// 15959
//Then a clear, cool voice spoke under the sudden rush of sound.
А тоді поверх цього шуму вона почула ясний холодний голос.

// 15960
//“Deputy Headmistress.”
-- Заступнице директора.

// 15961
//She turned.
Вона обернулася.

// 15962
//The Defense Professor was calmly wiping off his hands on a napkin as he stood
//up from the Head Table. “With respect,” said the man of unknown identity, “you
//are not expert in battle tactics, madam. In this situation, it would be wiser
//to -”
Професор із захисту спокійнісінько витирав руки серветкою, він уже стояв поряд з
Високим столом.

-- З усією повагою, -- сказала ця невідома особистість, -- ви не експерт у
тактиці бою, мадам. За цих умов розумніше буде...

// 15963
//“I do apologize, Professor,” said Professor McGonagall, as she turned toward
//the great doors. Filius and Pomona had already risen to follow her, with Rubeus
//Hagrid towering over all of them as the half-giant stood up. She’d been through
//similar experiences too many times, at this point. “Sad experience has taught
//me that on occasions such as these, it is not a good time to take any advice
//the current Defense Professor may offer. Indeed, I think it wise that the two
//of us search for the troll together, so that no suspicions may be cast upon you
//for any untoward events which occur during that time.”
-- Перепрошую, професоре, -- сказала професорка Макґонеґел та почала рух до
основного входу. Філіус з Поморою вже підвелися, щоб піти за нею, а Рубеус
Геґрід здійнявся над ними усіма, коли напіввелетень підвівся. Забагато вже разів
вона була в подібних ситуаціях. -- Сумний досвід навчив мене, що в таких
випадках не найкраща думка дослухатися до будь-яких порад від поточного
професора із захисту. Насправді я вважаю, що нам удвох варто шукати троля разом,
щоб на вас не пало жодних підозр, хай якими будуть подальші події.

// 15964
//Without any hesitation, the Defense Professor swung smoothly on the Gryffindor
//table and clapped his hands with a sound like a floor cracking through.
Без жодних вагань професор із захисту плавним рухом застрибнув на ґрифіндорський
стіл та сплеснув руками, що прозвучало так, ніби підлога луснула.

// 15965
//“Michelle Morgan of House Gryffindor, second in command of Pinnini’s Army,” the
//Defense Professor said calmly into the resulting quiet. “Please advise your
//Head of House.”
-- Мішель Морґан з Грифіндору, заступниця генерала війська Пініні, -- спокійно
сказав професор із захисту в спричиненій ним тиші. -- Будь ласка, дайте пораду
виховательці свого гуртожитку.

// 15966
//Michelle Morgan climbed up onto her bench and spoke, the tiny witch sounding
//far more confident than Minerva remembered her being at the start of the year.
//“Students walking through the hallways would be spread out and impossible to
//defend. All students are to remain in the Great Hall and form a cluster in the
//center… __not__ surrounded by tables, a troll would jump right over
//tables… with the perimeter defended by seventh-year students. From the armies
//only, no matter how good they are at __duelling,__ so they don’t get in
//each other’s lines of fire.” Michelle hesitated. “I’m sorry, Mr. Hagrid, but -
//it wouldn’t be safe for you, you should stay behind with the students. And
//Professor Trelawney shouldn’t confront a troll on her own either,” Michelle
//sounded much less apologetic about this part, “but if she’s paired with
//Professor Quirrell the two of them together can form an additional trusted and
//effective battle unit. That concludes my analysis, Professor.”
Мішель Морґан забралася на лаву перед тим, як заговорити. Крихітна відьма
розмовляла значно впевненіше, ніж на початку року, наскільки памʼятала Мінерва.

-- Учнів, що розпорошені коридором, буде неможливо захищати. Всім учням варто
лишитися у Великій залі та утворити скупчення в центрі... __не__ за столами, бо
троль просто перестрибне їх... периметр мають боронити семикласники. Лише з
військ, незважаючи на те, які вони чудові __дуелянти__, щоб вони не влучали одне
в одного, -- Мішель завагалася. -- Перепрошую, містере Геґрід, та... для вас це
буде небезпечно, тож вам варто лишитися з учнями. Професорка Трелоні також не
може протистояти тролеві самостійно, -- тут у голосі Мішель було значно менше
співчуття, -- та якщо вона буде з професором Квірелом, то вдвох вони будуть
додатковою довіреною та ефективною бойовою одиницею. Це весь мій аналіз,
професоре.

// 15967
//“Adequate, for being put on the spot,” the Defense Professor said. “Twenty
//Quirrell points to you. But you neglect the still simpler point that
//__home__ does not mean __safe,__ and a troll is strong enough to rip
//a portrait door off its hinges -”
-- Адекватно, враховуючи, що у вас не було часу на підготовку, -- сказав
професор Квірел. -- Двадцять балів Квірела. Та ви не врахували навіть простіший
аргумент: "`вдома`" ще не означає "`в безпеці`", і троль достатньо сильний, щоб
зірвати двері-портрет із завіс...

// 15968
//“Enough,” Minerva snapped. “Thank you, Miss Morgan.” She looked to the watching
//tables. “Students, you will do as she said.” Turned back to the Head Table.
//“Professor Trelawney, you will accompany the Defense Professor -”
-- Годі, -- кинула Мінерва. -- Дякую, міс Морґан.

Мінерва оглянула учнів, що уважно спостерігали за нею.

-- Учні, робіть, як вона сказала, -- тоді Мінерва знову звернулася до Високого
столу: -- професорко Трелоні, ви підете з професором із захисту...

// 15969
//“Ah,” Sybill said falteringly. Beneath her overdone makeup and mess of shawls,
//the woman looked rather pale. “I’m afraid - I’m not entirely well today -
//indeed, I feel rather faint -”
-- Ах, -- непевно сказала Сивіла. Під чисельними шарами косметики та мішаниною
шалей проступала блідість. -- Боюся... щось мені зле... насправді, я майже
непритомнію...

// 15970
//“You won’t have to fight the troll,” Minerva said sharply, her patience taxed
//as usual when dealing with the woman. “Just stay with the Defense Professor and
//do not let him out of your sight for an instant, you must be able to testify
//afterward that you were with him at all times__.__” She turned to Rubeus.
//“Rubeus, I am leaving you in charge here. Keep them safe.” The huge man
//straightened at this, losing his glum look and nodding proudly to her.
-- Тобі не доведеться битися з тролем, -- різко сказала Мінерва, як і завжди, з
цією жінкою їй швидко уривався терпець. -- Просто будь з професором із захисту
та не спускай з нього очей навіть на мить, пізніше ти маєш бути в змозі дати
свідчення, що була з ним весь час.

Вона повернулася до Рубеуса:

-- Рубеусе, залишаю тебе тут за головного. Бережи їх.

Величезний чоловік випростався від цих слів, похмурість покинула його, натомість
він гордо кивнув.

// 15971
//Then Minerva looked at the students, and raised her voice. “It should go
//entirely without saying that anyone leaving the Great Hall __for any
//reason,__ will be expelled. No excuses will be accepted. Am I understood?”
Тоді Мінерва поглянула на учнів та гучно сказала:

-- І так має бути зрозуміло, що коли хтось покине Велику залу __з будь-якої
причини__, його виключать. Я не прийму жодних виправдань. Це зрозуміло?

// 15972
//The Weasley twins, with whom she’d been making direct eye contact, nodded
//respectfully.
Близнюки Візлі, яким вона дивилася просто в очі, з повагою кивнули.

// 15973
//She turned without another word and marched off toward the hall doors with the
//other Professors behind her.
Вона розвернулася й без жодного зайвого слова покрокувала до дверей, решта
професорів йшли слідом.

// 15974
//On the far side of the room, unnoticed on the wall, a clock showed 12:14pm.
На далекій стіні кімнати непримітно висів годинник, що показував 12:14.

***

// 15975
//…and he still didn’t realize.
...а він так і не збагнув.

// 15976
//__Tick.__
__Цок.__

// 15977
//As Harry stared with narrowed eyes at where the Professors had gone out,
//wondering what was actually going on and what it meant, as the students came
//together into a more defensible mass and wands flicked to levitate the tables
//out of their way, Harry still didn’t realize.
Коли Гаррі примружено витріщався на двері, крізь які вийшли професори, і
розмірковував, що насправді відбувалося і що це означало, коли учні збилися в
більш оборонну масу, коли змахи паличок левітували столи з дороги, Гаррі досі не
збагнув.

// 15978
//__Tick.__
__Цок.__

// 15979
//“Shouldn’t the Professors __all __have formed up into pairs?” said an
//older Gryffindor student whose name Harry didn’t know. “I mean - it’d be
//slower, but it’d be safer, I think -”
-- Хіба не варто було __всім__ професорам утворити пари? -- спитав старший
ґрифіндорець, імені якого Гаррі не знав. -- Тобто... пошуки б сповільнилися, та
так було б безпечніше, гадаю.

// 15980
//__Tick.__
__Цок.__

// 15981
//Someone else replied to this, raising her voice, but Harry didn’t catch much of
//it, the gist was that mountain trolls were highly magic-resistant and
//incredibly strong and could regenerate but they were still __noisy__ so if
//you heard them coming, it shouldn’t be that hard for a Hogwarts Professor to
//wrap them up in Vadim’s Unbreakable something something.
Хтось інший відповів підвищеним голосом, та Гаррі мало з цього збагнув. Основна
думка полягала в тому, що хоч гірські тролі й були вкрай непіддатними магії,
неймовірно сильними і могли регенерувати, вони все одно були __шумними__, тож
легко було почути їхнє наближення, і професорам Гоґвортсу нескладно було
загорнути троля в незламне щось там Вадима.

// 15982
//__Tick.__
__Цок.__

// 15983
//And Harry still didn’t realize.
А Гаррі досі не збагнув.

// 15984
//__Tick.__
__Цок.__

// 15985
//The crowd noises were subdued, people were talking in low voices to each other
//while they glanced around, listening for the sound of a crashing door or an
//angry roar.
Гамір натовпу притих -- люди перемовлялися одне з одним тихими голосами й
роззиралися довкола, прислухалися в спробі почути злий рев чи як ламаються
двері.

// 15986
//__Tick.__
__Цок.__

// 15987
//Some students were speculating in whispers about what the Defense Professor
//could possibly be trying to achieve by smuggling in a troll, and whether he was
//angry that Professor McGonagall had caught on to his attempted distraction, and
//what it was a distraction __from.__
Деякі учні пошепки робили припущення, чого взагалі міг намагатися досягти
професор із захисту, привівши до школи троля, і чи він злився на професорку
Макґонеґел через те, що вона зрозуміла, що це була його спроба відвернути увагу,
і від __чого__ він намагався відвернути увагу.

// 15988
//__Tick.__
__Цок.__

// 15989
//And the thought still didn’t come to Harry, not until after all the students
//had formed a mass of perhaps a hundred bodies patrolled by proudly grim-looking
//seventh-year-students with their wands all pointed outward, and somebody
//suggested doing a headcount, and someone else replied sarcastically that this
//might have made sense on some other day, but right now practically everyone was
//gone for the spring holiday and nobody really knew how many students were
//supposed to be in the room, let alone if any were missing.
І Гаррі досі не спало це на думку, навіть коли всі учні збилися докупи з десь
сотні тіл, навколо яких вартували горді суворі семикласники, що направили
палички назовні, і хтось запропонував перерахувати всіх, а хтось інший
саркастично відповів, що пропозиція мала б сенс якогось іншого дня, та зараз
майже всі були на весняних канікулах, і ніхто не знав, скільки учнів мало бути в
кімнаті, не кажучи вже про те, хто саме був відсутній.

// 15990
//__Tick.__
__Цок.__

// 15991
//That was when Harry wondered where Hermione was.
Лише тоді Гаррі подумав, а де Герміона.

// 15992
//__Tick.__
__Цок.__

// 15993
//Harry looked over at where the Ravenclaws had clustered, he didn’t see Hermione
//but then everyone was packed tightly-enough together that you wouldn’t expect
//to see smaller students through the crowd, amid the upper-years.
Гаррі поглянув на угрупування рейвенкловців, і не побачив там Герміони, та всі
так тісно стояли, що складно було побачити менших учнів у натовпі серед
доросліших чарівників.

// 15994
//__Tick.__
__Цок.__

// 15995
//Harry then looked over at the Hufflepuffs to see if he could spot Neville, and
//even though Neville was standing behind a much taller student, Harry’s visual
//processing managed to spot him almost immediately. Hermione wasn’t with the
//Hufflepuffs either, not that Harry could see - and she certainly wouldn’t be
//with the Slytherins -
Тоді Гаррі поглянув на гафелпафців -- перевірити, чи зможе він швидко знайти
Невіла, і хоча Невіл стояв за значно вищим учнем, Гаррін алгоритм обробки
зображень майже миттєво його виявив. Наскільки бачив Гаррі, Герміони не було й
серед гафелпафців... І вже точно її б не було серед слизеринців...
// 15996
//__Tick.__
__Цок.__

// 15997
//Harry pushed his way through the packed crowd, stepping beside or around older
//students and in one case just ducking between their legs, until he was standing
//among the Ravenclaws and could definitely verify that, nope, no Hermione.
Гаррі проштовхувався крізь щільний натовп, обходив учнів то збоку, то навколо, а
одного разу навіть прошмигнув між ногами учня, доки не опинився поряд з
рейвенкловцями і міг впевнено сказати, що ні, Герміони там не було.

// 15998
//__Tick.__
__Цок.__

// 15999
//“Hermione Granger!” Harry said loudly. “Are you here?”
-- Герміоно Ґрейнджер! -- голосно сказав Гаррі. -- Ти тут є?

// 16000
//Nobody answered.
Відповіді не було.

// 16001
//__Tick.__
__Цок.__

// 16002
//Somewhere in the back of his mind was a rising sense of horror, as other parts
//of him tried to decide exactly how much to panic. The first Defense class of
//the year was rather fuzzy in Harry’s mind, but he distantly remembered
//something about trolls being able to track prey that was alone and undefended.
// hedrok: про 16:2387
Десь із закутків його розуму здійнявся жах, а решта його я старалися визначити,
наскільки сильно зараз панікувати. Гаррі доволі нечітко вже памʼятав перше
заняття із захисту, та пригадував щось про те, що тролі здатні вистежувати
самотню й незахищену здобич.

// 16003
//__Tick.__
__Цок.__

// 16004
//Another track of thought searched frantically through inchoate possibilities,
//what could he __do__ exactly? It wasn’t 3pm yet so he couldn’t reach this
//__now__ using his Time-Turner. Even if he could sneak out of the room -
//there had to be some way to put on his Cloak without being noticed, some sort
//of distraction he could use - he had no idea __where__ Hermione was, and
//Hogwarts was huge.
Інший потік його думок несамовито шукав серед його нерозвинених можливостей, а
що саме він може __вдіяти__? Ще не третя по обіді, тож він не здатен досягти
__теперішнього__ за допомогою часовороту. Навіть якщо йому вдасться
вислизнути з кімнати -- мав існувати спосіб непомітно одягти Плащ, чимось можна
було відволікти увагу -- він й гадки не мав, __де__ була Герміона, а Гоґвортс
був величезним.

// 16005
//__Tick.__
__Цок.__

// 16006
//Another part of his mind tried to model possibilities. From what that other
//student had said, trolls weren’t __silent__ predators, they were noisy -
Інша частина його розуму моделювала можливі розвитки подій. Судячи з того, що
сказав був інший учень, тролі не були __тихими__ хижаками, вони були шумними...

// 16007
//__Hermione won’t have any idea it’s a troll, so she’ll go investigate the
//noise. She’s a heroine, isn’t she?__
__Герміона й гадки не має, що це троль, тож вона піде на шум, щоб дізнатися, що
відбувається. Вона ж героїня, хіба ні?__

// 16008
//- but Hermione now had an invisibility cloak and a broomstick in her pouch.
//Harry had insisted on that part for both her and Neville, and Professor
//McGonagall had told him it’d been done. That ought to be enough to let Hermione
//get away, even if she was lousy on a broomstick. All she had to do was get onto
//a section of roof, it was a clear day and sunlight was supposed to be bad for
//trolls somehow, Harry remembered that part and therefore Hermione would
//remember it exactly. And surely, even if Hermione wanted to prove herself
//again, she couldn’t possibly be dumb enough to attack a mountain troll.
...але в Герміони тепер є плащ-неведимка й мітла в капшучку. Гаррі наполягав
був, щоб це було зроблено і для неї, і для Невіла, і професорка Макґонеґел
сказала йому, що їм надали ці предмети. Цього має бути достатньо, щоб Герміона
втекла, навіть враховуючи її невмілість на мітлі. Їй треба було лише вибратися
на дах, був ясний день, а сонячне проміння якось погано впливало на тролів.
Навіть Гаррі це памʼятав, отже Герміона памʼятатиме про це точно. І звісно ж,
хоч Герміона й хоче всім показати себе, вона не така дурепа, щоб атакувати
гірського троля.

// 16009
//__Tick.__
__Цок.__

// 16010
//She wouldn’t.
Вона ж не стане.

// 16011
//__Tick.__
__Цок.__

// 16012
//That just wasn’t __her.__
Вона зовсім __не така__.

// 16013
//__Tick.__
__Цок.__

// 16014
//And then it occured to Harry that somebody had previously tried to frame
//Hermione Granger for murder using Memory Charms. Had done so inside Hogwarts,
//without setting off any alarms. And had arranged for Draco to die slowly enough
//that it wouldn’t set off the wards until at least six hours later when nobody
//could use a Time-Turner to check. And that whoever was clever enough to
//infiltrate a troll past the ancient wards of Hogwarts without the Headmaster
//coming to investigate the strange creature, could be clever enough to
//__also__ take the obvious step of jinxing Hermione’s magic items…
А тоді Гаррі спало на думку, що нещодавно хтось підставив був Герміону Ґрейнджер за
допомогою чарів памʼяті. Зробив це посеред Гоґвортсу, не здійнявши жодної
тривоги. А також влаштував усе так, щоб Драко помирав достатньо повільно, щоб не
зреагували жодні захисні чари, принаймні за шість годин до того, як буде
знайдено тіло, щоб ніхто не міг використати часоворот. І хай хто був достатньо
розумним, щоб дати пройти тролю крізь древні захисні чари Гоґвортсу так, щоб
директор не прийшов подивитися на дивне створіння, міг бути достатньо розумним,
щоб __також__ здійснити очевидний хід: проклясти магічні пристрої Герміони...

// 16015
//__Tick.__
__Цок.__

// 16016
//There was a part of him that felt something like slowly rising panic as
//perspective shifted, a Necker Cube changing orientation, what the __hell__
//had Harry been thinking, letting Hermione and Neville be kept inside Hogwarts
//just because of them being given a few stupid trinkets, that wasn’t going to
//stop anyone who wanted to __kill them__.
Перспектива тієї частини Гаррі, що повільно здіймала паніку, зсунулася, куб
Некера повернувся. Про що __в біса__ думав Гаррі -- дозволяти Герміоні й
Невілові лишатися в Гоґвортсі лише через те, що їм надали кілька дурних іграшок,
це не зупинить нікого, якщо вони намагатимуться __вбити їх__.

// 16017
//__Tick.__
__Цок.__

// 16018
//Another part of his mind put up resistance, that possibility wasn’t
//__certain__, it was complex and the probability could easily be under 50//.
//It was easy to imagine going into a huge panic in front of everyone and then
//Hermione getting back from the washrooms outside the Great Hall. Or if the
//troll ended up not going anywhere near her… like in the story of the boy who
//cried wolf, nobody would believe him the next time if she really was in
//trouble; it could use up reputational credit that he would later need for
//something else…
Інша частина його розуму почала чинити опір: ця можливість не була __певною__.
Вона була складною, і ймовірність цілком могла бути нижчою за 50%. Легко уявити,
як він перед усіма панікує, а потім Герміона просто повертається з вбиральні до
Великої зали. Або просто троль взагалі не підійде до неї... як в історії про
хлопчика, що кричав "`вовк`", ніхто не повірить йому наступного разу, якщо вона
й справді втрапить у біду. Це змарнує частину довіри, яка може йому пізніше
стати в нагоді для чогось іншого...

// 16019
//__Tick.__
__Цок.__

// 16020
//Harry recognized an instance of the fear-of-embarrassment schema that stopped
//most people from ever doing anything under conditions of uncertainty, and
//squashed it down hard. Even then it was strange how much willpower it took to
//muster the decision to shout out loud in front of everyone, if he just hadn’t
//seen Hermione in the crowd it was going to be embarrassing…
Гаррі розпізнав схему страх-осоромитися, через що більшість людей нічого не
робили за умов непевності, і жорстоко розчавив цей хід думок. Навіть тоді було
дивовижно, скільки волі довелося зібрати в кулак, щоб крикнути перед усіма, --
якщо він просто не помітив Герміону в натовпі, вийде дуже ніяково...

// 16021
//__Tick.__
__Цок.__

// 16022
//Harry drew in a deep breath and shouted as loudly as he could,
//__“Hermione Granger! Are you here?”__
Гаррі глибоко вдихнув і на повні легені заволав:

-- __Герміоно Ґрейнджер! Ти тут є?__

// 16023
//The students all turned to look at him. Then some of them turned around to look
//around themselves. The noise around the room went down in volume as some
//conversations stilled.
Учні обернулися до нього. Тоді дехто почав роззиратися довкола. Шум у кімнаті
притихнув, адже частина розмов спинилася.

// 16024
//__“Has anyone seen Hermione Granger since - __since around ten-thirty
//today or so? __Does anyone have any idea where she might be?”__
-- __Чи бачив хтось Герміону Ґрейнджер після...__ приблизно пів на десяту? __Чи
має хтось бодай якесь уявлення, де вона може бути?__

// 16025
//The background babble stilled further.
Теревені на фоні майже спинилися.

// 16026
//Nobody raised their voice to shout anything at him, in particular not,
//__Don’t worry, Harry, I’m right here.__
Ніхто не здійняв руку, ніхто нічого йому не сказав, зокрема він не почув "`не
хвилюйся, Гаррі, я ж тут`".

// 16027
//“Oh, Merlin,” somebody said from nearby, and then the background babble started
//up again, taking on a new and excited tone.
-- О, Мерліне, -- сказав хтось поряд, і тоді балачки почали відновлятися, тепер
вже з новою ноткою збудження.

// 16028
//Harry stared down at his hands, shutting out the yammering and tried to think,
//think, __THINK -__
Гаррі втупився в свої руки, ігнорував голосні розмови навколо, і намагався
думати, думати, __ДУМАТИ__...

// 16029
//__Tick.__
__Цок.__

// 16030
//__Tick.__
__Цок.__

// 16031
//__Tick.__
__Цок.__

// 16032
//Susan Bones and a redheaded boy with a battered-looking wand both shoved their
//way through the crowd to Harry at the same time.
Сьюзен Боунз з рудим хлопцем, що мав паличку, яка ніби пережила не одну війну,
водночас проштовхувалися крізь юрбу до Гаррі.

// 16033
//“We’ve got to let the Professors know somehow -”
-- Треба якось повідомити професорів...

// 16034
//“We’ve got to go find her -”
-- Треба знайти її...

// 16035
//__“Find her?”__ Susan snapped, rounding on the other boy. “How’ll we do
//__that__, Captain Weasley?”
-- __Знайти її?__ -- накинулася Сьюзен на хлопця. -- Як же це __зробити__,
капітане Візлі?

// 16036
//“We’ll go off and __look__ for her!” Ron Weasley snapped back.
-- Ми підемо __шукати__ її! -- огризнувся Рон Візлі.

// 16037
//“Are you nuts? There’s already Professors searching the hallways, what makes
//you think we’ve got any better chance than them of running across General
//Granger? Only __we’ll__ get eaten by the troll! And then expelled!”
-- Шизонувся? Професори вже обшукують коридори, з чого ти взяв, що в тебе більше
шансів натрапити на генерала Ґрейнджер? Тільки от __нас__ троль зʼїсть! А потім
нас виключать!

// 16038
//It was odd, how sometimes hearing bad ideas made the right idea obvious by
//contrast.
Дивно, як подеколи достатньо лише почути погані ідеї, щоб на контрасті правильна
ідея стала очевидною.

// 16039
//“__All right everyone! Listen up!__”
-- __Гаразд, усі! Слухайте!__

// 16040
//People turned to look.
Люди озирнулися.

// 16041
//“__QUIET! EVERYONE! SHUT UP!__”
-- __ТИХО! УСІ! ЗАЦІПТЕСЯ!__

// 16042
//Harry’s throat ached after that, but he had everyone’s attention.
Після цього горлянка Гаррі боліла, проте він нарешті привернув увагу всіх.

// 16043
//“I have a broomstick,” Harry said as loudly as he could manage with his throat
//still hurting. He’d remembered Azkaban, and the broomstick which had only sat
//two, when he’d requested one that could carry three. “It’s a 3-seater. I need
//one seventh-year from the armies to come with me. We’re going to fly through
//the hallways as fast as possible looking for Hermione Granger, pick her up, and
//come back immediately. Who’s with me?”
-- У мене є мітла, -- сказав Гаррі якомога гучніше, хоч у нього досі боліло
горло. Він памʼятав був Азкабан і мітлу, що могла переносити лише двох, тому
попросив був тримісну мітлу. -- Це мітла для трьох. Мені треба, щоб зі мною
пішов один семикласник з військ. Ми полетимо коридорами якомога швидше в пошуках
Герміони Ґрейнджер, підберемо її та негайно повернемося. Хто зі мною?

// 16044
//The Great Hall became entirely silent, then.
От тоді у Великій залі запала цілковита тиша.

***

// 16045
//Students glanced at each other uneasily. The younger students looked
//expectantly at the older students, while they in turn turned to look at the
//students who were guarding the perimeter. Most of those were staring straight
//ahead, pointing their wands just in case the troll picked that moment to burst
//through a wall.
Учні скоса поглядали одне на одного. Наймолодші з очікуванням дивилися на
старших, ті дивилися на учнів, що охороняли периметр, а ті переважно втупилися
прямо перед собою, куди й палички направили, на випадок, якщо троль саме зараз
прорветься крізь стіну.

// 16046
//No one moved.
Не було жодного поруху.

// 16047
//No one spoke.
Не прозвучало жодного слова.

// 16048
//Harry Potter spoke again. “We’re not going to __fight__ the troll. If we
//see it we’ll just fly away and there’s no way it’ll be able to keep up with us
//on a broomstick. I’ll take responsibility for squaring it with the
//administration. __Please.__”
Гаррі Поттер заговорив знову.

-- Ми не будемо __битися__ з тролем. Якщо ми його побачимо, ми просто відлетімо
геть, і він аж ніяк не зможе впіймати нас на мітлі. Я візьму на себе
відповідальність за улагодження всього з адміністрацією. __Будь ласка.__

// 16049
//People went on looking at other people.
Люди й далі дивилися на інших людей.

***

// 16050
//Harry stared at the silent crowd, the dozen seventh-years looking sternly
//outward, feeling the coldness coming over him. Somewhere in the back of his
//mind, Professor Quirrell was laughing scornfully and mocking the idea that
//ordinary fools would ever do something useful of their own will, without a wand
//pointed at their heads…
// hedrok @ TODO знайти, про що саме йдеться
Гаррі витріщався на мовчазну юрбу, на десяток семикласників, що суворо дивилися
назовні, і відчував, як його охоплював холод. У розумі він почув відлуння
презирливого сміху професора Квірела, той збиткувався з самої думки, що
звичайні ду{stress}рні зроблять бодай щось корисне з власної волі, якщо не
приставити їм до скроні палички.

// 16051
//__Tick.__
__Цок.__

// 16052
//The standard remedy for bystander apathy was to focus on a single individual.
//“All right,” Harry said, trying to keep the commanding voice of the
//Boy-Who-Lived who didn’t doubt obedience. “Miss Morgan, come with me, now.
//We’ve got no time to waste.”
Стандартним методом боротьби з ефектом свідка було зосередитися на окремій
особистості.

-- Гаразд, -- сказав Гаррі, стараючись зобразити командний голос
Хлопчика-Що-Вижив, що не мав жодних сумнівів в покорі. -- Міс Морґан, ходімо зі
мною зараз. Ми не можемо гаяти часу.

// 16053
//The witch he’d named turned from where she’d been staring steadily out at the
//perimeter, her expression aghast for the one second before her face closed up.
Відьма, яку він назвав, відвела погляд від стіни, від якої не відводила була
очей, вона явно була приголомшена, та потім взяла себе в руки.

// 16054
//“The Deputy Headmistress ordered us all to stay __here__, Mr. Potter.”
-- Заступниця директора наказала всім нам залишатися __тут__, містере Поттер.

// 16055
//It took an effort for Harry to unclench his teeth. “Professor Quirrell didn’t
//say that and neither did you. Professor McGonagall isn’t a tactician, she
//didn’t think to check if we had missing students and __she__ thought it
//was a good idea to start marching students through the hallways. But Professor
//McGonagall __understands__ after her mistakes are pointed out to her, you
//saw how she listened to you and Professor Quirrell, and I’m certain that she
//wouldn’t want us to just ignore the fact that Hermione Granger is __out
//there, alone -”__
Гаррі не без зусиль розчепив зуби.

-- Професор Квірел не казав такого, і ви теж. Професорка Макґонеґел не тактик,
вона не подумала була перевірити, чи не бракує учнів, і __вона__ вважала чудовою
думкою відправити учнів гуляти коридорами. Та професорка Макґонеґел __розуміє__
свої помилки, якщо вказати їй на них, ви ж бачили, як вона вислухала вас та
професора Квірела, і я певен, що вона точно не проігнорувала б той факт, що
Герміона Ґрейнджер __там, зовні, сама__...

// 16056
//__Tick.__
__Цок.__

// 16057
//“I’d expect the Professor to say she’d not wish any more students roaming the
//halls. The Professor said if anyone left for any reason, they’d be expelled.
//Maybe __you__ don’t need to worry because you’re the Boy-Who-Lived, but
//the rest of us __do!__”
-- Гадаю, професорка сказала б, що не хоче, щоб додаткові студенти вешталися
коридорами. Професорка сказала, що коли хтось вийде з будь-якого причини, його
виключать. Можливо, __тобі__ нема чого хвилюватися, бо ти Хлопчик-Що-Вижив, та
решта з нас __не має__ таких привілеїв!

// 16058
//__Tick.__
__Цок.__

// 16059
//Somewhere in the back of his mind, Professor Quirrell was just laughing at him.
//Expecting some __normal__ person to act without perfect strategic clarity,
//without a clear focus of responsibility on them personally, when they had a
//__good excuse to do nothing… __“A student’s life is at stake,” Harry said
//in a level voice. “She could be fighting the troll right now. Out of curiosity,
//does that mean anything to you at all?”
У його розумі луною звучав сміх професора Квірела. Очікувати, що __звичайна__
людина діятиме без повної стратегічної ясності, без чіткої особистої
відповідальності, коли був __хороший привід нічого не робити__...

-- На кону життя учениці, -- рівним голосом сказав Гаррі. -- Можливо, вона
просто зараз бʼється з тролем. Просто з цікавості, це бодай щось для тебе
означає?

// 16060
//__Tick.__
__Цок.__

// 16061
//Miss Morgan’s face twisted. “You - you’re the Boy-Who-Lived! Just go off by
//yourself and snap your fingers, if you want to help her!”
Лице міс Морґан скривилося.

-- Ти... ти ж Хлопчик-Що-Вижив! Просто піди сам і клацни пальцями, якщо хочеш їй
допомогти!

// 16062
//__Tick.__
__Цок.__

// 16063
//Harry was hardly even aware of what he was saying. “That’s just cleverness and
//bluffing, I don’t have any power like that in real life, a young girl needs
//your help __now are you a Gryffindor or not?”__
Гаррі майже не усвідомлював, що каже:

-- Це все лише хитрощі й блефи, у справжньому житті в мене немає жодної сили,
маленька дівчинка потребує твоєї допомоги. __Ти ґрифіндорка чи ні?__

// 16064
//“Why are you saying any of this to __me?__” cried Miss Morgan. “I wasn’t
//left in charge here! Mr. Hagrid was!”
-- Чому ти все це кажеш __мені__? -- крикнула міс Морґан. -- Не я тут головна! А
містер Геґрід!

// 16065
//There was an awkward pause that suffused the whole room.
Незручна тиша наповнила всю залу.

// 16066
//Harry spun to look up at the huge half-giant towering over the crowd of
//students, as all other heads also turned toward him as one.
Гаррі крутнувся на місці й звернувся до напіввелетня, що височів над натовпом, і
всі голови водночас озирнулися на нього.

// 16067
//“Mr. Hagrid,” Harry said, trying to keep his voice commanding. “You need to
//authorize this expedition and you need to do it now.”
-- Містере Геґрід, -- досі командним тоном сказав Гаррі. -- Треба, щоб ви
авторизували експедицію, і треба, щоб ви зробили це негайно.

// 16068
//Rubeus Hagrid looked conflicted, though that was hard to judge with his vast
//head so surrounded by his unshorn beard and locks; only his eyes looked alive,
//embedded in all that hair. “Eh…” said the half-giant. “I was tol’ to keep yeh
//all safe -”
Видавалося, Рубеус Геґрід не міг ні на що наважитися, хоча важко було судити
через те, що його величезну голову вкривала нестрижена борода та пасма. Лишень
очі були живими посеред всього цього волосся.

-- Ем... -- сказав напіввелетень. -- Я си гадаю, мені сказано було берегти вас...

// 16069
//“Great, now can we also keep Hermione Granger safe? You know, the student
//framed for __a murder she did not commit__ who needs __someone to
//help her?”__
-- Чудово, а можна ми також збережемо Герміону Ґрейнджер? Ну знаєте, ученицю,
яку помилково звинуватили у __вбивстві, якого вона не скоїла__, яка потребує
__чиєїсь допомоги__?

// 16070
//The half-giant startled as Harry spoke the words.
Напіввелетень вражено дивився на Гаррі.

// 16071
//Harry stared at the enormous man, desperately willing him to pick up on the
//hint, hoping the words hadn’t given it away to anyone else - he couldn’t be
//just muscle, surely James and Lily had been friends with this man out of more
//than pity -
Гаррі витріщився на величезну людину, відчайдушно бажав, щоб той зрозумів натяк,
сподівався, що слова не видали змісту більше нікому, -- не міг же той бути
просто горою мʼязів, звісно Джеймс та Лілі дружили з цим чоловіком не лише з
жалю...

// 16072
//“Framed?” called out an anonymous voice, from somewhere over near where the
//Slytherins gathered. “Ha, are you still on that? It’d serve her right if she
//did get eaten.”
-- Помилково? -- вигукнув невідомий голос із загального напрямку слизеринців. --
Ха, ти досі розповідаєш ці казочки? Та вона заслуговує, щоб її зʼїли.

// 16073
//There was some laughter, even as cries of indignation came from elsewhere.
Почувся сміх, а також обурені скрики.

// 16074
//The half-giant’s face firmed up. “Yeh stay here, lad,” Mr. Hagrid said in a
//booming tone that was probably meant to be gentle. “I’ll go and look fer her
//meself. Truth is, trolls can be a mite tricky - yeh’ve got to catch ‘em by an
//ankle and dangle ‘em just right, or they’ll rip yeh clean in half -”
Лице напіввелетня сповнилося рішучості.

-- Ти лишай си тута, хлопче, -- проревів містер Геґрід тоном, що певно мав бути
лагідним. -- Я піду шукати сам. По правді тролі трохи непрості -- треба хапати їх
за кісточку й точно хитати, бо інакше розірвут тебе навпіл...

// 16075
//“Can you ride a broomstick, Mr. Hagrid?”
-- Ви можете літати на мітлі, містере Геґрід?

// 16076
//“Eh -” Rubeus Hagrid frowned. “No.”
-- Е... -- спохмурнів Рубеус Геґрід. -- Ні.

// 16077
//“Then you can’t search fast enough. __Sixth-years! Calling all
//sixth-years! Are there any sixth-years here who aren’t worthless cowards?”__
-- Тоді ви не можете шукати достатньо швидко. __Шестикласники! Закликаю всіх
шестикласників! Чи є тут шестикласники, що не є нікчемними боягузами?__

// 16078
//Silence.
Тиша.

// 16079
//“__Fifth years?__ Mr. Hagrid, tell them they’re authorized to go with me
//and keep me safe! __I’m trying to be sensible, damn it!__”
-- __Пʼятикласники?__ Містере Геґрід, скажіть їм, що їм дозволено піти зі мною
та берегти мене! __Прокляття, я ж стараюся поводитися розсудливо!__

// 16080
//The half-giant wrung his hands with an agonized expression. “Eh - I -”
Напіввелетень скрутив руки, на його лиці читалася агонія.

-- Е... Я...

// 16081
//Something snapped inside Harry and he started to stride directly toward the
//doors to the Great Hall, pushing aside anyone who didn’t get out of his way as
//though they were doughy statues. (He didn’t run, because running was an
//invitation for somebody to stop you.) Somewhere in his mind he was moving
//through an empty room filled with mechanical puppets by whose meaningless
//lip-moving noises he’d been __distracted__ -
Тут всередині Гаррі щось зламалося, і він рушив просто до дверей з Великої зали,
відштовхуючи будь-кого зі свого шляху, ніби вони були тупими статуями. (Він не
побіг, бо біг закликає інших тебе спинити.) Подумки він рухався крізь порожню
кімнату, заповнену механічними ляльками, що їхні губи рухалися, створюючи
беззмістовний шум, що його __відволікав__...

// 16082
//A huge figure interposed itself in his way.
Величезна фігура перегородила йому дорогу.

// 16083
//Harry looked up.
Гаррі підвів погляд.

// 16084
//“I can’t let yeh do that, Harry Potter, not yeh of all people. There’s strange
//things afoot in this castle, and someone might be after Miss Granger - or they
//might be after __yeh.__” Rubeus Hagrid’s voice was regretful but firm, and
//his gigantic hands lay at his side like forklifts. “I can’t let yeh go out
//there, Harry Potter.”
-- Я не можу тобі це дозволит, Гаррі Поттере, тіки не тобі з усіх. Шось дивне
коїться в замку, можливо, хтось замислив щось проти міс Ґрейнджер... але може й
проти __тебе__, -- голос Рубеуса Геґріда сповнював жаль, та в ньому не було
сумнівів, його гігантські руки були опущені, мов автонавантажувачі. -- Не можна
тебе випускати, Гаррі Поттере.

// 16085
//“__Stupefy!__”
-- __Закляктус!__

// 16086
//The red bolt crashed into the side of Hagrid’s head and made the huge man
//startle. His head snapped around faster than anything that large should’ve
//moved, and bellowed, “__What do yeh think yeh’re doing!__” at the young
//form of Susan Bones.
Червона блискавка вгатила в голову Геґріда, від чого величезний чоловік
розгубився. Його голова крутнулася швидше, ніж мало б будь-що таких розмірів, і
він загорлав на юну Сьюзен Боунз:

-- __Шо це ти таке робиш!__

// 16087
//“__Sorry!__” she screamed. ”__Incendium! Glisseo!__”
//hedrok: в каноні є "Incendio", переклад "Інсендіо"
-- __Вибачте!__ -- крикнула вона. -- __Інсендіум! Ґліссео!__

// 16088
//The huge man’s hands, now slapping at the fire in his beard, didn’t quite
//manage to catch himself as he crashed to the floor, but it didn’t matter by
//then because Harry was past him and -
Руки величезного чоловіка тепер били по полумʼю на його бороді, тож він не
впорався втримати рівновагу й гепнувся на підлогу, та це вже не мало значення,
бо Гаррі вже пройшов повз.

// 16089
//Neville Longbottom stepped in front of him, looking desperate but determined,
//the Hufflepuff boy’s wand already level in his hand.
Невіл Лонґботом став перед ним. Видавалося, він був у розпачі, та непохитний.
Гафелпафець рівно тримав паличку в руці.

// 16090
//Harry’s hand went for his wand in a sheer reflex action, he barely managed to
//check himself before Neville could fire on him, staring at his Lieutenant as
//though the world had gone mad.
Гаррі цілковито рефлекторно дістав чарівну паличку, він витріщався на свого
лейтенанта, ніби весь світ збожеволів.

// 16091
//“Harry!” Neville burst out. “Harry, Mr. Hagrid’s right, you __can’t__,
//this could all be a trap, they could be after __you -__”
-- Гаррі! -- випалив Невіл. -- Гаррі, містер Геґрід має рацію, тобі __не
можна__, це може бути пастка, їхньою ціллю можеш бути __ти__...

// 16092
//All of Neville’s muscles went rigid and he toppled to the ground, stiff as a
//board.
Всі мʼязи Невіла заклякли, і він звалився на підлогу, ніби тверда дошка.

// 16093
//A pale-looking Ron Weasley stepped out from behind Neville, his own wand level,
//and said, “Go.”
Блідий Рон Візлі вийшов з-за спини Невіла, тримаючи паличку.

-- Іди, -- сказав він.

// 16094
//__“Ron, you madman, what are you doing -__” came a voice distantly
//identifiable as Miss Clearwater’s boyfriend, but Harry was already dashing for
//the door without looking back, even as Ron’s voice and Susan’s voice rose again
//in incantation. There was a huge indignant bellow, and unknown voices began to
//yell.
-- __Роне, шаленцю, що ти коїш...__ -- почувся далекий голос, який Гаррі ледве
розпізнав як голос хлопця міс Клірвотер, та Гаррі вже мчав до дверей, не
озираючись, навіть коли голоси Рона й Сьюзен підвищилися для вимовляння заклять.
Пролунав далекий обурений рик і чиїсь крики.

// 16095
//Then Harry was through, his hand reaching into his pouch and his voice was
//saying __“broomstick”,__ as behind him the great doors began to swing shut
//again.
Коли Гаррі вийшов, він занурив руку в капшучок і сказав "`__мітла__`", а за ним
знову зачинилися двері.

// 16096
//Harry continued running through the Entrance Hall even as the long three-person
//broomstick and its sets of stirrups began to protrude from the pouch, repeating
//a number of swearwords in his head and thinking __this is what happens
//when you try to be sensible __with the part of his mind that wasn’t trying to
//figure out a search pattern to cover places where Hermione might be. The
//Library was on the third floor and practically on the other side of the castle…
//Harry had almost reached the great marble staircase by the time the broomstick
//was in his hand and __“Up!__” he was in the air and accelerating up toward
//the second floor -
Гаррі біг далі вестибюлем, доки довга тримісна мітла разом зі стременами вилазила
з капшучка. Він повторював подумки кілька лайливих слів та думку "`ось що
відбувається, коли намагаєшся бути розсудливим`" тією частиною розуму, що не
була завантажена розробкою схеми пошуку, що покриє можливі місця перебування
Герміони. Бібліотека на четвертому поверсі була фактично з іншого боку замку...
Гаррі майже дійшов до великих мармурових сходів, коли мітла потрапила йому в
руки, "`__Гоп!__`" і він у повітрі, прискорюється до третього поверху...

// 16097
//“__Gah!__” Harry screamed, and barely managed to spin his broom in the air
//so that he didn’t impale one of the human figures lurking at the top of the
//stairs. There was a ghastly moment of trying not to fall off the broom, perform
//the twists that would keep him in the stirrups, despite being really close to
//the ground and having almost no room to maneuver and then -
-- __Кха!__ -- крикнув Гаррі.

Він ледве впорався крутнути мітлу в повітрі, щоб не простромити одну з людських
фігур, що причаїлися нагорі сходів. Страшна мить пішла на спроби не впасти з
мітли, виконати виверти, що дозволили залишитися в сідлі, хоча він був вкрай
близько до землі, майже не мав місця для маневру, а тоді...

// 16098
//“__Fred? George?__”
-- __Фреде? Джордже?__

// 16099
//“We can’t figure out how to find her!” one of the Weasley twins blurted, hands
//twisting in distress. “We snuck out because we thought we could find Miss
//Granger - there __has__ to be a quick way to find anyone inside the
//Hogwarts castle, we’re both sure of it - but we can’t figure out what it is!”
-- Ми не знаємо, як її знайти! -- випалив один з близнюків Візлі, він вивертав
руки від страждань. -- Ми вишмигнули, бо гадали, що можемо знайти міс Ґрейнджер
-- __має__ існувати швидкий спосіб знайти будь-кого в Гоґвортсі, ми обидва в
цьому певні... Та не можемо зрозуміти, що це за спосіб!

// 16100
//Harry stared at both of them, from where he was hanging upside down from the
//broomstick where his desperate maneuver had brought him, and entirely by reflex
//his mouth said, “Well, __why__ were you so sure you could find her?”
Гаррі витріщився на них, він висів догори дриґом там, де несамовитий маневр
завершився, і суто рефлекторно сказав:

-- Ну, __чому__ ви так упевнені, що здатні знайти її?

// 16101
//“We __don’t know!”__ cried the other Weasley twin.
-- Ми __не знаємо__! -- крикнув один з близнюків Візлі.

// 16102
//“Have you been able to find people inside Hogwarts before?”
-- Ви раніше успішно знаходили людей в Гоґвортсі?

// 16103
//“__Yes! __We -” and the Weasley twin who was speaking stopped abruptly,
//both redheads staring off into the distance with a blank expression.
-- __Так!__ Ми... -- і раптом близнюк Візлі, котрий говорив, спинився, і обидві
руді голови витріщилися вдалечінь з порожнім виразом обличчя.

// 16104
//There was a thundering crash, as of two huge doors being shoved open by someone
//very, very strong.
Щось з оглушливим тріском розлетілося -- двоє величезних дверей розчахнув хтось
дуже-дуже сильний.

// 16105
//Harry spun around in the air to present the two open stirrup-positions on the
//broomstick to the Weasley twins, he didn’t say anything, there was no reason
//for them to give away their positions if they didn’t have to. Time seemed to
//move too slowly as the Weasley twins scrambled into the stirrups, Harry’s heart
//beating hard despite his mental calculation that Mr. Hagrid, running, shouldn’t
//reach even the foot of the stairway in time. Then the three of them were
//accelerating __hard __and away toward the nearest corridor, the stone
//floor beneath them blurring and the walls seeming to make an audible whooshing
//sound (though that was just the wind in their ears) as they went past; Harry
//remembered that he was riding a longer three-person broomstick barely in time
//to __slow down__ for the next turn.
Гаррі крутнувся в повітрі, щоб дати доступ до місць зі стременами близнюкам
Візлі. Він нічого не сказав -- не було жодних причин видавати, де вони, якщо не
було в цьому потреби. Видавалося, час плинув вкрай повільно, доки брати
видиралися на місця, серце в Гаррі калатало, незважаючи на те, що згідно його
розрахунків містер Геґрід не мав вчасно добігти навіть до першої сходинки. Тоді
вони втрьох __сильно__ прискорилися геть до найближчого коридору, камінь підлоги
під ними злився в пляму, а стіни навколо ніби свистіли (хоча це був просто вітер
у вухах), коли вони пролітали повз. Гаррі ледве вчасно згадав, що він керує
тримісною мітлою, і __пригальмував__ перед черговим поворотом.

// 16106
//And now all the broomstick seats were occupied, but if they actually found
//Hermione then - Harry could put on the Cloak of Invisibility, that should hide
//him from the troll, and that would free up a seat for Hermione -
Тепер в мітли не було жодного вільного місця, та якщо вони й справді знайдуть
Герміону, то... Гаррі може просто одягти Плащ невидимості, це приховає його від
троля, і для Герміони зʼявиться місце...

// 16107
//Harry ducked hard before a sudden archway took his head off.
Гаррі різко нагнувся, коли раптом над його головою виникла арка.

// 16108
//“We found Jesse!” the Weasley twin seated behind Harry blurted. “I know we did!
//That time we needed to tell him that Filch was hunting for him!”
-- Ми знайшли Джесі! -- бовкнув Візлі за його спиною. -- Знаю, що знайшли! Тоді
ми мали йому сказати, що Філч на нього полює!

// 16109
//“How?” Harry said, most of his brain engaged in not dying in a horrible air
//accident. He should have slowed down for safety, but there was a tension rising
//in him, a sourceless dread. He __couldn’t__ slow down, something terrible
//would happen if he slowed down…
-- Як? -- спитав Гаррі, хоча переважно його мозок працював над тим, щоб не
померти в жахливій авіакатастрофі. Він мав би летіти повільніше задля безпеки, та в
ньому зростав неспокій, безпідставний жах. Він __не міг__ сповільнитися, щось
страшенне станеться, якщо він пригальмує...

// 16110
//“We -” said the Weasley twin seated lower down. “We can’t remember!”
-- Ми... -- сказав дальній близнюк Візлі. -- Ми не памʼятаємо!

// 16111
//Another sharp turn taken at, Harry estimated, roughly 0.3// of the speed of
//light, and they were going through a twisty curving corridor that Harry always
//took to get from the Great Hall to the library only it __wasn’t__ the
//shortest way if you were __on a broomstick,__ he should’ve taken the long
//straight West Corridor instead -
Вони здолали черговий різкий поворот, за оцінкою Гаррі, приблизно на 0.3%
швидкості світла, а тоді полетіли звивистим коридором, яким Гаррі завжди йшов
від Великої зали до бібліотеки, тільки от це __не був__ найкоротший шлях __для
мітли__, треба було вибрати натомість довший прямий західний коридор...

// 16112
//The part of his brain that wasn’t steering caught up with reality.
Вільна від керування частина його мозку сприйняла дійсність.

// 16113
//“Someone’s been tampering with your minds!” Harry yelled, as he weaved through
//the curving corridor so fast that the tail-end Weasley sometimes lightly
//smacked into the wall as the length of the broomstick conflicted with Harry’s
//maladapted air skills.
-- Хтось втручався у ваш розум! -- вигукнув Гаррі, не спиняючи вишивання кривим
коридором -- такого швидкого, що подеколи ближчого до хвоста Візлі злегка
вдаряло об стіну, бо довжина мітли не відповідала навичкам Гаррі в польотах.

// 16114
//“__What?__” cried Fred or George.
-- __Що?__ -- крикнув Фред чи Джордж.

// 16115
//“Whoever got to Hermione messed with your minds too!” It could be an
//Obliviation, it could be a False Memory that hadn’t been planted right, but
//right now Harry couldn’t __think -__
-- Хай хто дістав Герміону, попрацював і з вашим розумом!

Можливо, забуттятус, а може неправильно створена хибна памʼять, та наразі Гаррі
не міг __думати__...

// 16116
//The broomstick turned and shot upward beside a spiral staircase, all three of
//them flattened themselves against the broomstick so they could make in through
//the gap in the ceiling that opened onto the third floor, and then they were in
//front of the library, the broomstick slowing to a halt with a shriek despite
//the lack of anything it could be friction-braking against. Harry shot the
//Weasley twins a quick glance to __stay put__, as he clambered off the
//broomstick to shove open the doors of the library, controlling his breathing as
//he shoved his head inside.
Мітла завернула й полетіла вертикально вгору поряд зі спіральними сходами. Вони
втрьох притислися до мітли, щоб пролізти в отвір у стелі до четвертого поверху,
а тоді вони опинилися перед бібліотекою, мітла спинилася зі скреготом, хоча її
гальмування жодним чином не було повʼязане з тертям. Гаррі кинув близнюкам
погляд "`чекайте`", а сам зліз з мітли й розчахнув двері до бібліотеки, і
засунув у дверний отвір голову, відновлюючи дихання.

// 16117
//Hermione Granger wasn’t there.
Герміони Ґрейнджер там не було.

// 16118
//Madam Pince, who was eating a sandwich at her desk, looked up with a sudden
//glare. “Library’s closed!”
Мадам Пінс, що їла сендвіч за столом, підвела на диво непривітний погляд.

-- Бібліотеку зачинено!

// 16119
//“Have you seen Hermione Granger?” Harry said.
-- Ви бачили Герміону Ґрейнджер? -- спитав Гаррі.

// 16120
//“I said the library’s __closed,__ boy! Lunch hours!”
-- Я сказала, що бібліотеку __зачинено__, хлопче! Обід!

// 16121
//“This is extremely important. Have you seen Hermione Granger or do you have any
//idea where she might be?”
-- Це надзвичайно важливо. Чи не бачили ви Герміону Ґрейнджер? Можливо, ви щось
знаєте про те, де вона може бути?

// 16122
//“No, now be off!”
-- Ні, іди собі!

// 16123
//“Do you have any fast way of contacting Professor McGonagall in an emergency?”
-- Чи є у вас швидкий спосіб звʼязку з професоркою Макґонеґел на випадок
надзвичайної ситуації?

// 16124
//“Eh?” said the librarian, startled. She rose up from behind her desk. “What is
//-”
-- Га? -- спитала здивована бібліотекарка. Вона підвелася з-за стола. -- Що...

// 16125
//“Yes or no. Please answer immediately.”
-- Так чи ні. Будь ласка, відповідайте негайно.

// 16126
//“Ah - there’s the Floo -”
-- А... Є флу...

// 16127
//“She’s not in her office,” Harry said. “Do you have any other way of reaching
//her. Yes or no.”
-- Вона не в кабінеті. Чи є у вас інший метод звʼязатися з нею. Так чи ні.

// 16128
//“Young man, I insist that you -”
-- Юначе, я наполягаю, щоб ви...

// 16129
//Harry’s brain flagged this as __I’m talking to NPCs again __and he spun on
//his heel and dashed back for the broomstick.
Мозок Гаррі позначив ситуацію як "`я знову розмовляю з ботами`", і він крутнувся
на підборах та помчав назад до мітли.

// 16130
//“Stop!” cried Madam Pince, bursting too late from the doors as Harry and the
//Weasley twins shot off again, out of the librarian’s sight. The pressure in
//Harry’s mind still rising, like a physical hand squeezing his chest, __he
//had to find Hermione__ and he had no other notion of where she could be, unless
//it was the witches’ dorms in the Ravenclaw tower and that he couldn’t enter.
//Searching all of Hogwarts bordered on a mathematical impossibility, there
//probably was no continuous flight path that entered all the rooms at least once
//- __why__ hadn’t he thought to demand for Hermione and Neville and him to
//be given a set of those neat little mirrors the Aurors used to communicate -
-- Стій! -- крикнула мадам Пінс.

Вона надто пізно вибігла з дверей -- Гаррі й близнюки вже злетіли й були поза
полем зору бібліотекарки. Тиск у розумі Гаррі все зростав, ніби матеріальна рука
стисла його груди, __він мав знайти Герміону__, і гадки не мав, де вона може
бути, хіба що у спальнях для відьом у рейвенкловські башті, та туди він не міг
зайти. Пошук по всьому Гоґвортсу скидався на математичну неможливість, певно,
не існувало жодного безперервного шляху до польоту, що проходив кожною кімнатою
принаймні раз.... __чому__ він не подумав вимагати для Герміони, Невіла й себе
ті чудові маленькі дзеркальця, які аврори використовували для комунікації...

// 16131
//The realization that he was being __stupid__ hit Harry like a blow to the
//stomach. He didn’t need mirrors to send a message, he hadn’t needed mirrors
//since January. Harry slowed the broomstick to a halt in midair of a hallway,
//his wand already coming into his hand, the driving will to __protect
//Hermione Granger__ rising to the front of his mind like a sun of silver fire and
//flowing down his arm as he cried
Тоді усвідомлення того, що він __тупий__, вдарило Гаррі, мов кулак у живіт. Не
потрібні йому дзеркала, щоб надіслати повідомлення, аж з січня. Гаррі спинив
мітлу посеред коридору в повітрі, паличка вже стрибнула в руку, він сповнив
розум жагою __захистити Герміону Ґрейнджер__, і ніби срібне сонце вогню потекло
його рукою, коли він вигукнув:

// 16132
//“__EXPECTO PATRONUM!__”
-- __ЕКСПЕКТО ПАТРОНУМ!__

// 16133
//and the blazing white humanoid burst into existence like a nova, the Weasley
//twins’ voices crying aloud in shock.
А тоді сліпучий білий гуманоїд виникнув, ніби наднова зірка. Почулися шоковані
зойки близнюків Візлі.

// 16134
//“Tell Hermione Granger - that there’s a troll loose in Hogwarts - it could be
//hunting for her - she needs to get into direct sunlight, now!”
-- Скажи Герміоні Ґрейнджер, що в підземеллях Гоґвортсу є троль, можливо полює
на неї, їй треба виходити на сонце негайно!

// 16135
//The silver figure turned as though it was departing, and then vanished.
Срібна фігура розвернулася, ніби пішла кудись, і зникла.

// 16136
//“Merlin’s underpants,” breathed Fred or George.
-- Мерлінові труселя, -- видихнув Фред чи Джордж.

// 16137
//The silver outline blasted back into the world, and said in the strange outside
//version of Harry’s own voice, “Hermione Granger says,” the blazing figure’s
//voice became higher-pitched, __“AHHHHHHHHH!__”
Срібний контур знову виникнув у світі і сказав дивною зовнішньою версією
Гарріного ж голосу:

-- Герміона Ґрейнджер каже, -- голос яскравої фігури став високим: --
__Аааааааааа!__

// 16138
//Time seemed to fracture, like everything was moving very quickly and slowly at
//the same time. A desperate impulse to accelerate the broomstick, fly at its
//maximum speed, only Harry didn’t __know where__ -
Час ніби розбився на друзки, усе рухалося дуже повільно й дуже швидко водночас.
Відчайдушне бажання прискорити мітлу, летіти якнайшвидше, тільки от Гаррі не
знав, __куди__...

// 16139
//“If you know where she is,” Harry shouted to the blazing humanoid figure,
//staring into it as though it were a sun, “then __take me to her!”__
-- Якщо ти знаєш, де вона, -- крикнув Гаррі сяйливій фігурі гуманоїда,
втупившись у неї, ніби це було сонце, -- то __відведи мене до неї__!

// 16140
//The silver blaze moved and Harry accelerated after it, the Weasley twins giving
//out high-pitched shrieks behind him as he fired through the air like a
//cannonball, moving faster than sanity, he didn’t focus on the walls whizzing
//past him or how fast he was moving, just followed the silver light through
//corridors and flying up staircases and blitzing through doors that Fred or
//George cried desperate incantations to open and it was __all still taking
//too much time,__ somewhere deep inside Harry felt like he was sinking through
//molasses as windows and portraits shot past.
Срібне сяйво рушило, і Гаррі прискорився за ним, близнюки Візлі за його спиною
верещали, коли він кинувся повітрям, мов куля, швидше за думку, він не
фокусувався на стінах, що блимали навколо, не думав про швидкість, просто
слідував за срібним світлом крізь коридори, сходи, бомбардував двері, що їх Фред
чи Джордж розчиняли несамовитими вигуками заклять, і __все одно все було надто
повільно__, десь углибині Гаррі відчував, ніби занурюється в патоку, а вікна й
портрети проминали повз.

// 16141
//The broomstick screamed through a final turn that whacked one of the Weasley
//twins against the wall not quite as hard as a Bludger would hit, and then they
//followed the brilliant Patronus through an open space in the ceilings, blasting
//up and upwards, rising past one floor and then another in less than a breath.
Мітла проскреготіла в останньому повороті й доволі сильно гепнула одного з
близнюків Візлі об стіну -- втім, не так сильно, як бладжер, і вони вилетіли за
сліпучим патронусом зі стелі й опинилися просто неба, далі здіймалися повз один
поверх за іншим, і оком не встигли б змигнути.

// 16142
//His Patronus slowed to a halt (Harry braking hard in response) just as they
//reached the level of a wide-open floor space that that spread out until it
//escaped the ceiling and turned into an outdoor terrace, a spread of tiled
//marble open to the air and sky -
Його патронус спинився (тоді Гаррі сильно загальмував), коли вони досягли широко
відкритого простору підлоги, що виходив за стелю й перетворювався на зовнішню
терасу, вкриту мармуровою плиткою, відкриту повітрю й небу...
