// 16409
//== Roles, Pt 2
== Розділ 91. Ролі, ч.2

// 16410
//__A/N: This chapter does not contain a spoiler for any particular Orson
//Scott Card novel. It’s a metaphor.__
__Примітка автора: цей розділ не містить жодних спойлерів жодного твору Орсона
Скотта Карда. Це метафора.__

***

// 16411
//Shortly after, there was another knock upon the storeroom door.
Невдовзі знову пролунав стукіт у двері кімнати зберігання.

// 16412
//“If you actually care about my mental health,” the boy said without looking up,
//“you will go away, leave me alone, and wait for me to come down to dinner. This
//isn’t helping.”
-- Якщо ви й справді піклуєтеся про здоровʼя мого розуму, -- сказав хлопець, не
підвівши погляду, -- то підете геть, облишите мене в спокої й зачекаєте, доки я
не спущуся на вечерю. А це ось не допомагає.

// 16413
//The door opened, and the one who had waited outside stepped in.
Двері розчинилися, і той, хто чекав за ними, зайшов.

// 16414
//“Seriously?” the boy said flatly.
-- Ну серйозно? -- безбарвно спитав хлопець.

// 16415
//The door closed and clicked behind Severus Snape.
Двері зачинилися й клацнули за спиною Северуса Снейпа.

// 16416
//The Potions Master of Hogwarts wore none of his customary arrogance, or even
//the dispassionate guise that he ordinarily took in the Headmaster’s office; his
//gaze was strange, as he looked down upon the boy guarding that door; his
//thoughts unfathomable.
Майстер зіллєваріння Гоґвортсу не мав ані звичайної зверхності, ані навіть
беземоційної маски, яку він показував у кабінеті директора. Дивним був його
погляд, звернений до хлопця, що стеріг ті двері. Думки його були незбагненні.

// 16417
//“I also cannot imagine what the Deputy Headmistress is thinking,” said the
//Potions Master of Hogwarts. “Unless I am meant to serve as a warning of where
//it will lead you, if you decide to take the blame for her death upon yourself.”
-- Я також не уявляю, про що думає заступниця директора, -- сказав майстер
зіллєваріння Гоґвортсу. -- Хіба що я маю послугувати застереженням -- до чого
ви можете дійти, якщо вирішите взяти всю провину за її смерть на себе.

// 16418
//The boy’s lips pressed together. “Fine. Let’s just skip ahead to the end of
//this conversation. You win, Professor Snape. I concede that you were more
//responsible for Lily Potter’s death than I was responsible for Hermione
//Granger’s death, and that my guilt can’t stack up to your guilt. And then I ask
//you to go, and you tell them that it would probably be best to let me alone for
//a while. Are we done?”
Губи хлопця утворили тонку лінію.

-- Гаразд. Перейдімо одразу до кінця цієї розмови. Ви перемогли, професоре
Снейп. Я визнаю, що ви були більше відповідальні за смерть Лілі Поттер, ніж я за
смерть Герміони Ґрейнджер, і що моя провина не може зрівнятися з вашою. Тоді я
попрошу вас піти, і ви скажете їм, що, напевно, мене ліпше облишити в спокої на
якийсь час. Усе?

// 16419
//“Almost,” the Potions Master said. “I am the one who put the notes under Miss
//Granger’s pillow, telling her where to find the fights in which she
//intervened.”
-- Майже, -- сказав майстер зіллєваріння. -- Це я підкладав записки під подушку
міс Ґрейнджер з вказівками, де будуть битви, в яких вона брала участь.

// 16420
//The boy did not react to this at all. Finally he spoke. “Because you dislike
//bullying.”
Спершу хлопець на це взагалі не відреагував. Нарешті він сказав:

-- Бо вам не до вподоби цькування.

// 16421
//“Not that alone.” There was a note of pain in the Potions Master’s voice that
//sounded alien to it; it was hard to imagine it being the same acid voice that
//instructed children not to stir one more time or they’d blow off their wrists.
//“I should have realized it… very much earlier, I suppose, and yet I did not see
//it at all, being entirely absorbed in myself. For me to be placed as Head of
//Slytherin… it means that Albus Dumbledore has entirely lost hope that Slytherin
//House can be helped. I am certain that Dumbledore must have tried, I cannot
//imagine that he did not try, when he first took trust of Hogwarts. It must have
//been a severe blow to him, when after that so much of Slytherin answered to the
//Dark Lord’s call… he would not have placed me in authority over that House,
//acting as I did, unless he had lost all hope.” The Potions Master’s shoulders
//fell, beneath his spotted and stained cloak. “But you and Miss Granger were
//trying to do something, and the two of you had even managed to bring over Mr.
//Malfoy and Miss Greengrass, and perhaps those two could have set a different
//example… I suppose it was foolish for me to believe. The Headmaster does not
//know of what I have done, and I ask you not to tell him.”
-- Не лише це, -- в голосі майстра зіллєваріння була нотка болю, така невластива
-- важко було уявити, що цей же жовчний голос наказував дітям перемішати зілля
ще раз, якщо вони не хочуть, щоб їм вибухом відірвало руки. -- Я мав би
зрозуміти... значно раніше, гадаю, та я взагалі цього не бачив, настільки я був
поглинутий собою. Те, що я отримав посаду вихователя гуртожитку Слизерин...
означало, що Албус Дамблдор цілковито втратив надію виправити Слизерин. Я певен,
що Дамблдор намагався це зробити, не вірю, що не намагався, коли йому тільки
довірили Гоґвортс. Напевно, для нього було важким ударом, коли після стількох
зусиль чимало слизеринців відповіли на поклик Темного Лорда... він би не надав
мені цю посаду, коли я так поводжуся, якби не втратив всіляку надію, -- плечі
майстра зіллєваріння осунулися під заплямованою мантією. -- Але ви з міс
Ґрейнджер старалися щось зробити, і у вас вийшло навіть переманити містера
Мелфоя та міс Ґрінґрас, і можливо вони могли б послугувати взірцем... Гадаю, з
мого боку було наївністю повірити в це. Директор не знає про те, що я зробив, і
я прошу вас не казати йому.

// 16422
//“Why are you telling me this?”
-- Чому ви мені про це розповідаєте?

// 16423
//“Matters have become far too serious not to tell someone.” Severus Snape’s lips
//twisted. “I have seen enough disastrous plotting, in my tenure as Head of
//Slytherin, to know how that sometimes goes. If, in the future, all should come
//to light - then at least I have told you, and you may say as much.”
-- Усе стає надто серйозним, щоб не розповісти хоча б комусь, -- губи Северуса
Снейпа скривилися. -- Як вихователь Слизерину, я побачив забагато згубних хитрих
планів і знаю, як інколи трапляється. Якщо в майбутньому все стане відомо, то
принаймні я вам розповідав, і ви зможете підтвердити це.

// 16424
//“Lovely,” the boy said. “Thank you for clearing that up. Is that all?”
-- Чудесненько, -- сказав хлопець. -- Дякую, що прояснили. Це все?

// 16425
//“Do you intend to declare that your life is now a ruin and that there is
//nothing left for you but vengeance?”
-- Ви збираєтеся тепер вважати своє життя скінченим, і що вам не лишилося
нічого крім помсти?

// 16426
//“No. I still have -” The boy cut himself off.
-- Ні. Я ще маю... -- хлопець замовкнув.

// 16427
//“Then there is very little advice that I can give you,” said Severus Snape.
-- Тоді я мало що можу вам порадити, -- сказав Северус Снейп.

// 16428
//The boy nodded distantly. “On Hermione’s behalf, thank you for helping her with
//the bullies. She would tell you that it was the right thing to do. And now I
//would be much obliged if you could tell them to __leave me alone__.”
Хлопець неуважно кивнув.

-- Від імені Герміони Ґрейнджер, дякую, що допомогли їй з цькувальниками. Вона б
сказала вам, що це було правильно. А тепер я буду вам дуже вдячний, якщо ви
скажете їм __облишити мене в спокої__.

// 16429
//The Potions Master turned to the door, and when his face was unseen, his voice
//came in a whisper. “I truly am sorry for your loss.”
Майстер зіллєваріння обернувся до дверей, і коли його лиця не було видно,
прошепотів:

-- Я щиро співчуваю вашій утраті.

// 16430
//Severus Snape departed.
Северус Снейп вийшов.

// 16431
//The boy stared after him, trying to remember, as best as he could at this
//distance, words which had been spoken some time earlier.
Хлопець втупився у двері, він намагався згадати якомога точніше слова, що були
сказані так давно.

// 16432
//__Your books betrayed you, Potter. They did not tell you the one thing
//you needed to know. You cannot learn from books what it is like to lose the one
//you love. That is something you could never know without experiencing it for
//yourself.__
// hedrok: Копія з 27:5629, змінено кілька слів
//! 17%
"`Ваші книжки зрадили вас, Поттере. Вони не сказали вам того єдиного, що вам
треба знати. З книжок не можна навчитися того, як це -- втратити когось, кого
любиш. Таке ніяк не збагнути, крім як самому таке пережити`".

// 16433
//It had gone something like that, the boy thought, if he was remembering
//correctly.
Звучало якось так, якщо він пригадував правильно, подумав хлопець.

***

// 16434
//Hours had passed now, in the infirmary section with its closed door and a body
//lying in state behind it.
Вже минули години у відділенні лікарні із зачиненими дверима, за якими лежало
тіло.

// 16435
//Harry went on staring at his wand, as it lay in his lap. At the tiny scratches
//and smudges on the eleven inches of holly, flaws he’d never looked closely
//enough to notice before. A quick mental calculation said there was no reason to
//worry since if this was six or seven months’ accumulation of damage, then a
//standard lifetime wouldn’t wear away the wand entirely. At the time, he
//probably would’ve worried about his own Time-Turner being taken away if he’d
//just openly yelled out ‘Does anyone have a Time-Turner?’ into the Great Hall,
//but it would have been easy enough to precommit to, after lunch, finding
//someone to send Professor Flitwick a message two hours earlier and then
//Professor Flitwick could’ve just gone straight to Hermione, or sent her his
//raven Patronus, long before the troll was anywhere near her. Or might that
//alternate Harry have already learned it was too late - heard about Hermione’s
//death after lunch and before he could buy any messages sent backwards in time?
//Maybe a basic guideline of working with time-travel was to make sure you never
//risked learning you were too late, if you hadn’t yet gone backwards. There was
//a tiny chemical burn now on the end of his wand, presumably from contacting the
//acid he’d partially Transfigured the troll’s brain into, but the wand seemed
//robust against losses of small amounts of wood. Really the concept of a ‘magic
//wand’ being required just got stranger the more you thought about it. Though if
//spells were always being invented in some mysterious way, new rituals being
//carved as new levers upon the unknown machine, it might just be that people
//just kept inventing rituals that involved wands, just like they invented
//phrases like ‘Wingardium Leviosa’. It really seemed like magic ought to be, in
//some sense, almost arbitrarily powerful, and it certainly would be convenient
//if Harry could just bypass whatever conceptual limitation prevented people from
//inventing spells like ‘Just Fix Everything Forever’, but somehow nothing was
//ever that easy where magic was concerned. Harry looked at his mechanical watch
//again, but it still wasn’t time.
Гаррі й далі роздивлявся паличку, що лежала на його колінах. Роздивлявся
крихітні подряпини й плями на одинадцяти дюймах гостролисту -- пошкодження,
яких він ніколи не бачив був раніше, бо не роздивлявся так уважно. Він швидко
прикинув, що хвилюватися немає причин, бо це результат зношення протягом
шістьох-сімох місяців, тож протягом середньої тривалості життя паличка не
зіпсується остаточно. У той час він напевно надто хвилювався б, що його
часоворот можуть забрати, якби він просто відкрито вигукнув "`Чи є тут хтось з
часоворотом?`" посеред Великої зали, та нескладно ж було твердо вирішити після
обіду знайти когось, хто надіслав би повідомлення в минуле на дві години, а
тоді професор Флитвік міг би просто піти прямо до Герміони, чи надіслати до неї
свого крука-патронуса задовго до того, як троль до неї навіть близько підійшов.
Чи той альтернативний Гаррі вже дізнався би, що було запізно, -- почув би про
смерть Герміони після обіду, до того, як встигнув би організувати відправку
якогось повідомлення в минуле? Можливо, основним правилом роботи з
переміщеннями в часі було зробити все, щоб не дізнатися, що вже запізно, доки
ти не перемістився в часі назад. На кінці палички був крихітний обпалений
шматочок -- напевно від доторку до кислоти, на яку він частково трансфігурував
був мозок троля, та, схоже, на роботу палички не впливала втрата невеличкої
частини дерева. Насправді концепція потреби в "`чарівній паличці`" видавалася
дедалі дивнішою при обміркуванні. Хоча, якщо закляття завжди винаходили в
якийсь таємничий спосіб, нові ритуали вирізьблювалися як нові кнопки на
невідомій машині, можливо, люди просто за звичкою винаходили ритуали, що
потребували палички. Так само, як винаходили фрази на кшталт "`Вінґардіум
Левіоза`". І справді видавалося, що магія має бути в певному сенсі майже
всемогутньою, без сумніву було б зручно, якби Гаррі вдалося обійти якесь
концептуальне обмеження, що не дає людям відкрити закляття "`Виправ усе
назавжди`", проте чомусь нічого повʼязаного з магією ніколи не виходило так
просто. Гаррі знову поглянув на механічний годинник, але й досі був не час.

// 16436
//He’d attempted to cast the Patronus Charm, meaning to tell his Patronus to go
//to Hermione Granger. Just in case it was all a lie, a False Memory Charm or one
//of the who-knew-how-many-ways that wizards could be made to close their eyes
//and dream. Just in case the real Hermione was alive and being held somewhere,
//despite his feeling her life as it left her. Just in case there was an
//afterlife and the True Patronus could reach it.
Він спробував був наслати чари патронуса, хотів сказати патронусові піти до
Герміони Ґрейнджер. Просто на випадок, якщо це все була брехня -- чари хибної
памʼяті чи хтозна-який-ще-з-чисельних-методів, якими чарівників можна було
змусити заплющити очі й снити. Просто на випадок, що справжня Герміона жива і її
десь тримають, незважаючи на те, що він відчув, як життєва сила покинула її.
Просто на випадок, що життя після смерті існує, і справжній патронус здатен його
досягти.

// 16437
//The spell hadn’t worked though, so that particular test had failed to provide
//any evidence, leaving him with the previous, unfavorable prior.
Втім, закляття не спрацювало, тож цей дослід не надав жодних свідчень, залишивши
його наодинці з попередніми неприємними даними.

// 16438
//Time passed, and yet more time. From the outside you would’ve just seen a boy,
//sitting, staring at his wand with an abstracted gaze, looking at his watch
//every two minutes or so.
Час минав, і минав ще. Ззовні можна було б побачити хлопця, що просто сидів та
затуманеним поглядом роздивлявся паличку й приблизно щодвіхвилини дивився на
годинник.

// 16439
//The door to the infirmary section opened once __again__.
Двері до цього відділення шкільної лікарні __знову__ відчинилися.

// 16440
//The boy sitting there looked up with a deadly, chilling glare.
Хлопець поглянув туди крижаним, смертоносним поглядом.

// 16441
//Then the boy’s face cracked in dismay, and he scrambled to his feet.
Спокій на лиці хлопця не витримав розгубленості, Гаррі підскочив на ноги.

// 16442
//“Harry,” said the man in the button-down formal shirt and a black vest thrown
//over it. His voice was hoarse. “Harry, what’s happening? The Headmaster of your
//school - he showed up in those ridiculous robes at my office and told me that
//Hermione Granger was dead!”
-- Гаррі, -- сказав чоловік в офіційній сорочці під чорним жилетом. Його голос
був хрипким. -- Гаррі, що відбувається? Директор твоєї школи... зʼявився в моєму
офісі у своїй сміховинній мантії та сказав, що Герміона Ґрейнджер померла!

// 16443
//A moment later a woman followed the man into the room; she seemed less confused
//than the man, less bewildered and more frightened.
За мить вслід за чоловіком до кімнати зайшла жінка. Вона була менш збентеженою
за чоловіка -- менш розгубленою та більш наляканою.

// 16444
//“Dad,” the boy said thinly. “Mum. Yes, she’s dead. They didn’t tell you
//anything else?”
-- Тату, -- тонким голосом сказав хлопець. -- Мамо. Так, вона мертва. Вони вам
більш нічого не сказали?

// 16445
//“No! Harry, what’s happening?”
-- Ні! Гаррі, що відбувається?

// 16446
//There was a pause.
Запала мовчанка.

// 16447
//The boy slumped back against the wall. “I c-can’t, I can’t, I can’t do this.”
Хлопець осів на стіну.

-- Я н... не можу. Не можу, не можу це й далі робити.

// 16448
//“What?”
-- Що?

// 16449
//“I can’t pretend to be a little boy, I j-just don’t have the energy right now.”
-- Не можу вдавати маленького хлопчика. У мене пр.. просто немає наразі на це
сил.

// 16450
//“Harry,” the woman said falteringly. “Harry -”
-- Гаррі, -- тремтячим голосом промовила жінка. -- Гаррі...

// 16451
//“Dad, you know those fantasy books where the hero has to hide everything from
//his parents because they, they wouldn’t understand, they’d react stupidly and
//get in the hero’s way? It’s a plot device, right, so that the hero has to solve
//everything himself instead of telling his parents. P-please don’t be that plot
//device, Dad, or you either, Mum. Just… just don’t play that role. Don’t be the
//parents who won’t understand. D-don’t yell at me and give me parental demands I
//can’t follow. Because I’ve wandered into a bloody stupid fantasy novel and now
//Hermione’s - I j-just don’t have the energy to deal with it.”
//! 34%
-- Тату, ти ж знаєш усі ці книжки фентезі, у яких головний герой усе приховує
від батьків бо вони... вони не зрозуміють, вони реагуватимуть по-дурному й
заважатимуть герою? Це письменницький прийом, правильно, щоб герой міг все
розвʼязати сам, а не розповідати все батькам. Будь... будь ласка, не будь цим
прийомом, і ти теж, мамо. Просто... просто не грайте цю роль. Не будьте
батьками, що не розуміють. Н... не кричіть на мене й не давайте мені
батьківських порад, що я їх не зможу виконати. Бо я втрапив у це кляте дурне
фентезі, і тепер Герміона... У мене просто немає на це все сил.

// 16452
//Slowly, as though his limbs were only half-animated, the man in the black vest
//kneeled down to where Harry was standing, so that his eyes were level with his
//son’s. “Harry,” the man said. “I need you to tell me everything that has
//happened, right now.”
Повільно, ніби всі його мʼязи могли рухатися лише впівсили, чоловік у чорному
жилеті сів на коліна поряд з Гаррі, щоб його очі були на одному рівні з очима
сина.

-- Гаррі, -- сказав чоловік. -- Я хочу, щоб ти розповів мені все, що сталося, і
прямо зараз.

// 16453
//The boy took a deep breath, swallowed. “They t-tell me the Dark Lord I defeated
//may still be alive. Like that’s not the p-plot of a hundred sodding books,
//right? So, it could also be that the Headmaster of my school, who’s the most
//powerful wizard in the world, has gone insane. And, and Hermione was framed for
//an attempted murder just before this, not that anyone would’ve told her parents
//about it or anything. The student she was framed for attempted-murdering was
//the son of Lucius Malfoy, who’s the most powerful politician in magical
//Britain, and used to be the Dark Lord’s number two. The Defense Professor
//position at this school has a curse on it, nobody ever lasts more than a year,
//they have a saying that the Defense Professor is always a suspect. This year
//the Defense Professor is secretly a mysterious wizard who opposed the Dark Lord
//during the last war and may or may not be evil himself. Also the Potions Master
//has been pining after Lily Potter for years and might be behind this whole
//thing for some twisted psychological reason.” The boy’s lips pressed together
//bitterly. “I think that’s most of the bloody stupid plot.”
Хлопець глибоко вдихнув і ковтнув слину.

-- Мені к-кажуть, що Темний Лорд, що я його переміг, досі живий. Ніби це не
с-сюжет сотень однакових книжок, так? Ось, також, можливо, що директор моєї
школи -- він також наймогутніший чарівник у світі, збожеволів. А, і Герміону
підставили у замаху на вбивство прямо перед цим, не те щоб хтось сказав її
батькам про це. Учень, якого вона нібито намагалася вбити, -- син Луціуса
Мелфоя, наймогутнішого політика чаклунської Британії, що був правицею Темного
Лорда. Посада професора із захисту в цій школі проклята, ніхто не витримує на
ній більше року, тут навіть поширене прислівʼя, що професор із захисту -- завжди
підозрюваний. Цього року професор із захисту -- таємничий чарівник, що
протистояв Темному Лордові впродовж попередньої війни, хоча про це ніхто й не
знає, і він сам може бути, а може й не бути лихим. Також майстер зіллєваріння
сохнув за Лілі Поттер роками, і, можливо, це все влаштував він з якихось
збочених психологічних причин, -- хлопець гірко скривив губи. -- Ніби це майже
весь клятий дурний сюжет.

// 16454
//The man, who had listened to all this quietly, stood up. He put a gentle hand
//on the boy’s shoulder. “That’s enough, Harry,” he said. “I’ve heard enough.
//We’re leaving this school right now and taking you with us.”
Чоловік, що тихо все це вислухав, підвівся. Він ніжно поклав на плече хлопця
руку.

-- Годі, Гаррі, -- сказав він. -- Я достатньо почув. Ми йдемо з цієї школи
негайно й беремо тебе з собою.

// 16455
//The woman was looking at the boy, her face asking a question.
Жінка поглянула на хлопця із німим запитанням.

// 16456
//The boy gazed back at her and nodded.
Хлопець поглянув у відповідь і кивнув.

// 16457
//The woman’s voice was thin when she spoke. “__They__ won’t let us,
//Michael.”
Жінка заговорила високим голосом.

-- __Вони__ не дозволять нам, Майкле.

// 16458
//“They have no legal right to stop us -”
-- Вони не мають права нас зупиняти...

// 16459
//“__Right?__ You’re __Muggles,__” said the boy. He smiled twistedly.
//“You have as much standing in the magical British legal system as mice. No
//wizard is going to care about any arguments you make about __rights,__
//about __fairness__, they won’t even take the time to listen. You don’t
//have any __power,__ see, so they don’t have to bother. No, Mum, I’m not
//smiling like this because I agree with their Muggle policies, I’m smiling
//because I disagree with your children policies.”
-- __Права?__ Ви __маґли__, -- сказав хлопець. Він криво посміхнувся. -- В
юридичній системі чаклунської Британії у вас приблизно таке ж становище, як у
мишей. Жодного чаклуна не цікавить, що ви можете сказати про свої __права__, про
__справедливість__, вони навіть не слухатимуть вас. Бо у вас, бачите, немає
__сили__, тож вони не мусять марнувати час. Ні, мамо, я посміхаюся не через те,
що підтримую їхню політику щодо маґлів, а через те, що не підтримую вашу
політику щодо дітей.

// 16460
//“Then,” Professor Michael Verres-Evans said firmly, “we shall see what the
//__real__ government has to say about that. I know an MP or three -”
-- Тоді, -- твердо сказав Майкл Веррес-Еванс, -- побачимо, що на це скаже
__справжній__ уряд. Я знаю одного депутата, та навіть трьох...

// 16461
//“They’ll say, you’re crazy, have a nice stay in this asylum. That’s assuming
//the Ministry Obliviators don’t get to you first and erase your memories. They
//do that to Muggles a lot, I hear. I figure the real higher-ups in our
//government have formed some cozy accomodations of their own. Maybe they get a
//few healing Charms now and then, if someone important manages to get cancer.”
//The boy gave that twisted smile again. “And that’s the situation, Dad, as Mum
//already knows. They’d never have brought you here or told you anything, if
//there was a single thing you could do about it.”
-- Вони скажуть, що ти збожеволів, приємного відпочинку в психіатричній лікарні.
І це якщо забуттятори міністерства не знайдуть тебе першим і не зітруть тобі
памʼять. Як я зрозумів, таке роблять з маґлами весь час. Напевно, справжня
верхівка нашого уряду погодилася на якісь окремі затишні умови. Гадаю, кілька
цілющих чарів подеколи, якщо в когось важливого зʼявиться рак, -- на обличчі
хлопця знову зʼявилася ця крива посмішка. -- Ось такі справи, тату, як мама вже
знає. Вони б просто не привели вас сюди й не сказали вам нічого, якби ви могли
зробити бодай щось.

// 16462
//The man’s mouth opened but no words came out, as though he had been reading
//from a script which described what a concerned parent ought to do in this sort
//of situation, and this script had suddenly arrived at a blank spot.
Чоловік відкрив рота, та не вимовив ані слова, ніби він читав сценарій, що має
робити занепокоєний батько в цій ситуації, і раптом слова обірвалися.

// 16463
//“Harry,” the woman said falteringly.
-- Гаррі, -- з тремтінням сказала жінка.

// 16464
//The boy looked at her.
Хлопець поглянув на неї.

// 16465
//“Harry, did something happen to you? You seem… different…”
-- Гаррі, з тобою щось сталося? Ти видаєшся... іншим...

// 16466
//“Petunia!” the man said, his tongue apparently working once more. “Don’t say
//such things! He’s under stress, that’s all.”
-- Петуніє! -- сказав чоловік, його язик раптом знову запрацював. -- Не кажи
такого! У нього стрес, от і все.

// 16467
//“Well, Mum, you see -” The boy’s voice cracked. “Are you sure you want this all
//at once, Mum?”
-- Ну, мамо, розумієш... -- голос хлопця надломився. -- Ти певна, що хочеш, щоб
я звалив на вас усе одразу, мамо?

// 16468
//The woman nodded, though she didn’t speak.
Жінка кивнула, хоча нічого й не сказала.

// 16469
//“I’ve got… you know how that school psychiatrist thought I had anger management
//problems? Well -” The boy stopped, and swallowed. “I don’t know how to explain
//this to you, Mum. It’s something magical instead. Probably something to do with
//whatever happened on the night my parents died. I have… well, I was calling it
//a mysterious dark side and I know it sounds like a joke and I __did__
//check with… with an ancient telepathic magical hat to make sure my scar wasn’t
//__actually__ inhabited by the Dark Lord’s spirit and it said that there
//was only one person under its brim and I don’t think wizards have actual souls
//anyway since they can still suffer from brain damage, only -”
-- У мене є... ну, знаєте, шкільний психіатр вважав, що в мене проблеми з
керуванням гнівом? Так от... -- хлопець затнувся й ковтнув слину. -- Не знаю, як
пояснити це тобі, мамо. Натомість це щось магічне. Напевно якось повʼязане з
тим, що сталося в ніч загибелі моїх батьків. У мене... ну, я називаю це
"`таємнича темна сторона`", я знаю, це звучить як жарт, і я __спитав__ у...
древнього телепатичного магічного капелюха, чи раптом мій шрам __насправді__
містить дух Темного Лорда, але той сказав, що під його крисами є лише одна
людина, крім того сумніваюся, що в чарівників є душі, бо в них все одно може
бути травма мозку, тільки от...

// 16470
//“Harry, slow down!” said the man.
-- Гаррі, повільніше! -- сказав чоловік.

// 16471
//“- only, only whatever it is, it’s still __real,__ there’s something
//inside me, it gave me willpower when things were bad, I could face down
//anything so long as I was angry, Snape, Dumbledore, the entire Wizengamot, my
//dark side wasn’t afraid of anything but Dementors. And I wasn’t stupid, I knew
//that there might be a price for using my dark side and I kept on looking to see
//what the price might be. It didn’t change my magic, it didn’t seem to cause
//permanent alignment shift, it didn’t try to take me away from my friends or
//anything like that, so I kept on using it whenever I had to and I only figured
//out too late what the price really was -” The boy’s voice had become almost a
//whisper. “I only figured out today… every time I call on it… it uses up my
//childhood. I killed the thing that got Hermione. And it wasn’t my dark side
//that did it, it was me. Oh, Mum, Dad, I’m sorry.”
//! 51%
-- ...тільки от хай що це таке, воно __справжнє__, щось є всередині мене, воно
дає мені волю, коли все погано, я можу зустрітися з будь-яким ворогом, коли
злюся: Снейпом, Дамблдором, усім Чарверсудом, моя темна сторона не боїться
нічого, крім дементорів. І я не дурний, я знав, що за використання темної
сторони певно є ціна, і я все шукав, що ж це за ціна. Моя магія не змінювалася,
видавалося, особистість не змінюється, вона не старалася забрати в мене друзів
чи щось таке, тож я користувався нею, коли було треба, і я запізно зрозумів,
яка ж насправді ціна... -- хлопець уже говорив майже шепотом. -- Я зрозумів лише
сьогодні... щоразу, як я звертаюся до неї... вона зменшує моє дитинство. Я
знищив того, хто вбив Герміону. І це була не моя темна сторона, це був я. Ох,
мамо, тато, мені шкода.

// 16472
//There was a long silence filled with the sound of broken masks.
// hedrok: @ TODO
Запала довга тиша, сповнена лише звуку зламаних масок.

// 16473
//“Harry,” the man said, kneeling down again, “I need you to start over from the
//beginning and explain that much more slowly.”
-- Гаррі, -- сказав чоловік, знову ставши на коліна, -- я хочу, щоб ти почав
спочатку, і пояснив це все значно повільніше.

// 16474
//The boy spoke.
Хлопець розповідав.

// 16475
//The parents listened.
Батьки слухали.

// 16476
//Some time later, the father stood up.
По деякому часі тато підвівся.

// 16477
//The boy looked up at him, grimacing in bitter anticipation.
Хлопець поглянув на нього, скривившись від гірких очікувань.

// 16478
//“Harry,” the man said, “Petunia and I are going to get you out of here as
//quickly as possible -”
-- Гаррі, -- сказав чоловік, -- ми з Петунією забираємо тебе звідси якомога
швидше...

// 16479
//“Don’t,” the boy said warningly. “I mean it, Dad. The Ministry of Magic isn’t
//something you can stand up to. Pretend they’re the tax office or the dean or
//something else that won’t brook any challenge to their dominance. In magical
//Britain you’re only allowed to remember what the government thinks you should
//remember, and remembering the existence of magic or that you have a son named
//Harry is a privilege, not a right. And if they did that I’d crack and turn the
//Ministry into a giant flaming crater. Mum, you know the score, you absolutely
//have to stop Dad from trying anything stupid.”
-- Не треба, -- застережливо сказав хлопець. -- Я серйозно, тату. Ти не здатен
боротися з міністерством магії. Вдай, ніби вони -- податкова, декан чи щось іще,
що не стерпить жодного натяку на виклик їхній владі. У чаклунській Британії вам
дозволено памʼятати лише те, що уряд вважає вам слід памʼятати. А знання про
існування магії та про те, що у вас є син Гаррі, -- це привілей, а не право. І
якщо вони зітруть вам пам'ять, я зламаюся й перетворю міністерство на величезний
кратер у вогні. Мамо, ти знаєш, що на кону, ти маєш зробити все, щоб тато не
накоїв дурниць.

// 16480
//“And son -” The man rubbed at his temples. “Maybe I shouldn’t say this now… but
//are you sure that what you’re talking about is really a magical dark side, and
//not something normal for a boy your age?”
-- І синку... -- чоловік потер скроні. -- Можливо, мені не варто було б цього
казати зараз... та ти певен, що в тебе й справді магічна темна сторона, а не
щось нормальне для хлопця твого віку?

// 16481
//“Normal,” the boy said with elaborate patience. “Normal how, exactly? I could
//check again, but I’m reasonably sure there wasn’t anything about this in
//__Childcraft: A Guide For Parents.__ My dark side isn’t just an emotional
//state, it __makes me smarter.__ In some ways, anyhow. You can’t just
//__pretend__ yourself smarter.”
// hedrok: @ Childcraft: A Guide For Parents
-- Нормальне, -- вкрай терпляче сказав хлопець. -- Як саме нормальне? Я можу ще
раз перевірити, та маю всі підстави вважати, що про таке ані слова не було в
"`Правилах розвитку мозку дитини`". Моя темна сторона -- це не емоційний
стан, __вона робить мене розумнішим__. Принаймні, в деяких напрямках. Неможливо
__вдати__, що ти розумніший за себе.

// 16482
//The man rubbed at his head again. “Well… there’s a certain well-known
//phenomenon wherein children undergo a biological process which can sometimes
//make them angry and dark and grim, and this process also significantly
//increases their intelligence and their height -”
Чоловік знову потер голову руками.

-- Ну... є певний загальновідомий феномен, що відбувається з дітьми при певному
біологічному процесі, який подеколи робить їх злими, суворими й похмурими. Цей
процес також значно збільшує їхній інтелект та зріст...

// 16483
//The boy slumped back against the wall. “No, Dad, it’s not that I’m turning into
//a teenager. I checked with my brain and it still thinks that girls are icky.
//But if that’s what you want to pretend, then fine. Maybe I’m better off with
//you not believing me. I just -” The boy’s voice choked. “I just couldn’t stand
//lying about it.”
Хлопець сперся спиною на стіну.

-- Ні, тату, я не перетворююся на підлітка. Я спитав у мозку -- той досі вважає
дівчат гидкими. Та якщо ти хочеш так вважати, гаразд. Можливо, краще буде, якщо
ти мені не повіриш. Я просто... -- хлопець затнувся, -- просто не міг вам про це
брехати.

// 16484
//“Adolescence doesn’t necessarily work like that, Harry. It may still take a
//while for you to notice girls. If, in fact, you haven’t noticed one alrea-” and
//the man abruptly stopped.
-- Юність не завжди приходить саме так, Гаррі. Може минути певний час, доки ти
почнеш помічати дівчат. Втім, можливо, ти вже помітив одну певн... -- він
різко себе урвав.

// 16485
//“I didn’t like Hermione in that way,” the boy whispered. “Why does everyone
//keep thinking it has to be about that? It’s disrespectful to her, to think
//someone could only like her in that way.”
-- Мені не подобалася Герміона в цьому плані, -- прошепотів хлопець. -- Чому всі
вважають, що йдеться про це? Це неповага до неї -- вважати, що вона може
подобатися лише так.

// 16486
//The man swallowed visibly. “Anyway, son, you keep yourself safe while we work
//on getting you out of here, is that understood? Don’t you go actually thinking
//that you’ve turned to the dark side. I know you’ve had, ah, what I used to call
//your Ender Wiggin moments -”
Було помітно, як чоловік ковтнув слину.

// hedrok: "Ендер Віггін" - переклад Валерія Верховського
-- Хай там як, синку, бережи себе, доки ми витягуємо тебе звідси, зрозуміло? Не
вважай, що ти перейшов на темну сторону. Я знаю, що в тебе були... ем... я їх
називав нападами Ендера Віггіна...

// 16487
//“I think we are now __well__ past Ender and on to Ender after the buggers
//kill Valentine.”
// hedrok: "жучари", "Валентина" - переклад Валерія Верховського
-- Гадаю Ендер вже __далеко__ позаду, ми тепер на стадії, коли жучари вбили
Валентину.

// 16488
//“Language!” said the woman, and then her hand flew to cover her mouth.
-- Слідкуй за мовою! -- вигукнула жінка, а тоді закрила рот рукою.

// 16489
//The boy spoke wearily. “Not that kind of bugger, Mum. They’re insectoid aliens
//- never mind.”
Хлопець втомлено відповів:

-- Не такі жучари, мамо. Це інсектоїдні прибульці... забудь.

// 16490
//“Harry, that’s exactly what I’m saying you shouldn’t think,” Professor
//Verres-Evans said firmly. “You’re not to go believing that you’re turning evil.
//You are not to hurt anyone, place yourself in harm’s way, or mess around with
//any sort of black magic whatsoever, while your Mum and I work on extracting you
//from this situation. Is that clear, son?”
-- Гаррі, саме так ти й не маєш вважати, -- твердо сказав професор Веррес-Еванс.
-- Ти не маєш вірити, що стаєш лихим. Не маєш нікому шкодити, не маєш ризикувати
зазнати шкоди, не маєш гратися з будь-якою чорною магією тощо, доки ми з мамою
тебе рятуємо з цієї халепи. Зрозуміло, синку?

// 16491
//The boy closed his eyes. “That’d be wonderful advice, Dad, if only I were in a
//comic book.”
Хлопець заплющив очі.

-- Чудова була б порада, тату, якби ми були в коміксах.

// 16492
//“__Harry -__” the man began.
-- __Гаррі...__ -- почав чоловік.

// 16493
//“Police can’t do that. Soldiers can’t do that. The most powerful wizard in the
//world couldn’t do that, and he tried. It’s not fair to the innocent bystanders
//to play at being Batman if you can’t actually protect everyone under that code.
//And I’ve just proven that I can’t.”
-- Поліція на це нездатна. Солдати на це нездатні. Наймогутніший чарівник на це
нездатний, а він старався. Нечесно щодо невинних перехожих грати з себе Бетмена,
якщо ти насправді не здатен захистити всіх згідно його коду. А я щойно довів, що
не здатен на це.

// 16494
//Beads of sweat were glistening on Professor Michael Verres-Evans’s forehead.
//“Now you listen to me. No matter what you’ve read in books, you aren’t
//__supposed__ to be protecting anyone! Or involving yourself in anything
//dangerous! Absolutely anything dangerous whatsoever! Just stay out of the way
//of __everything,__ every bit of craziness going on in this madhouse, while
//we get you out of here the first instant we possibly can!”
//! 68%
Краплі поту блищали на чолі професора Майкла Верреса-Еванса:

-- Тепер послухай мене. Хай що ти там прочитав у книжках, ти не __повинен__
нікого захищати! Чи встрявати у будь-що небезпечне! Взагалі зовсім ні у що
жодним чином небезпечне! Просто тримайся подалі від __усього__, від кожної
краплини безумства, що коїться у цій божевільні, а ми витягнемо тебе звідси,
щойно зможемо!

// 16495
//The boy looked searchingly at his father, then his mother. Then he looked at
//his wristwatch again.
Хлопець уважно роздивився тата, потім матір. А тоді він знову подивився на
годинник.

// 16496
//“Excellent point,” said the boy.
-- Дуже слушно, -- сказав хлопець.

// 16497
//The boy marched over to the door leading outward, and flung it open.
Він широким кроком підійшов до зовнішніх дверей та розчахнув їх.

***

// 16498
//The door flew open with a crack that caused Minerva to startle where she stood,
//and before she had time to think, Harry Potter marched out of the room, glaring
//directly at her.
Двері розчахнулися з хряскотом, від чого Мінерва застигла на місці. Не встигла
вона й подумати, як Гаррі Поттер вийшов з кімнати й вбивчо на неї поглянув.

// 16499
//“You brought my parents __here__,” the Boy-Who-Lived said. “To
//__Hogwarts.__ Where You-Know-Who or __someone__ is lurking around,
//targeting my friends. What exactly were you thinking?”
-- Ви привели моїх батьків __сюди__, -- сказав Хлопчик-Що-Вижив. -- До
__Гоґвортсу__. В якому Відомо-Хто чи __хтось іще__ нишпорить та атакує моїх
друзів. Про що саме ви думали?

// 16500
//She did not reply that she had been thinking about Harry sitting in front of
//the door to the storeroom containing Hermione’s body, refusing to move.
Вона не відповіла, що думала про те, як Гаррі сидить навпроти дверей до кімнати
зберігання, в якій було тіло Герміони, і відмовляється піти.

// 16501
//“Who else knows about this?” Harry Potter demanded. “Did anyone see them with
//you?”
-- Хто ще про це знає? -- вимогливо запитав Гаррі Поттер. -- Хтось крім вас їх
бачив?

// 16502
//“The Headmaster brought them here -”
-- Директор доправив їх сюди...

// 16503
//“I want them out of here __immediately__ before anyone else notices,
//especially You-Know-Who, but also including Professor Quirrell or Professor
//Snape. Please send your Patronus to the Headmaster and tell him that he needs
//to bring it back at once. Do not mention my parents by name, or as people, in
//case somebody else is listening.”
-- Я хочу, щоб їх забрали звідси __негайно__, доки ніхто їх не помітив, зокрема
Відомо-Хто, але також професор Квірел і професор Снейп. Будь ласка, направте
патронуса до директора, передайте, що він має невідкладно повернути їх. Не
згадуйте моїх батьків на імена, чи взагалі, що йдеться про людей, на випадок,
якщо хтось слухає.

// 16504
//“Indeed,” said Professor Verres-Evans, nodding sternly along with this from
//where he stood directly behind the boy, Petunia a step behind him. His hand
//rested firmly on Harry’s shoulder. “We’ll finish talking to our son at home.”
-- Саме так, -- сказав професор Веррес-Еванс, строго кивнувши. Він йшов крок у
крок за хлопцем, Петунія -- трохи далі. Він не відпускав плече Гаррі. -- Ми
завершимо розмову з нашим сином вдома.

// 16505
//“A moment, please,” Minerva said in reflexive politeness. Her first try at
//casting the Patronus failed, a disadvantage of that Charm under certain
//circumstances. It wasn’t the first time she’d done it so, but she seemed to
//have lost some of the knack -
-- Одну хвилинку, будь ласка, -- рефлекторно ввічливо сказала Мінерва.

Їй не вдалося викликати патронуса першого разу -- недолік цих чарів за певних
умов. Їй це було не вперше, та, видається, вона втратила деякі навички...

// 16506
//Minerva shut the thought down and concentrated.
Мінерва обрубала цю думку й зосередилася.

// 16507
//When the message was sent, she turned back to Professor Verres-Evans. “Sir,”
//she said, “I’m afraid that Mr. Potter must not leave the Hogwarts School -”
Коли повідомлення було надіслано, вона повернула погляд до професора
Верреса-Еванса.

-- Сер, -- сказала вона, -- боюся, містер Поттер не може покидати школи
Гоґвортс...

// 16508
//By the time Albus finally arrived, there was shouting, the Muggle man having
//given up on dignity. At least there was shouting on one side of the argument.
//Minerva’s heart wasn’t in it. The truth was that she couldn’t believe the words
//coming out of her mouth.
Коли Албус нарешті зʼявився, були крики -- маґл втратив почуття гідності.
Принаймні, кричала одна сторона. У Мінерви був зовсім не той настрій. По правді
вона не мала віри словам, що їх вимовляла.

// 16509
//When the Professor turned to argue with the Headmaster, Harry Potter, who had
//remained silent through this, spoke up. “Not here,” said Harry. “You can argue
//with him anywhere but Hogwarts, Dad. Mum, please, please make sure that Dad
//doesn’t try anything that will get him in trouble with the Ministry.”
Коли професор зібрався сперечатися з директором, Гаррі Поттер, весь цей час
мовчазний, сказав:

-- Не тут. Ти можеш сперечатися з ним будь-де, крім Гоґвортсу, тату. Мамо,
прошу, будь ласка, доклади всіх зусиль, щоб тато не зробив нічого, через що
можуть виникнути проблеми з міністерством.

// 16510
//Michael Verres-Evans’s face screwed up. He turned, looked at Harry Potter. When
//his voice came out it was hoarse, accompanied by water in his eyes. “Son - what
//are you doing?”
Обличчя Майкла Верреса-Еванса спотворилося. Він озирнувся й поглянув на Гаррі
Поттера. Голос його був хрипким, очі були на мокрому місці.

-- Синку... що ти робиш?

// 16511
//“You know perfectly well what I’m doing,” Harry Potter said. “You read those
//comic books long before you gave them to me. I’ve been through a bunch of crap,
//matured a bit, and now I’m protecting my relatives. Actually, it’s simpler than
//that, you know what I’m doing because you tried to do the same thing. I’m
//having my loved ones taken out of Hogwarts immediately, that’s what I’m doing.
//Headmaster, please get them out of here before You-Know-Who discovers their
//presence and marks them for death.”
-- Ти чудово знаєш, що я роблю, -- сказав Гаррі Поттер. -- Ти прочитав усі ці
комікси задовго до того, як дав їх мені. Я пройшов чимало лайна, трохи
подорослішав, а тепер захищаю родичів. Насправді, все навіть простіше: ти знаєш,
що я роблю, бо щойно й сам хотів це зробити. Я роблю так, щоб тих, кого я люблю,
негайно забрали з Гоґвортсу -- ось що я роблю. Директоре, будь ласка, заберіть
їх звідси, доки Відомо-Хто не дізнається про них і не вирішить, що їм треба
померти.

// 16512
//Michael Verres-Evans began a frantic dash toward Harry, and then all motion
//stopped with the Muggle man leaning forward in his flight.
Майкл Веррес-Еванс шалено кинувся до Гаррі, а тоді весь рух спинився -- маґл
заклякнув, схилений у стрибку.

// 16513
//“I am sorry,” the Headmaster said quietly. “We shall speak more soon. Minerva,
//I was with the others when you called, they are waiting in your office.”
-- Вибач, -- тихо сказав директор. -- Невдовзі поговоримо. Мінерво, я був з
іншими, коли ти покликала, вони чекають у твоєму кабінеті.

// 16514
//The Headmaster passed forwards like he was gliding, until he stood in the midst
//of where the man and woman stood frozen; and there was another flash of flame.
Директор рушив уперед, ніби він ковзав по льоду, доки не опинився між застиглими
чоловіком та жінкою. І знову спалахнуло полумʼя.

// 16515
//Motion resumed.
Рухи відновилися.

// 16516
//Minerva looked at Harry.
Мінерва поглянула на Гаррі.

// 16517
//Words did not come to her.
Вона не могла дібрати слів.

// 16518
//“Clever move, bringing them here,” Harry Potter said. “Probably damaged our
//relationship permanently. All I wanted was to be bloody left alone until bloody
//dinnertime. Which,” the boy looked at his wristwatch, “it now is
//__anyway__. I’m going to go say goodbye to Hermione by myself, which I
//promise will take less than two minutes, and then after that I’ll come out and
//go eat something like I would have done regardless. Do __not __disturb me
//for those two bloody minutes or I will snap and try to kill someone, I mean it,
//Professor.”
//! 86%
-- Хитрий хід, привести їх сюди, -- сказав Гаррі Поттер. -- Напевно наші
стосунки назавжди зіпсовано. А я лише хотів, щоб мене залишили в спокої до
клятої вечері. Яка, -- хлопець поглянув на наручний годинник, -- вже __все
одно__ настала. Я попрощаюся з Герміоною наодинці, обіцяю, що вийду щонайбільше
за дві хвилини, а тоді піду й зʼїм щось, як і збирався в будь-якому разі. __Не
турбуйте__ мене протягом цих клятих двох хвилин, або я зламаюся й спробую когось
убити. Я не жартую, професорко.

// 16519
//The boy turned and strode into the small room, opened the rear door to where
//Hermione Granger’s body was being kept, and strode inside before she could
//think to speak. Through the doorway she saw a flash of a sight she knew no
//child ought to see -
Хлопець розвернувся на місці й покрокував до кімнатки, розчинив задні двері, за
якими лежало тіло Герміони Ґрейнджер, зайшов до середини, доки вона не встигла
вирішити щось сказати. Крізь дверний отвір вона на мить побачила те, що жодна
дитина не мала бачити...

// 16520
//The door slammed shut.
Двері захряснулися.

// 16521
//She started forwards, unthinking.
Вона бездумно рушила вперед.

// 16522
//Halfway to the door, she stopped herself.
Напівшляху до дверей вона спинилася.

// 16523
//Her mind was still slow, and hurting, and the part of her that Harry Potter
//would have called __the picture of a stern disciplinarian__ was lifelessly
//mouthing words about inappropriate behavior from children. The rest of her
//didn’t think it was a good idea to leave any child, even Harry Potter, alone in
//a room with the bloody corpse of his best friend. But the act of opening the
//door, or asserting any sort of authority, did not seem to her wise. There was
//no right thing to do, and no right thing to say; or if there was any right
//path, she did not know it.
// hedrok: "the picture of a stern disciplinarian" 090:16289
Її розум досі був повільним, досі страждав, і та її частина, яку Гаррі Поттер
назвав би "`уявний образ суворої виховательки`" вимовляла слова про невідповідну
для дитини поведінку. Решта її не вважала, що це хороша ідея -- залишити дитину,
навіть Гаррі Поттера, наодинці в кімнаті з кривавим трупом найкращого друга. Та
відчинити двері чи будь-яким іншим чином виявити свої повноваження видавалося
не мудрим. Не було правильного рішення, не було правильних слів. Чи, якщо вони й
існували, вона про них не знала.

// 16524
//Very slowly, a minute and a half passed.
Дуже повільно минули півтори хвилини.

***

// 16525
//When the door opened again, Harry seemed to have changed, as though that minute
//and a half had passed over the course of lifetimes.
Коли двері знову розчинилися, Гаррі Поттер змінився, ніби впродовж півтора
хвилин минули цілі життя.

// 16526
//“Seal up the room,” Harry said quietly, “and let’s go, Professor McGonagall.”
-- Запечатайте кімнату, -- тихо сказав Гаррі, -- і ходімо, професорко
Макґонеґел.

// 16527
//She walked over to the storeroom door. She wasn’t quite able to stop herself
//from looking in, and saw the dried blood, the sheet covering the lower half,
//the upper body waxy and doll-like, and a glimpse of Hermione Granger’s closed
//eyes. Something inside her began its weeping all over again.
Вона підійшла до дверей кімнати зберігання. Вона не стримала погляду -- побачила
висохлу кров, простирадло, що прикривало нижню половину, а верхня половина була
ніби з воску, лялькою, помітила заплющені очі Герміони Ґрейнджер. Щось всередині
неї знову почало схлипувати.

// 16528
//She closed the door.
Вона зачинила двері.

// 16529
//Her fingers moved upon her wand, her mouth spoke words without thought, Charms
//and wards to seal the room against entry.
Її пальці заворушилися на паличці, вона вимовляла слова без жодної думки -- чари
й захисні закляття, щоб запечатати кімнату від входу.

// 16530
//“Professor McGonagall,” Harry said in a strange voice, as if by rote, “do you
//have the rock? The rock that the Headmaster gave me? I should Transfigure it
//into a jewel again, since it did prove useful.”
-- Професорко Макґонеґел, -- дивним голосом сказав Гаррі, ніби він визубрив цю
фразу, -- у вас є мій камінь? Той, що директор дав мені? Треба його знову
трансфігурувати на коштовний камінь, адже він виявився корисним.

// 16531
//Automatically her eyes went to the ring on Harry’s left pinky finger, noting
//the emptiness of the setting where the jewel should have been. “I shall mention
//it to the Headmaster,” her tongue replied.
Її очі автоматично кинулися до персня на лівому мізинчику Гаррі й помітили, що
на ньому бракує коштовного каміння.

-- Я розповім про це директорові, -- відповів її язик.

// 16532
//“Is that a usual tactic, by the way?” Harry said, voice still odd. “Carrying
//something large Transfigured into something small to use as a weapon? Or is
//that a usual exercise for Transfiguration practice?”
-- До речі, це звичайна тактика? -- цим дивним голосом спитав Гаррі. -- Носити
щось велике, трансфігуроване на щось маленьке, й використовувати як зброю? Чи це
звичайна вправа при вивченні трансфігурації?

// 16533
//Distantly, she shook her head.
Вона неуважно похитала головою.

// 16534
//“Well, let’s go, then.”
-- Ну, тоді ходімо.

// 16535
//“I have -” her voice stopped. “I’m afraid I have something else which I must
//do, now. Will you be all right on your own, and will you promise to go to the
//Great Hall directly and eat something, Mr. Potter?”
-- Я маю... -- вона затнулася. -- Боюся, я маю зараз зробити дещо інше. Ви
можете дійти самі? Обіцяєте, що підете просто до Великої зали й щось зʼїсте,
містере Поттер?

// 16536
//The boy promised (barring exceptional and unforeseen circumstances, a clause
//with which she did not argue) and then walked out of the room.
Хлопець пообіцяв (за винятком надзвичайних та непередбачуваних обставин --
умова, з якою вона не сперечалася), а тоді вийшов з кімнати.

// 16537
//What lay ahead of her… would be no easier, certainly, and might well be harder.
Те, що чекало попереду... було без сумніву не легшим, і цілком могло бути
важчим.

***

// 16538
//Minerva walked to her office at a swift pace; not slowly, for that would have
//been a discourtesy.
Мінерва швидко пішла до свого кабінету. Не повільно, бо це було б нечемно.

// 16539
//Professor McGonagall opened the door to her office.
Професорка Макґонеґел розчинила двері кабінету.

// 16540
//“Madam Granger,” her voice said, “Mr. Granger, I am so terribly sorry for -”
-- Мадам Ґрейнджер, -- сказала вона, -- містере Ґрейнджер, мені страшенно
шкода...
