== Гаррі Поттер і Методи Раціональности

Автор: __Елізер Юдковскі__, http://hpmor.com[Оригінал (hpmor.com)]

Переклад з англійської:
Яценко Кирило aka hedrok,
Ельвіра Ізмаілова aka Lewissa,
Ольга Бєлова,
Охрим Володимир aka ikakok,
Дмитро Кабакчей

Редакторка: Аліна Несторак (опрацьовано розділи 1-21)

Коректор: Дмитро Редчук aka brownian

Також допомагали з перекладом:
Олена Ширінговська,
Єгор Поляков,
Малярчук Олександр aka Labinnac,
Павло Фаткін aka BorHuK,
Jhellico,
Микола Гнідь,
bunyk
та інші.

link:help.html[Як долучитися]

link:https://www.facebook.com/groups/212447182535471/[Наша група у Фейсбуці].
Долучайтеся, будь ласка! Тут будуть повідомлення про нові розділи.

Завдяки Qgelena у нас зʼявилася link:http://гпімр.укр/rss.xml[RSS-стрічка].

Завдяки Дмитрові Сіренку в нас з'явилася
link:https://гпімр.укр/files/hpimr.epub[epub-версія] та майже готова pdf-версія!

.Зміст

У дужках вказані дати публікації перекладу розділів.

.Книга 1. Гаррі Джеймс Поттер-Еванс-Веррес і Методи Раціональности

* link:001.html[{chapter001}] (22.09.2016)
* link:002.html[{chapter002}] (24.09.2016)
* link:003.html[{chapter003}] (26.09.2016)
* link:004.html[{chapter004}] (30.09.2016)
* link:005.html[{chapter005}] (02.10.2016)
* link:006.html[{chapter006}] (17.10.2016)
* link:007.html[{chapter007}] (31.10.2016)
* link:008.html[{chapter008}] (19.11.2016)
* link:009.html[{chapter009}] (20.11.2016)
* link:010.html[{chapter010}] (29.11.2016)
* link:011.html[{chapter011}] (12.12.2016)
* link:012.html[{chapter012}] (12.12.2016)
* link:013.html[{chapter013}] (27.12.2016)
* link:014.html[{chapter014}] (27.12.2016)
* link:015.html[{chapter015}] (18.01.2017)
* link:016.html[{chapter016}] (24.02.2017)
* link:017.html[{chapter017}] (24.02.2017)
* link:018.html[{chapter018}] (24.02.2017)
* link:019.html[{chapter019}] (24.04.2017)
* link:020.html[{chapter020}] (24.04.2017)
* link:021.html[{chapter021}] (15.05.2017)

.Книга 2. Гаррі Джеймс Поттер-Еванс-Веррес і Ігри Професора

* link:022.html[{chapter022}] (15.05.2017)
* link:023.html[{chapter023}] (29.05.2017)
* link:024.html[{chapter024}] (29.05.2017)
* link:025.html[{chapter025}] (11.06.2017)
* link:026.html[{chapter026}] (11.06.2017)
* link:027.html[{chapter027}] (26.06.2017)
* link:028.html[{chapter028}] (10.07.2017)
* link:029.html[{chapter029}] (24.07.2017)
* link:030.html[{chapter030}] (07.08.2017)
* link:031.html[{chapter031}] (07.08.2017)
* link:032.html[{chapter032}] (21.08.2017)
* link:033.html[{chapter033}] (21.08.2017)
* link:034.html[{chapter034}] (04.09.2017)
* link:035.html[{chapter035}] (18.09.2017)
* link:036.html[{chapter036}] (02.10.2017)
* link:037.html[{chapter037}] (02.10.2017)

.Книга 3. Гаррі Джеймс Поттер-Еванс-Веррес і Тіні Смерти

* link:038.html[{chapter038}] (02.10.2017)
* link:039.html[{chapter039}] (16.10.2017)
* link:040.html[{chapter040}] (30.10.2017)
* link:041.html[{chapter041}] (30.10.2017)
* link:042.html[{chapter042}] (13.11.2017)
* link:043.html[{chapter043}] (13.11.2017)
* link:044.html[{chapter044}] (13.11.2017)
* link:045.html[{chapter045}] (27.11.2017)
* link:046.html[{chapter046}] (27.11.2017)
* link:047.html[{chapter047}] (11.12.2017)
* link:048.html[{chapter048}] (25.12.2017)
* link:049.html[{chapter049}] (08.01.2018)
* link:050.html[{chapter050}] (08.01.2018)
* link:051.html[{chapter051}] (08.01.2018)
* link:052.html[{chapter052}] (22.01.2018)
* link:053.html[{chapter053}] (22.01.2018)
* link:054.html[{chapter054}] (05.02.2018)
* link:055.html[{chapter055}] (05.02.2018)
* link:056.html[{chapter056}] (19.02.2018)
* link:057.html[{chapter057}] (19.02.2018)
* link:058.html[{chapter058}] (05.03.2018)
* link:059.html[{chapter059}] (20.03.2018)
* link:060.html[{chapter060}] (20.03.2018)
* link:061.html[{chapter061}] (20.03.2018)
* link:062.html[{chapter062}] (03.04.2018)
* link:063.html[{chapter063}] (17.04.2018)
* link:064.html[{chapter064}] (25.05.2020)

.Книга 4. Герміона Джін Ґрейнджер і Поклик Фенікса

* link:065.html[{chapter065}] (08.05.2018)
* link:066.html[{chapter066}] (08.05.2018)
* link:067.html[{chapter067}] (14.05.2018)
* link:068.html[{chapter068}] (28.05.2018)
* link:069.html[{chapter069}] (11.06.2018)
* link:070.html[{chapter070}] (25.06.2018)
* link:071.html[{chapter071}] (09.07.2018)
* link:072.html[{chapter072}] (24.07.2018)
* link:073.html[{chapter073}] (07.08.2018)
* link:074.html[{chapter074}] (20.08.2018)
* link:075.html[{chapter075}] (20.08.2018)
* link:076.html[{chapter076}] (03.09.2018)
* link:077.html[{chapter077}] (03.09.2018)
* link:078.html[{chapter078}] (17.09.2018)
* link:079.html[{chapter079}] (01.10.2018)
* link:080.html[{chapter080}] (01.10.2018)
* link:081.html[{chapter081}] (15.10.2018)
* link:082.html[{chapter082}] (15.10.2018)
* link:083.html[{chapter083}] (29.10.2018)
* link:084.html[{chapter084}] (29.10.2018)
* link:085.html[{chapter085}] (29.10.2018)

.Книга 5. Гаррі Джеймс Поттер-Еванс-Веррес і Останній Ворог

* link:086.html[{chapter086}] (12.11.2018)
* link:087.html[{chapter087}] (26.11.2018)
* link:088.html[{chapter088}] (26.11.2018)
* link:089.html[{chapter089}] (10.12.2018)
* link:090.html[{chapter090}] (10.12.2018)
* link:091.html[{chapter091}] (10.12.2018)
* link:092.html[{chapter092}] (10.12.2018)
* link:093.html[{chapter093}] (24.12.2018)
* link:094.html[{chapter094}] (24.12.2018)
* link:095.html[{chapter095}] (24.12.2018)
* link:096.html[{chapter096}] (24.12.2018)
* link:097.html[{chapter097}] (07.01.2019)
* link:098.html[{chapter098}] (07.01.2019)
* link:099.html[{chapter099}] (07.01.2019)

.Книга 6. Гаррі Джеймс Поттер-Еванс-Веррес і Філософський Камінь

* link:100.html[{chapter100}] (21.01.2019)
* link:101.html[{chapter101}] (21.01.2019)
* link:102.html[{chapter102}] (21.01.2019)
* link:103.html[{chapter103}] (03.02.2019)
* link:104.html[{chapter104}] (03.02.2019)
* link:105.html[{chapter105}] (18.02.2019)
* link:106.html[{chapter106}] (18.02.2019)
* link:107.html[{chapter107}] (18.02.2019)
* link:108.html[{chapter108}] (04.03.2019)
* link:109.html[{chapter109}] (18.03.2019)
* link:110.html[{chapter110}] (18.03.2019)
* link:111.html[{chapter111}] (01.04.2019)
* link:112.html[{chapter112}] (01.04.2019)
* link:113.html[{chapter113}] (03.04.2019)
* link:114.html[{chapter114}] (14.04.2019)
* link:115.html[{chapter115}] (14.04.2019)
* link:116.html[{chapter116}] (14.04.2019)
* link:117.html[{chapter117}] (14.04.2019)
* link:118.html[{chapter118}] (14.04.2019)
* link:119.html[{chapter119}] (29.04.2019)
* link:120.html[{chapter120}] (29.04.2019)
* link:121.html[{chapter121}] (13.05.2019)
* link:122.html[{chapter122}] (13.05.2019)
